<14>2018-11-15T20:54:58.696360+02:00 MonTierLocalId-38 [0x80e0013a][mpgw][info] source-https(webapi-https): trans(735230738)[172.17.100.130]: Received HTTP/1.1 GET for /montierorg/montiercatalog/accounts/balance?customer_id=1111111 from 172.17.100.130
<14>2018-11-15T20:54:58.697103+02:00 MonTierLocalId-38 [0x80e0083d][mpgw][info] mpgw(webapi): trans(735230738)[request][172.17.100.130]: Started the processing of the transaction.
<15>2018-11-15T20:54:58.697199+02:00 MonTierLocalId-38 [0x80e0068c][memory-report][debug] mpgw(webapi): trans(735230738)[172.17.100.130] gtid(29a2d46f5bedc1022bd2bb12): Request Started: memory used 539928
<12>2018-11-15T20:54:58.697262+02:00 MonTierLocalId-38 [0x00340027][multistep][warn] mpgw(webapi): trans(735230738)[request][172.17.100.130] gtid(29a2d46f5bedc1022bd2bb12): Multistep Probe enabled
<15>2018-11-15T20:54:58.717794+02:00 MonTierLocalId-38 [0x80e0068d][memory-report][debug] mpgw(webapi): trans(735230738)[request][172.17.100.130] gtid(29a2d46f5bedc1022bd2bb12): Processing [Rule (webapi-mpgw-request-fw), Action ('webapi-init-context', setvar(var://context/_apimgmt/no-op)), Input(INPUT), Output(NULL)] finished: memory used 1140600
<14>2018-11-15T20:54:58.717947+02:00 MonTierLocalId-38 [0x80c00002][multistep][info] mpgw(webapi): trans(735230738)[request][172.17.100.130] gtid(29a2d46f5bedc1022bd2bb12): rule (webapi-mpgw-request-fw): #1 setvar: Setting var://context/_apimgmt/no-op in context INPUT to be 1. completed OK.
<15>2018-11-15T20:54:58.729469+02:00 MonTierLocalId-38 [0x80e0068d][memory-report][debug] mpgw(webapi): trans(735230738)[request][172.17.100.130] gtid(29a2d46f5bedc1022bd2bb12): Processing [Rule (webapi-mpgw-request-fw), Action ('webapi-unified-request-init', xform(local:///isp/unified-request-init.xsl)), Input(NULL), Output(CONTEXT_WEBAPI_TR)] finished: memory used 1859616
<14>2018-11-15T20:54:58.729635+02:00 MonTierLocalId-38 [0x80c00002][multistep][info] mpgw(webapi): trans(735230738)[request][172.17.100.130] gtid(29a2d46f5bedc1022bd2bb12): rule (webapi-mpgw-request-fw): #2 xform: Transforming the content of NULL. The transformation local:///isp/unified-request-init.xsl is applied. The results are stored in CONTEXT_WEBAPI_TR. completed OK.
<15>2018-11-15T20:54:58.743271+02:00 MonTierLocalId-38 [0x80e0068d][memory-report][debug] mpgw(webapi): trans(735230738)[request][172.17.100.130] gtid(29a2d46f5bedc1022bd2bb12): Processing [Rule (webapi-mpgw-request-fw), Action ('webapi-dpext-pre-request-cond', conditional()), Input(webapi-dpext), Output(NULL)] finished: memory used 2453872
<14>2018-11-15T20:54:58.743456+02:00 MonTierLocalId-38 [0x80c00002][multistep][info] mpgw(webapi): trans(735230738)[request][172.17.100.130] gtid(29a2d46f5bedc1022bd2bb12): rule (webapi-mpgw-request-fw): #3 Conditional on webapi-dpext completed OK.
<15>2018-11-15T20:54:58.756101+02:00 MonTierLocalId-38 [0x80e0068d][memory-report][debug] mpgw(webapi): trans(735230738)[request][172.17.100.130] gtid(29a2d46f5bedc1022bd2bb12): Processing [Rule (webapi-mpgw-request-fw), Action ('webapi-form-parse-input', conditional()), Input(CONTEXT_WEBAPI_TR), Output(NULL)] finished: memory used 3070496
<14>2018-11-15T20:54:58.756194+02:00 MonTierLocalId-38 [0x80c00002][multistep][info] mpgw(webapi): trans(735230738)[request][172.17.100.130] gtid(29a2d46f5bedc1022bd2bb12): rule (webapi-mpgw-request-fw): #4 Conditional on CONTEXT_WEBAPI_TR completed OK.
<15>2018-11-15T20:54:58.775843+02:00 MonTierLocalId-38 [0x80000001][api-mon][debug] mpgw(webapi): trans(735230738)[request][172.17.100.130] gtid(29a2d46f5bedc1022bd2bb12): #^R3^A1:montierorg^A2:montiercatalog^A3:new-space^A4:default^A5:1.0.0^A6:__INTERNAL_QS__:1.0.0:default^A7:accounts^A8:1.0.5^A9:https://172.17.100.200:443/montierorg/montiercatalog/accounts/balance^AA:GET^AB:accounts:1.0.1:get:/balance^AC:9612cb56-da1a-4757-a301-018ac4359306^AE:montierproduct^AF:customer_id=1111111^AG:0^AN:596d0eb7e4b0f0bab66e457b^AO:172.17.100.130^AW:^AX:^B7:montierproduct^B8:monconsumerorg^B9:1^BC:montierapp#^
<15>2018-11-15T20:54:58.776434+02:00 MonTierLocalId-38 [0x80e0068d][memory-report][debug] mpgw(webapi): trans(735230738)[request][172.17.100.130] gtid(29a2d46f5bedc1022bd2bb12): Processing [Rule (webapi-mpgw-request-fw), Action ('webapi-unified-request-select-and-set-tenant', xform(local:///isp/unified-request-select-and-set-tenant.xsl)), Input(NULL), Output(NULL)] finished: memory used 5147984
<14>2018-11-15T20:54:58.776619+02:00 MonTierLocalId-38 [0x80c00002][multistep][info] mpgw(webapi): trans(735230738)[request][172.17.100.130] gtid(29a2d46f5bedc1022bd2bb12): rule (webapi-mpgw-request-fw): #5 xform: Transforming the content of NULL. The transformation local:///isp/unified-request-select-and-set-tenant.xsl is applied. The results are stored in NULL. completed OK.
<15>2018-11-15T20:54:58.811810+02:00 MonTierLocalId-38 [0x80e0068d][memory-report][debug] mpgw(webapi): trans(735230738)[request][172.17.100.130] gtid(29a2d46f5bedc1022bd2bb12): Processing [Rule (webapi-mpgw-request-fw), Action ('webapi-request-response-conditional-1', conditional()), Input(CONTEXT_WEBAPI_TR), Output(NULL)] finished: memory used 6514464
<14>2018-11-15T20:54:58.811992+02:00 MonTierLocalId-38 [0x80c00002][multistep][info] mpgw(webapi): trans(735230738)[request][172.17.100.130] gtid(29a2d46f5bedc1022bd2bb12): rule (webapi-mpgw-request-fw): #6 Conditional on CONTEXT_WEBAPI_TR completed OK.
<15>2018-11-15T20:54:58.844196+02:00 MonTierLocalId-38 [0x80000001][api-mon][debug] mpgw(webapi): trans(735230738)[request][172.17.100.130] gtid(29a2d46f5bedc1022bd2bb12): #^R7^B1:11^AP:apim.security^AQ:apim.security^AR:^AT:2^AU:request#^
<15>2018-11-15T20:54:58.844032+02:00 MonTierLocalId-38 [0x80000001][api-mon][debug] mpgw(webapi): trans(735230738)[request][172.17.100.130] gtid(29a2d46f5bedc1022bd2bb12): #^R7^B1:11^AP:activitylog^AQ:activity-log^AR:1.0.0^AT:1^AU:request#^
<15>2018-11-15T20:54:58.844257+02:00 MonTierLocalId-38 [0x80000001][api-mon][debug] mpgw(webapi): trans(735230738)[request][172.17.100.130] gtid(29a2d46f5bedc1022bd2bb12): #^R7^B1:11^AP:map^AQ:getBalance: input^AR:^AT:3^AU:request#^
<15>2018-11-15T20:54:58.844585+02:00 MonTierLocalId-38 [0x80000001][api-mon][debug] mpgw(webapi): trans(735230738)[request][172.17.100.130] gtid(29a2d46f5bedc1022bd2bb12): #^R7^B1:11^AP:if^AQ:if^AR:1.0.0^AT:8^AU:request#^
<15>2018-11-15T20:54:58.844462+02:00 MonTierLocalId-38 [0x80000001][api-mon][debug] mpgw(webapi): trans(735230738)[request][172.17.100.130] gtid(29a2d46f5bedc1022bd2bb12): #^R7^B1:11^AP:apim.setvariable^AQ:SetCreditStatusVar^AR:1.0.0^AT:7^AU:request#^
<15>2018-11-15T20:54:58.844409+02:00 MonTierLocalId-38 [0x80000001][api-mon][debug] mpgw(webapi): trans(735230738)[request][172.17.100.130] gtid(29a2d46f5bedc1022bd2bb12): #^R7^B1:11^AP:map^AQ:getBalance: output^AR:^AT:6^AU:request#^
<15>2018-11-15T20:54:58.844360+02:00 MonTierLocalId-38 [0x80000001][api-mon][debug] mpgw(webapi): trans(735230738)[request][172.17.100.130] gtid(29a2d46f5bedc1022bd2bb12): #^R7^B1:11^AP:invoke^AQ:getBalance: invoke^AR:^AT:5^AU:request#^
<15>2018-11-15T20:54:58.844309+02:00 MonTierLocalId-38 [0x80000001][api-mon][debug] mpgw(webapi): trans(735230738)[request][172.17.100.130] gtid(29a2d46f5bedc1022bd2bb12): #^R7^B1:11^AP:apim.setvariable^AQ:SetCustomerDataVar^AR:1.0.0^AT:4^AU:request#^
<15>2018-11-15T20:54:58.844712+02:00 MonTierLocalId-38 [0x80000001][api-mon][debug] mpgw(webapi): trans(735230738)[request][172.17.100.130] gtid(29a2d46f5bedc1022bd2bb12): #^R7^B1:11^AP:json-to-xml^AQ:json-to-xml^AR:1.0.0^AT:9^AU:request#^
<15>2018-11-15T20:54:58.844966+02:00 MonTierLocalId-38 [0x80000001][api-mon][debug] mpgw(webapi): trans(735230738)[request][172.17.100.130] gtid(29a2d46f5bedc1022bd2bb12): #^R7^B1:11^AP:apim.setvariable^AQ:SetCreditStatusVar2^AR:1.0.0^AT:10^AU:request#^
<15>2018-11-15T20:54:58.845132+02:00 MonTierLocalId-38 [0x80000001][api-mon][debug] mpgw(webapi): trans(735230738)[request][172.17.100.130] gtid(29a2d46f5bedc1022bd2bb12): #^R7^B1:11^AP:$$end-block$$^AQ:$$end-block$$^AR:^AT:11^AU:request#^
<15>2018-11-15T20:54:58.846502+02:00 MonTierLocalId-38 [0x80000001][api-mon][debug] mpgw(webapi): trans(735230738)[request][172.17.100.130] gtid(29a2d46f5bedc1022bd2bb12): #^R5^A1:montierorg^A2:montiercatalog^A3:new-space^A4:default^A5:1.0.0^A6:__INTERNAL_QS__:1.0.0:default^A7:accounts^A8:1.0.5^A9:https://172.17.100.200:443/montierorg/montiercatalog/accounts/balance^AA:GET^AB:accounts:1.0.1:get:/balance^AC:9612cb56-da1a-4757-a301-018ac4359306^AE:montierproduct^AF:customer_id=1111111^AG:0^AN:596d0eb7e4b0f0bab66e457b^AO:172.17.100.130^AP:activitylog^AQ:activity-log^AR:1.0.0^AS:activity-log^AT:1^AU:request^AV:^AW:^AX:^B6:150^B7:montierproduct^B8:monconsumerorg^BC:montierapp#^
<15>2018-11-15T20:54:58.846617+02:00 MonTierLocalId-38 [0x80e0068d][memory-report][debug] mpgw(webapi): trans(735230738)[request][172.17.100.130] gtid(29a2d46f5bedc1022bd2bb12): Processing [Rule (webapi-mpgw-request-fw), Action ('webapi-unified-request-select-and-set-policies', xform(local:///isp/unified-request-select-and-set-policies.xsl)), Input(NULL), Output(NULL)] finished: memory used 8361024
<14>2018-11-15T20:54:58.846707+02:00 MonTierLocalId-38 [0x80c00002][multistep][info] mpgw(webapi): trans(735230738)[request][172.17.100.130] gtid(29a2d46f5bedc1022bd2bb12): rule (webapi-mpgw-request-fw): #7 xform: Transforming the content of NULL. The transformation local:///isp/unified-request-select-and-set-policies.xsl is applied. The results are stored in NULL. completed OK.
<12>2018-11-15T20:54:58.882377+02:00 MonTierLocalId-38 [0x00340027][multistep][warn] mpgw(webapi): trans(735230738)[request][172.17.100.130] gtid(29a2d46f5bedc1022bd2bb12): Multistep Probe enabled
<14>2018-11-15T20:54:58.882744+02:00 MonTierLocalId-38 [0x80c00002][multistep][info] mpgw(webapi): trans(735230738)[request][172.17.100.130] gtid(29a2d46f5bedc1022bd2bb12): rule (webapi-policy-step-fw-invoke-xform): #1 on-error continue  completed OK.
<14>2018-11-15T20:54:58.914506+02:00 MonTierLocalId-38 [0x80c00002][multistep][info] mpgw(webapi): trans(735230738)[request][172.17.100.130] gtid(29a2d46f5bedc1022bd2bb12): rule (webapi-policy-step-fw-invoke-xform): #2 xform: Transforming the content of NULL. The transformation var://context/policy/exec is applied. The results are stored in policy-output-temp. completed OK.
<14>2018-11-15T20:54:58.944226+02:00 MonTierLocalId-38 [0x80c00002][multistep][info] mpgw(webapi): trans(735230738)[request][172.17.100.130] gtid(29a2d46f5bedc1022bd2bb12): rule (webapi-policy-step-fw-invoke-xform): #3 on-error abort  completed OK.
<15>2018-11-15T20:54:58.973188+02:00 MonTierLocalId-38 [0x80000001][api-mon][debug] mpgw(webapi): trans(735230738)[request][172.17.100.130] gtid(29a2d46f5bedc1022bd2bb12): #^R6^A1:montierorg^A2:montiercatalog^A3:new-space^A4:default^A5:1.0.0^A6:__INTERNAL_QS__:1.0.0:default^A7:accounts^A8:1.0.5^A9:https://172.17.100.200:443/montierorg/montiercatalog/accounts/balance^AA:GET^AB:accounts:1.0.1:get:/balance^AC:9612cb56-da1a-4757-a301-018ac4359306^AE:montierproduct^AF:customer_id=1111111^AG:0^AN:596d0eb7e4b0f0bab66e457b^AO:172.17.100.130^AP:activitylog^AQ:activity-log^AR:1.0.0^AS:activity-log^AT:1^AU:request^AV:^AW:^AX:^B6:276^B7:montierproduct^B8:monconsumerorg^BB:126^BC:montierapp#^
<15>2018-11-15T20:54:58.973804+02:00 MonTierLocalId-38 [0x80000001][api-mon][debug] mpgw(webapi): trans(735230738)[request][172.17.100.130] gtid(29a2d46f5bedc1022bd2bb12): #^R5^A1:montierorg^A2:montiercatalog^A3:new-space^A4:default^A5:1.0.0^A6:__INTERNAL_QS__:1.0.0:default^A7:accounts^A8:1.0.5^A9:https://172.17.100.200:443/montierorg/montiercatalog/accounts/balance^AA:GET^AB:accounts:1.0.1:get:/balance^AC:9612cb56-da1a-4757-a301-018ac4359306^AE:montierproduct^AF:customer_id=1111111^AG:0^AN:596d0eb7e4b0f0bab66e457b^AO:172.17.100.130^AP:apim.security^AQ:apim.security^AR:^AS:^AT:2^AU:request^AV:local:///isp/policy/apim.policy.security.js^AW:^AX:^B6:277^B7:montierproduct^B8:monconsumerorg^BC:montierapp#^
<14>2018-11-15T20:54:58.973914+02:00 MonTierLocalId-38 [0x80c00002][multistep][info] mpgw(webapi): trans(735230738)[request][172.17.100.130] gtid(29a2d46f5bedc1022bd2bb12): rule (webapi-policy-step-fw-invoke-xform): #4 xform: Transforming the content of NULL. The transformation local:///isp/unified-traverse.xsl is applied. The results are stored in NULL. completed OK.
<12>2018-11-15T20:54:59.008540+02:00 MonTierLocalId-38 [0x00340027][multistep][warn] mpgw(webapi): trans(735230738)[request][172.17.100.130] gtid(29a2d46f5bedc1022bd2bb12): Multistep Probe enabled
<14>2018-11-15T20:54:59.008785+02:00 MonTierLocalId-38 [0x80c00002][multistep][info] mpgw(webapi): trans(735230738)[request][172.17.100.130] gtid(29a2d46f5bedc1022bd2bb12): rule (webapi-policy-invoke-gscript): #1 on-error continue  completed OK.
<12>2018-11-15T20:54:59.045177+02:00 MonTierLocalId-38 [0x00340027][multistep][warn] mpgw(webapi): trans(735230738)[request][172.17.100.130] gtid(29a2d46f5bedc1022bd2bb12): Multistep Probe enabled
<14>2018-11-15T20:54:59.076235+02:00 MonTierLocalId-38 [0x80c00002][multistep][info] mpgw(webapi): trans(735230738)[request][172.17.100.130] gtid(29a2d46f5bedc1022bd2bb12): rule (webapi-policy-oauth-1): #1 xform: Transforming the content of NULL. The transformation local:///isp/policy/apim.oauth-1.xsl is applied. The results are stored in PIPE. completed OK.
<14>2018-11-15T20:54:59.144681+02:00 MonTierLocalId-38 [0x80c00002][multistep][info] mpgw(webapi): trans(735230738)[request][172.17.100.130] gtid(29a2d46f5bedc1022bd2bb12): rule (webapi-policy-oauth-1): #2 aaa: 'NULL webapi-policy-oauth-1-aaa' completed OK.
<14>2018-11-15T20:54:59.144793+02:00 MonTierLocalId-38 [0x80c00002][multistep][info] mpgw(webapi): trans(735230738)[request][172.17.100.130] gtid(29a2d46f5bedc1022bd2bb12): rule (webapi-policy-oauth-1): #3 Conditional on PIPE completed OK.
<14>2018-11-15T20:54:59.184712+02:00 MonTierLocalId-38 [0x80c00002][multistep][info] mpgw(webapi): trans(735230738)[request][172.17.100.130] gtid(29a2d46f5bedc1022bd2bb12): rule (webapi-policy-oauth-1): #4 xform: Transforming the content of NULL. The transformation local:///isp/policy/apim.oauth-1.xsl is applied. The results are stored in NULL. completed OK.
<14>2018-11-15T20:54:59.218481+02:00 MonTierLocalId-38 [0x80c00002][multistep][info] mpgw(webapi): trans(735230738)[request][172.17.100.130] gtid(29a2d46f5bedc1022bd2bb12): rule (webapi-policy-invoke-gscript): #2 gatewayscript: Transforming the content of NULL. The transformation local:///isp/policy/apim.policy.wrap.js is applied. The results are stored in policy-output-temp. completed OK.
<14>2018-11-15T20:54:59.251446+02:00 MonTierLocalId-38 [0x80c00002][multistep][info] mpgw(webapi): trans(735230738)[request][172.17.100.130] gtid(29a2d46f5bedc1022bd2bb12): rule (webapi-policy-invoke-gscript): #3 on-error abort  completed OK.
<15>2018-11-15T20:54:59.285726+02:00 MonTierLocalId-38 [0x80000001][api-mon][debug] mpgw(webapi): trans(735230738)[request][172.17.100.130] gtid(29a2d46f5bedc1022bd2bb12): #^R6^A1:montierorg^A2:montiercatalog^A3:new-space^A4:default^A5:1.0.0^A6:__INTERNAL_QS__:1.0.0:default^A7:accounts^A8:1.0.5^A9:https://172.17.100.200:443/montierorg/montiercatalog/accounts/balance^AA:GET^AB:accounts:1.0.1:get:/balance^AC:9612cb56-da1a-4757-a301-018ac4359306^AE:montierproduct^AF:customer_id=1111111^AG:0^AN:596d0eb7e4b0f0bab66e457b^AO:172.17.100.130^AP:apim.security^AQ:apim.security^AR:^AS:^AT:2^AU:request^AV:local:///isp/policy/apim.policy.security.js^AW:inventory^AX:9612cb56-da1a-4757-a301-018ac4359306^B6:589^B7:montierproduct^B8:monconsumerorg^BB:312^BC:montierapp#^
<15>2018-11-15T20:54:59.286394+02:00 MonTierLocalId-38 [0x80000001][api-mon][debug] mpgw(webapi): trans(735230738)[request][172.17.100.130] gtid(29a2d46f5bedc1022bd2bb12): #^R5^A1:montierorg^A2:montiercatalog^A3:new-space^A4:default^A5:1.0.0^A6:__INTERNAL_QS__:1.0.0:default^A7:accounts^A8:1.0.5^A9:https://172.17.100.200:443/montierorg/montiercatalog/accounts/balance^AA:GET^AB:accounts:1.0.1:get:/balance^AC:9612cb56-da1a-4757-a301-018ac4359306^AE:montierproduct^AF:customer_id=1111111^AG:0^AN:596d0eb7e4b0f0bab66e457b^AO:172.17.100.130^AP:map^AQ:getBalance: input^AR:^AS:getBalance: input^AT:3^AU:request^AV:local:///isp/policy/apim.map.js^AW:inventory^AX:9612cb56-da1a-4757-a301-018ac4359306^B6:590^B7:montierproduct^B8:monconsumerorg^BC:montierapp#^
<14>2018-11-15T20:54:59.286492+02:00 MonTierLocalId-38 [0x80c00002][multistep][info] mpgw(webapi): trans(735230738)[request][172.17.100.130] gtid(29a2d46f5bedc1022bd2bb12): rule (webapi-policy-invoke-gscript): #4 xform: Transforming the content of NULL. The transformation local:///isp/unified-traverse-check-error.xsl is applied. The results are stored in NULL. completed OK.
<12>2018-11-15T20:54:59.321431+02:00 MonTierLocalId-38 [0x00340027][multistep][warn] mpgw(webapi): trans(735230738)[request][172.17.100.130] gtid(29a2d46f5bedc1022bd2bb12): Multistep Probe enabled
<14>2018-11-15T20:54:59.322007+02:00 MonTierLocalId-38 [0x80c00002][multistep][info] mpgw(webapi): trans(735230738)[request][172.17.100.130] gtid(29a2d46f5bedc1022bd2bb12): rule (webapi-policy-invoke-gscript): #1 on-error continue  completed OK.
<14>2018-11-15T20:54:59.369588+02:00 MonTierLocalId-38 [0x80c00002][multistep][info] mpgw(webapi): trans(735230738)[request][172.17.100.130] gtid(29a2d46f5bedc1022bd2bb12): rule (webapi-policy-invoke-gscript): #2 gatewayscript: Transforming the content of NULL. The transformation local:///isp/policy/apim.policy.wrap.js is applied. The results are stored in policy-output-temp. completed OK.
<14>2018-11-15T20:54:59.404760+02:00 MonTierLocalId-38 [0x80c00002][multistep][info] mpgw(webapi): trans(735230738)[request][172.17.100.130] gtid(29a2d46f5bedc1022bd2bb12): rule (webapi-policy-invoke-gscript): #3 on-error abort  completed OK.
<15>2018-11-15T20:54:59.442963+02:00 MonTierLocalId-38 [0x80000001][api-mon][debug] mpgw(webapi): trans(735230738)[request][172.17.100.130] gtid(29a2d46f5bedc1022bd2bb12): #^R6^A1:montierorg^A2:montiercatalog^A3:new-space^A4:default^A5:1.0.0^A6:__INTERNAL_QS__:1.0.0:default^A7:accounts^A8:1.0.5^A9:https://172.17.100.200:443/montierorg/montiercatalog/accounts/balance^AA:GET^AB:accounts:1.0.1:get:/balance^AC:9612cb56-da1a-4757-a301-018ac4359306^AE:montierproduct^AF:customer_id=1111111^AG:0^AN:596d0eb7e4b0f0bab66e457b^AO:172.17.100.130^AP:map^AQ:getBalance: input^AR:^AS:getBalance: input^AT:3^AU:request^AV:local:///isp/policy/apim.map.js^AW:inventory^AX:9612cb56-da1a-4757-a301-018ac4359306^B6:746^B7:montierproduct^B8:monconsumerorg^BB:156^BC:montierapp#^
<15>2018-11-15T20:54:59.443893+02:00 MonTierLocalId-38 [0x80000001][api-mon][debug] mpgw(webapi): trans(735230738)[request][172.17.100.130] gtid(29a2d46f5bedc1022bd2bb12): #^R5^A1:montierorg^A2:montiercatalog^A3:new-space^A4:default^A5:1.0.0^A6:__INTERNAL_QS__:1.0.0:default^A7:accounts^A8:1.0.5^A9:https://172.17.100.200:443/montierorg/montiercatalog/accounts/balance^AA:GET^AB:accounts:1.0.1:get:/balance^AC:9612cb56-da1a-4757-a301-018ac4359306^AE:montierproduct^AF:customer_id=1111111^AG:0^AN:596d0eb7e4b0f0bab66e457b^AO:172.17.100.130^AP:apim.setvariable^AQ:SetCustomerDataVar^AR:1.0.0^AS:SetCustomerDataVar^AT:4^AU:request^AV:local:///isp/policy/apim.setvariable.js^AW:inventory^AX:9612cb56-da1a-4757-a301-018ac4359306^B6:747^B7:montierproduct^B8:monconsumerorg^BC:montierapp#^
<14>2018-11-15T20:54:59.444008+02:00 MonTierLocalId-38 [0x80c00002][multistep][info] mpgw(webapi): trans(735230738)[request][172.17.100.130] gtid(29a2d46f5bedc1022bd2bb12): rule (webapi-policy-invoke-gscript): #4 xform: Transforming the content of NULL. The transformation local:///isp/unified-traverse-check-error.xsl is applied. The results are stored in NULL. completed OK.
<12>2018-11-15T20:54:59.482250+02:00 MonTierLocalId-38 [0x00340027][multistep][warn] mpgw(webapi): trans(735230738)[request][172.17.100.130] gtid(29a2d46f5bedc1022bd2bb12): Multistep Probe enabled
<14>2018-11-15T20:54:59.482483+02:00 MonTierLocalId-38 [0x80c00002][multistep][info] mpgw(webapi): trans(735230738)[request][172.17.100.130] gtid(29a2d46f5bedc1022bd2bb12): rule (webapi-policy-invoke-gscript): #1 on-error continue  completed OK.
<14>2018-11-15T20:54:59.520944+02:00 MonTierLocalId-38 [0x80c00002][multistep][info] mpgw(webapi): trans(735230738)[request][172.17.100.130] gtid(29a2d46f5bedc1022bd2bb12): rule (webapi-policy-invoke-gscript): #2 gatewayscript: Transforming the content of NULL. The transformation local:///isp/policy/apim.policy.wrap.js is applied. The results are stored in policy-output-temp. completed OK.
<14>2018-11-15T20:54:59.557179+02:00 MonTierLocalId-38 [0x80c00002][multistep][info] mpgw(webapi): trans(735230738)[request][172.17.100.130] gtid(29a2d46f5bedc1022bd2bb12): rule (webapi-policy-invoke-gscript): #3 on-error abort  completed OK.
<15>2018-11-15T20:54:59.592654+02:00 MonTierLocalId-38 [0x80000001][api-mon][debug] mpgw(webapi): trans(735230738)[request][172.17.100.130] gtid(29a2d46f5bedc1022bd2bb12): #^R6^A1:montierorg^A2:montiercatalog^A3:new-space^A4:default^A5:1.0.0^A6:__INTERNAL_QS__:1.0.0:default^A7:accounts^A8:1.0.5^A9:https://172.17.100.200:443/montierorg/montiercatalog/accounts/balance^AA:GET^AB:accounts:1.0.1:get:/balance^AC:9612cb56-da1a-4757-a301-018ac4359306^AE:montierproduct^AF:customer_id=1111111^AG:0^AN:596d0eb7e4b0f0bab66e457b^AO:172.17.100.130^AP:apim.setvariable^AQ:SetCustomerDataVar^AR:1.0.0^AS:SetCustomerDataVar^AT:4^AU:request^AV:local:///isp/policy/apim.setvariable.js^AW:inventory^AX:9612cb56-da1a-4757-a301-018ac4359306^B6:896^B7:montierproduct^B8:monconsumerorg^BB:149^BC:montierapp#^
<15>2018-11-15T20:54:59.593447+02:00 MonTierLocalId-38 [0x80000001][api-mon][debug] mpgw(webapi): trans(735230738)[request][172.17.100.130] gtid(29a2d46f5bedc1022bd2bb12): #^R5^A1:montierorg^A2:montiercatalog^A3:new-space^A4:default^A5:1.0.0^A6:__INTERNAL_QS__:1.0.0:default^A7:accounts^A8:1.0.5^A9:https://172.17.100.200:443/montierorg/montiercatalog/accounts/balance^AA:GET^AB:accounts:1.0.1:get:/balance^AC:9612cb56-da1a-4757-a301-018ac4359306^AE:montierproduct^AF:customer_id=1111111^AG:0^AN:596d0eb7e4b0f0bab66e457b^AO:172.17.100.130^AP:invoke^AQ:getBalance: invoke^AR:^AS:getBalance: invoke^AT:5^AU:request^AV:local:///isp/policy/apim.policy.restinvoke.js^AW:inventory^AX:9612cb56-da1a-4757-a301-018ac4359306^B6:897^B7:montierproduct^B8:monconsumerorg^BC:montierapp#^
<14>2018-11-15T20:54:59.593585+02:00 MonTierLocalId-38 [0x80c00002][multistep][info] mpgw(webapi): trans(735230738)[request][172.17.100.130] gtid(29a2d46f5bedc1022bd2bb12): rule (webapi-policy-invoke-gscript): #4 xform: Transforming the content of NULL. The transformation local:///isp/unified-traverse-check-error.xsl is applied. The results are stored in NULL. completed OK.
<12>2018-11-15T20:54:59.636645+02:00 MonTierLocalId-38 [0x00340027][multistep][warn] mpgw(webapi): trans(735230738)[request][172.17.100.130] gtid(29a2d46f5bedc1022bd2bb12): Multistep Probe enabled
<14>2018-11-15T20:54:59.636875+02:00 MonTierLocalId-38 [0x80c00002][multistep][info] mpgw(webapi): trans(735230738)[request][172.17.100.130] gtid(29a2d46f5bedc1022bd2bb12): rule (webapi-policy-invoke-gscript): #1 on-error continue  completed OK.
<14>2018-11-15T20:54:59.788419+02:00 MonTierLocalId-38 [0x80c00002][multistep][info] mpgw(webapi): trans(735230738)[request][172.17.100.130] gtid(29a2d46f5bedc1022bd2bb12): rule (webapi-policy-invoke-gscript): #2 gatewayscript: Transforming the content of NULL. The transformation local:///isp/policy/apim.policy.wrap.js is applied. The results are stored in policy-output-temp. completed OK.
<14>2018-11-15T20:54:59.828245+02:00 MonTierLocalId-38 [0x80c00002][multistep][info] mpgw(webapi): trans(735230738)[request][172.17.100.130] gtid(29a2d46f5bedc1022bd2bb12): rule (webapi-policy-invoke-gscript): #3 on-error abort  completed OK.
<15>2018-11-15T20:54:59.867351+02:00 MonTierLocalId-38 [0x80000001][api-mon][debug] mpgw(webapi): trans(735230738)[request][172.17.100.130] gtid(29a2d46f5bedc1022bd2bb12): #^R6^A1:montierorg^A2:montiercatalog^A3:new-space^A4:default^A5:1.0.0^A6:__INTERNAL_QS__:1.0.0:default^A7:accounts^A8:1.0.5^A9:https://172.17.100.200:443/montierorg/montiercatalog/accounts/balance^AA:GET^AB:accounts:1.0.1:get:/balance^AC:9612cb56-da1a-4757-a301-018ac4359306^AE:montierproduct^AF:customer_id=1111111^AG:0^AN:596d0eb7e4b0f0bab66e457b^AO:172.17.100.130^AP:invoke^AQ:getBalance: invoke^AR:^AS:getBalance: invoke^AT:5^AU:request^AV:local:///isp/policy/apim.policy.restinvoke.js^AW:inventory^AX:9612cb56-da1a-4757-a301-018ac4359306^B6:1170^B7:montierproduct^B8:monconsumerorg^BB:273^BC:montierapp#^
<15>2018-11-15T20:54:59.868018+02:00 MonTierLocalId-38 [0x80000001][api-mon][debug] mpgw(webapi): trans(735230738)[request][172.17.100.130] gtid(29a2d46f5bedc1022bd2bb12): #^R5^A1:montierorg^A2:montiercatalog^A3:new-space^A4:default^A5:1.0.0^A6:__INTERNAL_QS__:1.0.0:default^A7:accounts^A8:1.0.5^A9:https://172.17.100.200:443/montierorg/montiercatalog/accounts/balance^AA:GET^AB:accounts:1.0.1:get:/balance^AC:9612cb56-da1a-4757-a301-018ac4359306^AE:montierproduct^AF:customer_id=1111111^AG:0^AN:596d0eb7e4b0f0bab66e457b^AO:172.17.100.130^AP:map^AQ:getBalance: output^AR:^AS:getBalance: output^AT:6^AU:request^AV:local:///isp/policy/apim.map.js^AW:inventory^AX:9612cb56-da1a-4757-a301-018ac4359306^B6:1171^B7:montierproduct^B8:monconsumerorg^BC:montierapp#^
<14>2018-11-15T20:54:59.868140+02:00 MonTierLocalId-38 [0x80c00002][multistep][info] mpgw(webapi): trans(735230738)[request][172.17.100.130] gtid(29a2d46f5bedc1022bd2bb12): rule (webapi-policy-invoke-gscript): #4 xform: Transforming the content of NULL. The transformation local:///isp/unified-traverse-check-error.xsl is applied. The results are stored in NULL. completed OK.
<12>2018-11-15T20:54:59.907227+02:00 MonTierLocalId-38 [0x00340027][multistep][warn] mpgw(webapi): trans(735230738)[request][172.17.100.130] gtid(29a2d46f5bedc1022bd2bb12): Multistep Probe enabled
<14>2018-11-15T20:54:59.907441+02:00 MonTierLocalId-38 [0x80c00002][multistep][info] mpgw(webapi): trans(735230738)[request][172.17.100.130] gtid(29a2d46f5bedc1022bd2bb12): rule (webapi-policy-invoke-gscript): #1 on-error continue  completed OK.
<14>2018-11-15T20:54:59.959306+02:00 MonTierLocalId-38 [0x80c00002][multistep][info] mpgw(webapi): trans(735230738)[request][172.17.100.130] gtid(29a2d46f5bedc1022bd2bb12): rule (webapi-policy-invoke-gscript): #2 gatewayscript: Transforming the content of NULL. The transformation local:///isp/policy/apim.policy.wrap.js is applied. The results are stored in policy-output-temp. completed OK.
<14>2018-11-15T20:55:00.006172+02:00 MonTierLocalId-38 [0x80c00002][multistep][info] mpgw(webapi): trans(735230738)[request][172.17.100.130] gtid(29a2d46f5bedc1022bd2bb12): rule (webapi-policy-invoke-gscript): #3 on-error abort  completed OK.
<15>2018-11-15T20:55:00.043928+02:00 MonTierLocalId-38 [0x80000001][api-mon][debug] mpgw(webapi): trans(735230738)[request][172.17.100.130] gtid(29a2d46f5bedc1022bd2bb12): #^R6^A1:montierorg^A2:montiercatalog^A3:new-space^A4:default^A5:1.0.0^A6:__INTERNAL_QS__:1.0.0:default^A7:accounts^A8:1.0.5^A9:https://172.17.100.200:443/montierorg/montiercatalog/accounts/balance^AA:GET^AB:accounts:1.0.1:get:/balance^AC:9612cb56-da1a-4757-a301-018ac4359306^AE:montierproduct^AF:customer_id=1111111^AG:0^AN:596d0eb7e4b0f0bab66e457b^AO:172.17.100.130^AP:map^AQ:getBalance: output^AR:^AS:getBalance: output^AT:6^AU:request^AV:local:///isp/policy/apim.map.js^AW:inventory^AX:9612cb56-da1a-4757-a301-018ac4359306^B6:1347^B7:montierproduct^B8:monconsumerorg^BB:176^BC:montierapp#^
<15>2018-11-15T20:55:00.044742+02:00 MonTierLocalId-38 [0x80000001][api-mon][debug] mpgw(webapi): trans(735230738)[request][172.17.100.130] gtid(29a2d46f5bedc1022bd2bb12): #^R5^A1:montierorg^A2:montiercatalog^A3:new-space^A4:default^A5:1.0.0^A6:__INTERNAL_QS__:1.0.0:default^A7:accounts^A8:1.0.5^A9:https://172.17.100.200:443/montierorg/montiercatalog/accounts/balance^AA:GET^AB:accounts:1.0.1:get:/balance^AC:9612cb56-da1a-4757-a301-018ac4359306^AE:montierproduct^AF:customer_id=1111111^AG:0^AN:596d0eb7e4b0f0bab66e457b^AO:172.17.100.130^AP:apim.setvariable^AQ:SetCreditStatusVar^AR:1.0.0^AS:SetCreditStatusVar^AT:7^AU:request^AV:local:///isp/policy/apim.setvariable.js^AW:inventory^AX:9612cb56-da1a-4757-a301-018ac4359306^B6:1348^B7:montierproduct^B8:monconsumerorg^BC:montierapp#^
<14>2018-11-15T20:55:00.044846+02:00 MonTierLocalId-38 [0x80c00002][multistep][info] mpgw(webapi): trans(735230738)[request][172.17.100.130] gtid(29a2d46f5bedc1022bd2bb12): rule (webapi-policy-invoke-gscript): #4 xform: Transforming the content of NULL. The transformation local:///isp/unified-traverse-check-error.xsl is applied. The results are stored in NULL. completed OK.
<12>2018-11-15T20:55:00.083960+02:00 MonTierLocalId-38 [0x00340027][multistep][warn] mpgw(webapi): trans(735230738)[request][172.17.100.130] gtid(29a2d46f5bedc1022bd2bb12): Multistep Probe enabled
<14>2018-11-15T20:55:00.084311+02:00 MonTierLocalId-38 [0x80c00002][multistep][info] mpgw(webapi): trans(735230738)[request][172.17.100.130] gtid(29a2d46f5bedc1022bd2bb12): rule (webapi-policy-invoke-gscript): #1 on-error continue  completed OK.
<14>2018-11-15T20:55:00.126559+02:00 MonTierLocalId-38 [0x80c00002][multistep][info] mpgw(webapi): trans(735230738)[request][172.17.100.130] gtid(29a2d46f5bedc1022bd2bb12): rule (webapi-policy-invoke-gscript): #2 gatewayscript: Transforming the content of NULL. The transformation local:///isp/policy/apim.policy.wrap.js is applied. The results are stored in policy-output-temp. completed OK.
<14>2018-11-15T20:55:00.163199+02:00 MonTierLocalId-38 [0x80c00002][multistep][info] mpgw(webapi): trans(735230738)[request][172.17.100.130] gtid(29a2d46f5bedc1022bd2bb12): rule (webapi-policy-invoke-gscript): #3 on-error abort  completed OK.
<15>2018-11-15T20:55:00.201858+02:00 MonTierLocalId-38 [0x80000001][api-mon][debug] mpgw(webapi): trans(735230738)[request][172.17.100.130] gtid(29a2d46f5bedc1022bd2bb12): #^R6^A1:montierorg^A2:montiercatalog^A3:new-space^A4:default^A5:1.0.0^A6:__INTERNAL_QS__:1.0.0:default^A7:accounts^A8:1.0.5^A9:https://172.17.100.200:443/montierorg/montiercatalog/accounts/balance^AA:GET^AB:accounts:1.0.1:get:/balance^AC:9612cb56-da1a-4757-a301-018ac4359306^AE:montierproduct^AF:customer_id=1111111^AG:0^AN:596d0eb7e4b0f0bab66e457b^AO:172.17.100.130^AP:apim.setvariable^AQ:SetCreditStatusVar^AR:1.0.0^AS:SetCreditStatusVar^AT:7^AU:request^AV:local:///isp/policy/apim.setvariable.js^AW:inventory^AX:9612cb56-da1a-4757-a301-018ac4359306^B6:1505^B7:montierproduct^B8:monconsumerorg^BB:157^BC:montierapp#^
<15>2018-11-15T20:55:00.202849+02:00 MonTierLocalId-38 [0x80000001][api-mon][debug] mpgw(webapi): trans(735230738)[request][172.17.100.130] gtid(29a2d46f5bedc1022bd2bb12): #^R5^A1:montierorg^A2:montiercatalog^A3:new-space^A4:default^A5:1.0.0^A6:__INTERNAL_QS__:1.0.0:default^A7:accounts^A8:1.0.5^A9:https://172.17.100.200:443/montierorg/montiercatalog/accounts/balance^AA:GET^AB:accounts:1.0.1:get:/balance^AC:9612cb56-da1a-4757-a301-018ac4359306^AE:montierproduct^AF:customer_id=1111111^AG:0^AN:596d0eb7e4b0f0bab66e457b^AO:172.17.100.130^AP:if^AQ:if^AR:1.0.0^AS:if^AT:8^AU:request^AV:local:///isp/policy/apim.conditional.js^AW:inventory^AX:9612cb56-da1a-4757-a301-018ac4359306^B6:1506^B7:montierproduct^B8:monconsumerorg^BC:montierapp#^
<14>2018-11-15T20:55:00.202974+02:00 MonTierLocalId-38 [0x80c00002][multistep][info] mpgw(webapi): trans(735230738)[request][172.17.100.130] gtid(29a2d46f5bedc1022bd2bb12): rule (webapi-policy-invoke-gscript): #4 xform: Transforming the content of NULL. The transformation local:///isp/unified-traverse-check-error.xsl is applied. The results are stored in NULL. completed OK.
<12>2018-11-15T20:55:00.240767+02:00 MonTierLocalId-38 [0x00340027][multistep][warn] mpgw(webapi): trans(735230738)[request][172.17.100.130] gtid(29a2d46f5bedc1022bd2bb12): Multistep Probe enabled
<14>2018-11-15T20:55:00.240995+02:00 MonTierLocalId-38 [0x80c00002][multistep][info] mpgw(webapi): trans(735230738)[request][172.17.100.130] gtid(29a2d46f5bedc1022bd2bb12): rule (webapi-policy-invoke-gscript): #1 on-error continue  completed OK.
<14>2018-11-15T20:55:00.287723+02:00 MonTierLocalId-38 [0x80c00002][multistep][info] mpgw(webapi): trans(735230738)[request][172.17.100.130] gtid(29a2d46f5bedc1022bd2bb12): rule (webapi-policy-invoke-gscript): #2 gatewayscript: Transforming the content of NULL. The transformation local:///isp/policy/apim.policy.wrap.js is applied. The results are stored in policy-output-temp. completed OK.
<14>2018-11-15T20:55:00.326708+02:00 MonTierLocalId-38 [0x80c00002][multistep][info] mpgw(webapi): trans(735230738)[request][172.17.100.130] gtid(29a2d46f5bedc1022bd2bb12): rule (webapi-policy-invoke-gscript): #3 on-error abort  completed OK.
<15>2018-11-15T20:55:00.364652+02:00 MonTierLocalId-38 [0x80000001][api-mon][debug] mpgw(webapi): trans(735230738)[request][172.17.100.130] gtid(29a2d46f5bedc1022bd2bb12): #^R6^A1:montierorg^A2:montiercatalog^A3:new-space^A4:default^A5:1.0.0^A6:__INTERNAL_QS__:1.0.0:default^A7:accounts^A8:1.0.5^A9:https://172.17.100.200:443/montierorg/montiercatalog/accounts/balance^AA:GET^AB:accounts:1.0.1:get:/balance^AC:9612cb56-da1a-4757-a301-018ac4359306^AE:montierproduct^AF:customer_id=1111111^AG:0^AN:596d0eb7e4b0f0bab66e457b^AO:172.17.100.130^AP:if^AQ:if^AR:1.0.0^AS:if^AT:8^AU:request^AV:local:///isp/policy/apim.conditional.js^AW:inventory^AX:9612cb56-da1a-4757-a301-018ac4359306^B6:1668^B7:montierproduct^B8:monconsumerorg^BB:162^BC:montierapp#^
<15>2018-11-15T20:55:00.365213+02:00 MonTierLocalId-38 [0x80000001][api-mon][debug] mpgw(webapi): trans(735230738)[request][172.17.100.130] gtid(29a2d46f5bedc1022bd2bb12): #^R6^A1:montierorg^A2:montiercatalog^A3:new-space^A4:default^A5:1.0.0^A6:__INTERNAL_QS__:1.0.0:default^A7:accounts^A8:1.0.5^A9:https://172.17.100.200:443/montierorg/montiercatalog/accounts/balance^AA:GET^AB:accounts:1.0.1:get:/balance^AC:9612cb56-da1a-4757-a301-018ac4359306^AE:montierproduct^AF:customer_id=1111111^AG:0^AN:596d0eb7e4b0f0bab66e457b^AO:172.17.100.130^AP:$$end-block$$^AQ:$$end-block$$^AR:^AS:^AT:11^AU:request^AV:^AW:inventory^AX:9612cb56-da1a-4757-a301-018ac4359306^B6:1668^B7:montierproduct^B8:monconsumerorg^BB:0^BC:montierapp#^
<14>2018-11-15T20:55:00.365447+02:00 MonTierLocalId-38 [0x80c00002][multistep][info] mpgw(webapi): trans(735230738)[request][172.17.100.130] gtid(29a2d46f5bedc1022bd2bb12): rule (webapi-policy-invoke-gscript): #4 xform: Transforming the content of NULL. The transformation local:///isp/unified-traverse-check-error.xsl is applied. The results are stored in NULL. completed OK.
<12>2018-11-15T20:55:00.404180+02:00 MonTierLocalId-38 [0x00340027][multistep][warn] mpgw(webapi): trans(735230738)[request][172.17.100.130] gtid(29a2d46f5bedc1022bd2bb12): Multistep Probe enabled
<14>2018-11-15T20:55:00.447113+02:00 MonTierLocalId-38 [0x80c00002][multistep][info] mpgw(webapi): trans(735230738)[request][172.17.100.130] gtid(29a2d46f5bedc1022bd2bb12): rule (webapi-policy-end): #1 xform: Transforming the content of NULL. The transformation local:///isp/policy/apim.policy.end.xsl is applied. The results are stored in NULL. completed OK.
<14>2018-11-15T20:55:00.493993+02:00 MonTierLocalId-38 [0x80c00002][multistep][info] mpgw(webapi): trans(735230738)[request][172.17.100.130] gtid(29a2d46f5bedc1022bd2bb12): rule (webapi-policy-invoke-gscript): #5 Calling rule var://context/policy/fw/call-rule with input NULL and output NULL. completed OK.
<14>2018-11-15T20:55:00.533430+02:00 MonTierLocalId-38 [0x80c00002][multistep][info] mpgw(webapi): trans(735230738)[request][172.17.100.130] gtid(29a2d46f5bedc1022bd2bb12): rule (webapi-policy-invoke-gscript): #5 Calling rule var://context/policy/fw/call-rule with input NULL and output NULL. completed OK.
<14>2018-11-15T20:55:00.577103+02:00 MonTierLocalId-38 [0x80c00002][multistep][info] mpgw(webapi): trans(735230738)[request][172.17.100.130] gtid(29a2d46f5bedc1022bd2bb12): rule (webapi-policy-invoke-gscript): #5 Calling rule var://context/policy/fw/call-rule with input NULL and output NULL. completed OK.
<14>2018-11-15T20:55:00.625251+02:00 MonTierLocalId-38 [0x80c00002][multistep][info] mpgw(webapi): trans(735230738)[request][172.17.100.130] gtid(29a2d46f5bedc1022bd2bb12): rule (webapi-policy-invoke-gscript): #5 Calling rule var://context/policy/fw/call-rule with input NULL and output NULL. completed OK.
<14>2018-11-15T20:55:00.667154+02:00 MonTierLocalId-38 [0x80c00002][multistep][info] mpgw(webapi): trans(735230738)[request][172.17.100.130] gtid(29a2d46f5bedc1022bd2bb12): rule (webapi-policy-invoke-gscript): #5 Calling rule var://context/policy/fw/call-rule with input NULL and output NULL. completed OK.
<14>2018-11-15T20:55:00.708502+02:00 MonTierLocalId-38 [0x80c00002][multistep][info] mpgw(webapi): trans(735230738)[request][172.17.100.130] gtid(29a2d46f5bedc1022bd2bb12): rule (webapi-policy-invoke-gscript): #5 Calling rule var://context/policy/fw/call-rule with input NULL and output NULL. completed OK.
<14>2018-11-15T20:55:00.752481+02:00 MonTierLocalId-38 [0x80c00002][multistep][info] mpgw(webapi): trans(735230738)[request][172.17.100.130] gtid(29a2d46f5bedc1022bd2bb12): rule (webapi-policy-invoke-gscript): #5 Calling rule var://context/policy/fw/call-rule with input NULL and output NULL. completed OK.
<14>2018-11-15T20:55:00.790980+02:00 MonTierLocalId-38 [0x80c00002][multistep][info] mpgw(webapi): trans(735230738)[request][172.17.100.130] gtid(29a2d46f5bedc1022bd2bb12): rule (webapi-policy-step-fw-invoke-xform): #5 Calling rule var://context/policy/fw/call-rule with input NULL and output NULL. completed OK.
<15>2018-11-15T20:55:00.923542+02:00 MonTierLocalId-38 [0x80e0068d][memory-report][debug] mpgw(webapi): trans(735230738)[request][172.17.100.130] gtid(29a2d46f5bedc1022bd2bb12): Processing [Rule (webapi-mpgw-request-fw), Action ('webapi-policy-call-action', call(var://context/policy/fw/call-rule)), Input(NULL), Output(NULL)] finished: memory used 31101920
<14>2018-11-15T20:55:00.923732+02:00 MonTierLocalId-38 [0x80c00002][multistep][info] mpgw(webapi): trans(735230738)[request][172.17.100.130] gtid(29a2d46f5bedc1022bd2bb12): rule (webapi-mpgw-request-fw): #8 Calling rule var://context/policy/fw/call-rule with input NULL and output NULL. completed OK.
<15>2018-11-15T20:55:00.967117+02:00 MonTierLocalId-38 [0x80e0068d][memory-report][debug] mpgw(webapi): trans(735230738)[request][172.17.100.130] gtid(29a2d46f5bedc1022bd2bb12): Processing [Rule (webapi-mpgw-request-fw), Action ('webapi-unified-request-finalize-policy', xform(local:///isp/unified-request-finalize-policy.xsl)), Input(NULL), Output(NULL)] finished: memory used 32833144
<14>2018-11-15T20:55:00.967243+02:00 MonTierLocalId-38 [0x80c00002][multistep][info] mpgw(webapi): trans(735230738)[request][172.17.100.130] gtid(29a2d46f5bedc1022bd2bb12): rule (webapi-mpgw-request-fw): #9 xform: Transforming the content of NULL. The transformation local:///isp/unified-request-finalize-policy.xsl is applied. The results are stored in NULL. completed OK.
<15>2018-11-15T20:55:01.051292+02:00 MonTierLocalId-38 [0x80e0068d][memory-report][debug] mpgw(webapi): trans(735230738)[request][172.17.100.130] gtid(29a2d46f5bedc1022bd2bb12): Processing [Rule (webapi-mpgw-request-fw), Action ('webapi-post-results-policy-output', results()), Input(policy-output), Output(NULL)] finished: memory used 36185664
<14>2018-11-15T20:55:01.051435+02:00 MonTierLocalId-38 [0x80c00002][multistep][info] mpgw(webapi): trans(735230738)[request][172.17.100.130] gtid(29a2d46f5bedc1022bd2bb12): rule (webapi-mpgw-request-fw): #10 results: Generated from policy-output. completed OK.
<15>2018-11-15T20:55:01.051491+02:00 MonTierLocalId-38 [0x80e0068d][memory-report][debug] mpgw(webapi): trans(735230738)[request][172.17.100.130] gtid(29a2d46f5bedc1022bd2bb12): Processing [Rule (webapi-mpgw-request-fw), Action ('webapi-dpext-cond2', conditional()), Input(webapi-dpext), Output(NULL)] finished: memory used 36186408
<14>2018-11-15T20:55:01.051526+02:00 MonTierLocalId-38 [0x80c00002][multistep][info] mpgw(webapi): trans(735230738)[request][172.17.100.130] gtid(29a2d46f5bedc1022bd2bb12): rule (webapi-mpgw-request-fw): #11 Conditional on webapi-dpext completed OK.
<15>2018-11-15T20:55:01.090648+02:00 MonTierLocalId-38 [0x80e0068e][memory-report][debug] mpgw(webapi): trans(735230738)[172.17.100.130] gtid(29a2d46f5bedc1022bd2bb12): Request Finished: memory used 27706344
<15>2018-11-15T20:55:01.093321+02:00 MonTierLocalId-38 [0x80e0068f][memory-report][debug] mpgw(webapi): trans(735230738)[172.17.100.130] gtid(29a2d46f5bedc1022bd2bb12): Response Started: memory used 27736728
<12>2018-11-15T20:55:01.093436+02:00 MonTierLocalId-38 [0x00340027][multistep][warn] mpgw(webapi): trans(735230738)[response][172.17.100.130] gtid(29a2d46f5bedc1022bd2bb12): Multistep Probe enabled
<15>2018-11-15T20:55:01.131986+02:00 MonTierLocalId-38 [0x80e0068d][memory-report][debug] mpgw(webapi): trans(735230738)[response][172.17.100.130] gtid(29a2d46f5bedc1022bd2bb12): Processing [Rule (webapi-mpgw-response-fw), Action ('webapi-init-context', setvar(var://context/_apimgmt/no-op)), Input(INPUT), Output(NULL)] finished: memory used 29531176
<14>2018-11-15T20:55:01.132103+02:00 MonTierLocalId-38 [0x80c00002][multistep][info] mpgw(webapi): trans(735230738)[response][172.17.100.130] gtid(29a2d46f5bedc1022bd2bb12): rule (webapi-mpgw-response-fw): #1 setvar: Setting var://context/_apimgmt/no-op in context INPUT to be 1. completed OK.
<12>2018-11-15T20:55:01.175096+02:00 MonTierLocalId-38 [0x80e0079f][mpgw][warn] source-https(webapi-https): trans(735230738)[172.17.100.130] gtid(29a2d46f5bedc1022bd2bb12): Ignore the invalid HTTP response status code '-1'
<15>2018-11-15T20:55:01.175776+02:00 MonTierLocalId-38 [0x80e0068d][memory-report][debug] mpgw(webapi): trans(735230738)[response][172.17.100.130] gtid(29a2d46f5bedc1022bd2bb12): Processing [Rule (webapi-mpgw-response-fw), Action ('webapi-unified-response-check-response-code-and-actions', xform(local:///isp/unified-response-check-response-code-and-actions.xsl)), Input(NULL), Output(NULL)] finished: memory used 31430240
<14>2018-11-15T20:55:01.175884+02:00 MonTierLocalId-38 [0x80c00002][multistep][info] mpgw(webapi): trans(735230738)[response][172.17.100.130] gtid(29a2d46f5bedc1022bd2bb12): rule (webapi-mpgw-response-fw): #2 xform: Transforming the content of NULL. The transformation local:///isp/unified-response-check-response-code-and-actions.xsl is applied. The results are stored in NULL. completed OK.
<15>2018-11-15T20:55:01.215629+02:00 MonTierLocalId-38 [0x80e0068d][memory-report][debug] mpgw(webapi): trans(735230738)[response][172.17.100.130] gtid(29a2d46f5bedc1022bd2bb12): Processing [Rule (webapi-mpgw-response-fw), Action ('webapi-on-error-continue', on-error()), Input(NULL), Output(NULL)] finished: memory used 33178032
<14>2018-11-15T20:55:01.215846+02:00 MonTierLocalId-38 [0x80c00002][multistep][info] mpgw(webapi): trans(735230738)[response][172.17.100.130] gtid(29a2d46f5bedc1022bd2bb12): rule (webapi-mpgw-response-fw): #3 on-error continue  completed OK.
<15>2018-11-15T20:55:01.291083+02:00 MonTierLocalId-38 [0x80e0068d][memory-report][debug] mpgw(webapi): trans(735230738)[response][172.17.100.130] gtid(29a2d46f5bedc1022bd2bb12): Processing [Rule (webapi-mpgw-response-fw), Action ('webapi-json-convert-http-2', convert-http(json)), Input(INPUT), Output(__JSONASJSONX2)] finished: memory used 36878160
<14>2018-11-15T20:55:01.291336+02:00 MonTierLocalId-38 [0x80c00002][multistep][info] mpgw(webapi): trans(735230738)[response][172.17.100.130] gtid(29a2d46f5bedc1022bd2bb12): rule (webapi-mpgw-response-fw): #4 convert-http: Converting INPUT with map json. Results stored in __JSONASJSONX2. completed OK.
<15>2018-11-15T20:55:01.291408+02:00 MonTierLocalId-38 [0x80e0068d][memory-report][debug] mpgw(webapi): trans(735230738)[response][172.17.100.130] gtid(29a2d46f5bedc1022bd2bb12): Processing [Rule (webapi-mpgw-response-fw), Action ('webapi-payload-cond', conditional()), Input(CONTEXT_WEBAPI_TR), Output(NULL)] finished: memory used 36878464
<14>2018-11-15T20:55:01.291452+02:00 MonTierLocalId-38 [0x80c00002][multistep][info] mpgw(webapi): trans(735230738)[response][172.17.100.130] gtid(29a2d46f5bedc1022bd2bb12): rule (webapi-mpgw-response-fw): #5 Conditional on CONTEXT_WEBAPI_TR completed OK.
<15>2018-11-15T20:55:01.335995+02:00 MonTierLocalId-38 [0x80e0068d][memory-report][debug] mpgw(webapi): trans(735230738)[response][172.17.100.130] gtid(29a2d46f5bedc1022bd2bb12): Processing [Rule (webapi-mpgw-response-fw), Action ('webapi-on-error-abort', on-error()), Input(NULL), Output(NULL)] finished: memory used 38533264
<14>2018-11-15T20:55:01.336220+02:00 MonTierLocalId-38 [0x80c00002][multistep][info] mpgw(webapi): trans(735230738)[response][172.17.100.130] gtid(29a2d46f5bedc1022bd2bb12): rule (webapi-mpgw-response-fw): #6 on-error abort  completed OK.
<15>2018-11-15T20:55:01.374695+02:00 MonTierLocalId-38 [0x80e0068d][memory-report][debug] mpgw(webapi): trans(735230738)[response][172.17.100.130] gtid(29a2d46f5bedc1022bd2bb12): Processing [Rule (webapi-mpgw-response-fw), Action ('webapi-policy-maybe-response-actions', conditional()), Input(response-actions), Output(NULL)] finished: memory used 40226864
<14>2018-11-15T20:55:01.374802+02:00 MonTierLocalId-38 [0x80c00002][multistep][info] mpgw(webapi): trans(735230738)[response][172.17.100.130] gtid(29a2d46f5bedc1022bd2bb12): rule (webapi-mpgw-response-fw): #7 Conditional on response-actions completed OK.
<15>2018-11-15T20:55:01.420900+02:00 MonTierLocalId-38 [0x80000001][api-mon][debug] mpgw(webapi): trans(735230738)[response][172.17.100.130] gtid(29a2d46f5bedc1022bd2bb12): #^R4^A1:montierorg^A2:montiercatalog^A3:new-space^A4:default^A5:1.0.0^A6:__INTERNAL_QS__:1.0.0:default^A7:accounts^A8:1.0.5^A9:https://172.17.100.200:443/montierorg/montiercatalog/accounts/balance^AA:POST^AB:accounts:1.0.1:get:/balance^AC:9612cb56-da1a-4757-a301-018ac4359306^AE:montierproduct^AF:customer_id=1111111^AG:0^AH:0^AI:200^AJ:18^AK:^AL:^AM:200^AN:596d0eb7e4b0f0bab66e457b^AO:172.17.100.130^AW:inventory^AX:9612cb56-da1a-4757-a301-018ac4359306^AY:1542308094^AZ:1542311694^B2:2394^B3:166^B4:164^B5:2724^B7:montierproduct^B8:monconsumerorg^B9:1^BA:1^BC:montierapp#^
<14>2018-11-15T20:55:01.421177+02:00 MonTierLocalId-38 [0x80000001][latency][info] mpgw(webapi): trans(735230738)[response][172.17.100.130] gtid(29a2d46f5bedc1022bd2bb12): API Gateway Latency: 0 149 277 589 747 896 1171 1347 1505 2724 [https://172.17.100.200:443/montierorg/montiercatalog/accounts/balance?customer_id=1111111]
<15>2018-11-15T20:55:01.421441+02:00 MonTierLocalId-38 [0x80e0068d][memory-report][debug] mpgw(webapi): trans(735230738)[response][172.17.100.130] gtid(29a2d46f5bedc1022bd2bb12): Processing [Rule (webapi-mpgw-response-fw), Action ('webapi-unified-response-analytics-and-finalize', xform(local:///isp/unified-response-analytics-and-finalize.xsl)), Input(NULL), Output(NULL)] finished: memory used 42481168
<14>2018-11-15T20:55:01.421545+02:00 MonTierLocalId-38 [0x80c00002][multistep][info] mpgw(webapi): trans(735230738)[response][172.17.100.130] gtid(29a2d46f5bedc1022bd2bb12): rule (webapi-mpgw-response-fw): #8 xform: Transforming the content of NULL. The transformation local:///isp/unified-response-analytics-and-finalize.xsl is applied. The results are stored in NULL. completed OK.
<15>2018-11-15T20:55:01.507961+02:00 MonTierLocalId-38 [0x80e0068d][memory-report][debug] mpgw(webapi): trans(735230738)[response][172.17.100.130] gtid(29a2d46f5bedc1022bd2bb12): Processing [Rule (webapi-mpgw-response-fw), Action ('webapi-post-results', results()), Input(INPUT), Output(NULL)] finished: memory used 45930960
<14>2018-11-15T20:55:01.508115+02:00 MonTierLocalId-38 [0x80c00002][multistep][info] mpgw(webapi): trans(735230738)[response][172.17.100.130] gtid(29a2d46f5bedc1022bd2bb12): rule (webapi-mpgw-response-fw): #9 results: Generated from INPUT. completed OK.
<15>2018-11-15T20:55:01.508209+02:00 MonTierLocalId-38 [0x80e0068d][memory-report][debug] mpgw(webapi): trans(735230738)[response][172.17.100.130] gtid(29a2d46f5bedc1022bd2bb12): Processing [Rule (webapi-mpgw-response-fw), Action ('webapi-dpext-cond3', conditional()), Input(webapi-dpext), Output(NULL)] finished: memory used 45932320
<14>2018-11-15T20:55:01.508267+02:00 MonTierLocalId-38 [0x80c00002][multistep][info] mpgw(webapi): trans(735230738)[response][172.17.100.130] gtid(29a2d46f5bedc1022bd2bb12): rule (webapi-mpgw-response-fw): #10 Conditional on webapi-dpext completed OK.
<15>2018-11-15T20:55:01.551301+02:00 MonTierLocalId-38 [0x80e00073][mpgw][debug] mpgw(webapi): trans(735230738)[172.17.100.130] gtid(29a2d46f5bedc1022bd2bb12): Latency:   0 2394   0 2392 2394 2355   0 2396 2854 2397 2854 2854 2812 2769 2392 2394 [https://172.17.100.200:443/montierorg/montiercatalog/accounts/balance?customer_id=1111111]
<14>2018-11-15T20:55:01.551424+02:00 MonTierLocalId-38 [0x80e00073][latency][info] mpgw(webapi): trans(735230738)[172.17.100.130] gtid(29a2d46f5bedc1022bd2bb12): Latency:   0 2394   0 2392 2394 2355   0 2396 2854 2397 2854 2854 2812 2769 2392 2394 [https://172.17.100.200:443/montierorg/montiercatalog/accounts/balance?customer_id=1111111]
<15>2018-11-15T20:55:01.552048+02:00 MonTierLocalId-38 [0x80e00690][memory-report][debug] mpgw(webapi): trans(735230738)[172.17.100.130] gtid(29a2d46f5bedc1022bd2bb12): Response Finished: memory used 33163424