<14>2018-05-22T00:00:36.017267+03:00 MonTierLocalId-2 [0x80e0013a][mpgw][info] source-https(webapi-https): trans(95134118)[172.17.100.130]: Received HTTP/1.1 GET for /montierorg/montiercatalog/accounts/balance?customer_id=7777778 from 172.17.100.130
<15>2018-05-22T00:00:36.017795+03:00 MonTierLocalId-2 [0x80e0013f][mpgw][debug] source-https(webapi-https): trans(95134118)[172.17.100.130]: Found content length 0 HTTP input
<14>2018-05-22T00:00:36.018252+03:00 MonTierLocalId-2 [0x80e000b4][mpgw][info] stylepolicy(webapi): trans(95134118)[request][172.17.100.130]: rule (webapi-mpgw-request-fw): selected via match 'all' from processing policy 'webapi'
<14>2018-05-22T00:00:36.018391+03:00 MonTierLocalId-2 [0x80e0083d][mpgw][info] mpgw(webapi): trans(95134118)[request][172.17.100.130]: Started the processing of the transaction.
<15>2018-05-22T00:00:36.018515+03:00 MonTierLocalId-2 [0x80e0068c][memory-report][debug] mpgw(webapi): trans(95134118)[172.17.100.130] gtid(29a2d46f5b03337405aba1a6): Request Started: memory used 179080
<15>2018-05-22T00:00:36.018797+03:00 MonTierLocalId-2 [0x80e0068d][memory-report][debug] mpgw(webapi): trans(95134118)[request][172.17.100.130] gtid(29a2d46f5b03337405aba1a6): Processing [Rule (webapi-mpgw-request-fw), Action ('webapi-init-context', setvar(var://context/_apimgmt/no-op)), Input(INPUT), Output(NULL)] finished: memory used 231768
<14>2018-05-22T00:00:36.018906+03:00 MonTierLocalId-2 [0x80c00002][multistep][info] mpgw(webapi): trans(95134118)[request][172.17.100.130] gtid(29a2d46f5b03337405aba1a6): rule (webapi-mpgw-request-fw): #1 setvar: Setting var://context/_apimgmt/no-op in context INPUT to be 1. completed OK.
<15>2018-05-22T00:00:36.020512+03:00 MonTierLocalId-2 [0x80e0068d][memory-report][debug] mpgw(webapi): trans(95134118)[request][172.17.100.130] gtid(29a2d46f5b03337405aba1a6): Processing [Rule (webapi-mpgw-request-fw), Action ('webapi-unified-request-init', xform(local:///isp/unified-request-init.xsl)), Input(NULL), Output(CONTEXT_WEBAPI_TR)] finished: memory used 440824
<14>2018-05-22T00:00:36.020649+03:00 MonTierLocalId-2 [0x80c00002][multistep][info] mpgw(webapi): trans(95134118)[request][172.17.100.130] gtid(29a2d46f5b03337405aba1a6): rule (webapi-mpgw-request-fw): #2 xform: Transforming the content of NULL. The transformation local:///isp/unified-request-init.xsl is applied. The results are stored in CONTEXT_WEBAPI_TR. completed OK.
<15>2018-05-22T00:00:36.020987+03:00 MonTierLocalId-2 [0x80e0068d][memory-report][debug] mpgw(webapi): trans(95134118)[request][172.17.100.130] gtid(29a2d46f5b03337405aba1a6): Processing [Rule (webapi-mpgw-request-fw), Action ('webapi-dpext-pre-request-cond', conditional()), Input(webapi-dpext), Output(NULL)] finished: memory used 455944
<14>2018-05-22T00:00:36.021088+03:00 MonTierLocalId-2 [0x80c00002][multistep][info] mpgw(webapi): trans(95134118)[request][172.17.100.130] gtid(29a2d46f5b03337405aba1a6): rule (webapi-mpgw-request-fw): #3 Conditional on webapi-dpext completed OK.
<15>2018-05-22T00:00:36.021421+03:00 MonTierLocalId-2 [0x80e0068d][memory-report][debug] mpgw(webapi): trans(95134118)[request][172.17.100.130] gtid(29a2d46f5b03337405aba1a6): Processing [Rule (webapi-mpgw-request-fw), Action ('webapi-form-parse-input', conditional()), Input(CONTEXT_WEBAPI_TR), Output(NULL)] finished: memory used 470672
<14>2018-05-22T00:00:36.021510+03:00 MonTierLocalId-2 [0x80c00002][multistep][info] mpgw(webapi): trans(95134118)[request][172.17.100.130] gtid(29a2d46f5b03337405aba1a6): rule (webapi-mpgw-request-fw): #4 Conditional on CONTEXT_WEBAPI_TR completed OK.
<14>2018-05-22T00:00:36.023035+03:00 MonTierLocalId-2 [0x80e0015b][network][info] trans(95134118)[172.17.100.130] gtid(29a2d46f5b03337405aba1a6): HTTP response code 200 for 'http://127.54.53.243:2444/services/v1/catalogs/596d0f67e4b0f0bab66e459a'
<15>2018-05-22T00:00:36.023167+03:00 MonTierLocalId-2 [0x80e0039e][network][debug] mpgw(webapi): trans(95134118)[request][172.17.100.130] gtid(29a2d46f5b03337405aba1a6): url-open: response code 200
<15>2018-05-22T00:00:36.025936+03:00 MonTierLocalId-2 [0x80e003ab][xmlparse][debug] mpgw(webapi): trans(95134118)[request][172.17.100.130] gtid(29a2d46f5b03337405aba1a6): Finished parsing: http://127.54.53.243:2444/services/v1/catalogs/596d0f67e4b0f0bab66e459a
<15>2018-05-22T00:00:36.028689+03:00 MonTierLocalId-2 [0x80000001][api-mon][debug] mpgw(webapi): trans(95134118)[request][172.17.100.130] gtid(29a2d46f5b03337405aba1a6): #^R3^A1:montierorg^A2:montiercatalog^A3:new-space^A4:^A5:^A6:^A7:accounts^A8:1.0.1^A9:https://172.17.100.200:443/montierorg/montiercatalog/accounts/balance^AA:GET^AB:accounts:1.0.1:get:/balance^AC:^AE:^AF:customer_id=7777778^AG:0^AN:^AO:172.17.100.130^AW:^AX:^B7:montierproduct^B8:monconsumerorg^B9:1^BC:montierapp#^
<14>2018-05-22T00:00:36.028938+03:00 MonTierLocalId-2 [0x80e00114][mpgw][info] mpgw(webapi): trans(95134118)[172.17.100.130] gtid(29a2d46f5b03337405aba1a6): Dynamic routing SSL profile set to client:api-sslcli-all
<14>2018-05-22T00:00:36.029078+03:00 MonTierLocalId-2 [0x80e00117][mpgw][info] mpgw(webapi): trans(95134118)[172.17.100.130] gtid(29a2d46f5b03337405aba1a6): Destination URL is now http://127.54.53.243:2444/echo/
<15>2018-05-22T00:00:36.029226+03:00 MonTierLocalId-2 [0x80e0068d][memory-report][debug] mpgw(webapi): trans(95134118)[request][172.17.100.130] gtid(29a2d46f5b03337405aba1a6): Processing [Rule (webapi-mpgw-request-fw), Action ('webapi-unified-request-select-and-set-tenant', xform(local:///isp/unified-request-select-and-set-tenant.xsl)), Input(NULL), Output(NULL)] finished: memory used 1570592
<14>2018-05-22T00:00:36.029339+03:00 MonTierLocalId-2 [0x80c00002][multistep][info] mpgw(webapi): trans(95134118)[request][172.17.100.130] gtid(29a2d46f5b03337405aba1a6): rule (webapi-mpgw-request-fw): #5 xform: Transforming the content of NULL. The transformation local:///isp/unified-request-select-and-set-tenant.xsl is applied. The results are stored in NULL. completed OK.
<15>2018-05-22T00:00:36.029615+03:00 MonTierLocalId-2 [0x80e0068d][memory-report][debug] mpgw(webapi): trans(95134118)[request][172.17.100.130] gtid(29a2d46f5b03337405aba1a6): Processing [Rule (webapi-mpgw-request-fw), Action ('webapi-request-response-conditional-1', conditional()), Input(CONTEXT_WEBAPI_TR), Output(NULL)] finished: memory used 1586464
<14>2018-05-22T00:00:36.029752+03:00 MonTierLocalId-2 [0x80c00002][multistep][info] mpgw(webapi): trans(95134118)[request][172.17.100.130] gtid(29a2d46f5b03337405aba1a6): rule (webapi-mpgw-request-fw): #6 Conditional on CONTEXT_WEBAPI_TR completed OK.
<14>2018-05-22T00:00:36.031208+03:00 MonTierLocalId-2 [0x80e0015b][network][info] trans(95134118)[172.17.100.130] gtid(29a2d46f5b03337405aba1a6): HTTP response code 200 for 'http://127.54.53.243:2444/cached/input-map-digest/v1/catalogs/596d0f67e4b0f0bab66e459a/apis/5ae997e9e4b03d99e0d663db'
<15>2018-05-22T00:00:36.031346+03:00 MonTierLocalId-2 [0x80e0039e][network][debug] mpgw(webapi): trans(95134118)[request][172.17.100.130] gtid(29a2d46f5b03337405aba1a6): url-open: response code 200
<15>2018-05-22T00:00:36.031835+03:00 MonTierLocalId-2 [0x80e003ab][xmlparse][debug] mpgw(webapi): trans(95134118)[request][172.17.100.130] gtid(29a2d46f5b03337405aba1a6): Finished parsing: http://127.54.53.243:2444/cached/input-map-digest/v1/catalogs/596d0f67e4b0f0bab66e459a/apis/5ae997e9e4b03d99e0d663db
<15>2018-05-22T00:00:36.032260+03:00 MonTierLocalId-2 [0x80e003ca][network][debug] xmlmgr(webapi): trans(95134118)[172.17.100.130] gtid(29a2d46f5b03337405aba1a6): Attempting TCP connect to 127.54.53.243
<14>2018-05-22T00:00:36.037059+03:00 MonTierLocalId-2 [0x80e0015b][network][info] trans(95134118)[172.17.100.130] gtid(29a2d46f5b03337405aba1a6): HTTP response code 202 for 'http://127.54.53.243:2444/cached/policies/v1/catalogs/596d0f67e4b0f0bab66e459a/apis/5ae997e9e4b03d99e0d663db:GET:/balance:'
<15>2018-05-22T00:00:36.037430+03:00 MonTierLocalId-2 [0x80e0039e][network][debug] mpgw(webapi): trans(95134118)[request][172.17.100.130] gtid(29a2d46f5b03337405aba1a6): url-open: response code 202
<15>2018-05-22T00:00:36.037638+03:00 MonTierLocalId-2 [0x80e003ab][xmlparse][debug] mpgw(webapi): trans(95134118)[request][172.17.100.130] gtid(29a2d46f5b03337405aba1a6): Finished parsing: http://127.54.53.243:2444/cached/policies/v1/catalogs/596d0f67e4b0f0bab66e459a/apis/5ae997e9e4b03d99e0d663db:GET:/balance:
<15>2018-05-22T00:00:36.040910+03:00 MonTierLocalId-2 [0x80000001][api-mon][debug] mpgw(webapi): trans(95134118)[request][172.17.100.130] gtid(29a2d46f5b03337405aba1a6): #^R7^B1:8^AP:activitylog^AQ:activity-log^AR:1.0.0^AT:1^AU:request#^
<15>2018-05-22T00:00:36.041084+03:00 MonTierLocalId-2 [0x80000001][api-mon][debug] mpgw(webapi): trans(95134118)[request][172.17.100.130] gtid(29a2d46f5b03337405aba1a6): #^R7^B1:8^AP:map^AQ:getBalance: input^AR:^AT:3^AU:request#^
<15>2018-05-22T00:00:36.041358+03:00 MonTierLocalId-2 [0x80000001][api-mon][debug] mpgw(webapi): trans(95134118)[request][172.17.100.130] gtid(29a2d46f5b03337405aba1a6): #^R7^B1:8^AP:json-to-xml^AQ:json-to-xml^AR:1.0.0^AT:7^AU:request#^
<15>2018-05-22T00:00:36.041425+03:00 MonTierLocalId-2 [0x80000001][api-mon][debug] mpgw(webapi): trans(95134118)[request][172.17.100.130] gtid(29a2d46f5b03337405aba1a6): #^R7^B1:8^AP:$$end-block$$^AQ:$$end-block$$^AR:^AT:8^AU:request#^
<15>2018-05-22T00:00:36.041225+03:00 MonTierLocalId-2 [0x80000001][api-mon][debug] mpgw(webapi): trans(95134118)[request][172.17.100.130] gtid(29a2d46f5b03337405aba1a6): #^R7^B1:8^AP:map^AQ:getBalance: output^AR:^AT:5^AU:request#^
<15>2018-05-22T00:00:36.041011+03:00 MonTierLocalId-2 [0x80000001][api-mon][debug] mpgw(webapi): trans(95134118)[request][172.17.100.130] gtid(29a2d46f5b03337405aba1a6): #^R7^B1:8^AP:apim.security^AQ:apim.security^AR:^AT:2^AU:request#^
<15>2018-05-22T00:00:36.041291+03:00 MonTierLocalId-2 [0x80000001][api-mon][debug] mpgw(webapi): trans(95134118)[request][172.17.100.130] gtid(29a2d46f5b03337405aba1a6): #^R7^B1:8^AP:if^AQ:if^AR:1.0.0^AT:6^AU:request#^
<15>2018-05-22T00:00:36.041153+03:00 MonTierLocalId-2 [0x80000001][api-mon][debug] mpgw(webapi): trans(95134118)[request][172.17.100.130] gtid(29a2d46f5b03337405aba1a6): #^R7^B1:8^AP:invoke^AQ:getBalance: invoke^AR:^AT:4^AU:request#^
<15>2018-05-22T00:00:36.042438+03:00 MonTierLocalId-2 [0x80000001][api-mon][debug] mpgw(webapi): trans(95134118)[request][172.17.100.130] gtid(29a2d46f5b03337405aba1a6): #^R5^A1:montierorg^A2:montiercatalog^A3:new-space^A4:^A5:^A6:^A7:accounts^A8:1.0.1^A9:https://172.17.100.200:443/montierorg/montiercatalog/accounts/balance^AA:GET^AB:accounts:1.0.1:get:/balance^AC:^AE:^AF:customer_id=7777778^AG:0^AN:^AO:172.17.100.130^AP:activitylog^AQ:activity-log^AR:1.0.0^AS:activity-log^AT:1^AU:request^AV:^AW:^AX:^B6:24^B7:montierproduct^B8:monconsumerorg^BC:montierapp#^
<15>2018-05-22T00:00:36.042539+03:00 MonTierLocalId-2 [0x80e0068d][memory-report][debug] mpgw(webapi): trans(95134118)[request][172.17.100.130] gtid(29a2d46f5b03337405aba1a6): Processing [Rule (webapi-mpgw-request-fw), Action ('webapi-unified-request-select-and-set-policies', xform(local:///isp/unified-request-select-and-set-policies.xsl)), Input(NULL), Output(NULL)] finished: memory used 2333192
<14>2018-05-22T00:00:36.042629+03:00 MonTierLocalId-2 [0x80c00002][multistep][info] mpgw(webapi): trans(95134118)[request][172.17.100.130] gtid(29a2d46f5b03337405aba1a6): rule (webapi-mpgw-request-fw): #7 xform: Transforming the content of NULL. The transformation local:///isp/unified-request-select-and-set-policies.xsl is applied. The results are stored in NULL. completed OK.
<14>2018-05-22T00:00:36.042905+03:00 MonTierLocalId-2 [0x80c00002][multistep][info] mpgw(webapi): trans(95134118)[request][172.17.100.130] gtid(29a2d46f5b03337405aba1a6): rule (webapi-policy-step-fw-invoke-xform): #1 on-error continue completed OK.
<14>2018-05-22T00:00:36.043593+03:00 MonTierLocalId-2 [0x80c00002][multistep][info] mpgw(webapi): trans(95134118)[request][172.17.100.130] gtid(29a2d46f5b03337405aba1a6): rule (webapi-policy-step-fw-invoke-xform): #2 xform: Transforming the content of NULL. The transformation var://context/policy/exec is applied. The results are stored in policy-output-temp. completed OK.
<14>2018-05-22T00:00:36.043677+03:00 MonTierLocalId-2 [0x80c00002][multistep][info] mpgw(webapi): trans(95134118)[request][172.17.100.130] gtid(29a2d46f5b03337405aba1a6): rule (webapi-policy-step-fw-invoke-xform): #3 on-error abort completed OK.
<15>2018-05-22T00:00:36.044502+03:00 MonTierLocalId-2 [0x80000001][api-mon][debug] mpgw(webapi): trans(95134118)[request][172.17.100.130] gtid(29a2d46f5b03337405aba1a6): #^R6^A1:montierorg^A2:montiercatalog^A3:new-space^A4:^A5:^A6:^A7:accounts^A8:1.0.1^A9:https://172.17.100.200:443/montierorg/montiercatalog/accounts/balance^AA:GET^AB:accounts:1.0.1:get:/balance^AC:^AE:^AF:customer_id=7777778^AG:0^AN:^AO:172.17.100.130^AP:activitylog^AQ:activity-log^AR:1.0.0^AS:activity-log^AT:1^AU:request^AV:^AW:^AX:^B6:26^B7:montierproduct^B8:monconsumerorg^BB:2^BC:montierapp#^
<15>2018-05-22T00:00:36.045137+03:00 MonTierLocalId-2 [0x80000001][api-mon][debug] mpgw(webapi): trans(95134118)[request][172.17.100.130] gtid(29a2d46f5b03337405aba1a6): #^R5^A1:montierorg^A2:montiercatalog^A3:new-space^A4:^A5:^A6:^A7:accounts^A8:1.0.1^A9:https://172.17.100.200:443/montierorg/montiercatalog/accounts/balance^AA:GET^AB:accounts:1.0.1:get:/balance^AC:^AE:^AF:customer_id=7777778^AG:0^AN:^AO:172.17.100.130^AP:apim.security^AQ:apim.security^AR:^AS:^AT:2^AU:request^AV:local:///isp/policy/apim.policy.security.js^AW:^AX:^B6:26^B7:montierproduct^B8:monconsumerorg^BC:montierapp#^
<14>2018-05-22T00:00:36.045243+03:00 MonTierLocalId-2 [0x80c00002][multistep][info] mpgw(webapi): trans(95134118)[request][172.17.100.130] gtid(29a2d46f5b03337405aba1a6): rule (webapi-policy-step-fw-invoke-xform): #4 xform: Transforming the content of NULL. The transformation local:///isp/unified-traverse.xsl is applied. The results are stored in NULL. completed OK.
<14>2018-05-22T00:00:36.045429+03:00 MonTierLocalId-2 [0x80c00002][multistep][info] mpgw(webapi): trans(95134118)[request][172.17.100.130] gtid(29a2d46f5b03337405aba1a6): rule (webapi-policy-invoke-gscript): #1 on-error continue completed OK.
<14>2018-05-22T00:00:36.045889+03:00 MonTierLocalId-2 [0x8580009e][gatewayscript][info] mpgw(webapi): trans(95134118)[request][172.17.100.130] gtid(29a2d46f5b03337405aba1a6): Running the script file 'local:///isp/policy/apim.policy.wrap.js'
<11>2018-05-22T00:00:36.053360+03:00 MonTierLocalId-2 [0x80000001][xsltmsg][error] mpgw(webapi): trans(95134118)[request][172.17.100.130] gtid(29a2d46f5b03337405aba1a6): apim.appidentity: Client id missing
<11>2018-05-22T00:00:36.053588+03:00 MonTierLocalId-2 [0x80000001][xsltmsg][error] mpgw(webapi): trans(95134118)[request][172.17.100.130] gtid(29a2d46f5b03337405aba1a6): HTTP/1.1 401 Unauthorized: Client id missing.
<11>2018-05-22T00:00:36.053712+03:00 MonTierLocalId-2 [0x80c00010][xslt][error] mpgw(webapi): trans(95134118)[request][172.17.100.130] gtid(29a2d46f5b03337405aba1a6): Processing of 'local:///isp/policy/apim.appidentity.xsl' stopped: local:///isp/error_template.xsl:85: xsl:message terminate=yes value='HTTP/1.1 401 Unauthorized: Client id missing.'
<11>2018-05-22T00:00:36.053833+03:00 MonTierLocalId-2 [0x85800089][gatewayscript][error] mpgw(webapi): trans(95134118)[request][172.17.100.130] gtid(29a2d46f5b03337405aba1a6): XSLT transform error: local:///isp/error_template.xsl:85: xsl:message terminate=yes value='HTTP/1.1 401 Unauthorized: Client id missing.'
<14>2018-05-22T00:00:36.054883+03:00 MonTierLocalId-2 [0x80c00002][multistep][info] mpgw(webapi): trans(95134118)[request][172.17.100.130] gtid(29a2d46f5b03337405aba1a6): rule (webapi-policy-invoke-gscript): #2 gatewayscript: Transforming the content of NULL. The transformation local:///isp/policy/apim.policy.wrap.js is applied. The results are stored in policy-output-temp. completed OK.
<14>2018-05-22T00:00:36.054968+03:00 MonTierLocalId-2 [0x80c00002][multistep][info] mpgw(webapi): trans(95134118)[request][172.17.100.130] gtid(29a2d46f5b03337405aba1a6): rule (webapi-policy-invoke-gscript): #3 on-error abort completed OK.
<15>2018-05-22T00:00:36.055616+03:00 MonTierLocalId-2 [0x80000001][api-mon][debug] mpgw(webapi): trans(95134118)[request][172.17.100.130] gtid(29a2d46f5b03337405aba1a6): #^R6^A1:montierorg^A2:montiercatalog^A3:new-space^A4:^A5:^A6:^A7:accounts^A8:1.0.1^A9:https://172.17.100.200:443/montierorg/montiercatalog/accounts/balance^AA:GET^AB:accounts:1.0.1:get:/balance^AC:^AE:^AF:customer_id=7777778^AG:0^AN:^AO:172.17.100.130^AP:apim.security^AQ:apim.security^AR:^AS:^AT:2^AU:request^AV:local:///isp/policy/apim.policy.security.js^AW:^AX:^B6:37^B7:montierproduct^B8:monconsumerorg^BB:11^BC:montierapp#^
<14>2018-05-22T00:00:36.055794+03:00 MonTierLocalId-2 [0x80c00002][multistep][info] mpgw(webapi): trans(95134118)[request][172.17.100.130] gtid(29a2d46f5b03337405aba1a6): rule (webapi-policy-invoke-gscript): #4 xform: Transforming the content of NULL. The transformation local:///isp/unified-traverse-check-error.xsl is applied. The results are stored in NULL. completed OK.
<14>2018-05-22T00:00:36.056358+03:00 MonTierLocalId-2 [0x80c00002][multistep][info] mpgw(webapi): trans(95134118)[request][172.17.100.130] gtid(29a2d46f5b03337405aba1a6): rule (webapi-policy-end): #1 xform: Transforming the content of NULL. The transformation local:///isp/policy/apim.policy.end.xsl is applied. The results are stored in NULL. completed OK.
<14>2018-05-22T00:00:36.056452+03:00 MonTierLocalId-2 [0x80c00002][multistep][info] mpgw(webapi): trans(95134118)[request][172.17.100.130] gtid(29a2d46f5b03337405aba1a6): rule (webapi-policy-invoke-gscript): #5 Calling rule var://context/policy/fw/call-rule with input NULL and output NULL. completed OK.
<14>2018-05-22T00:00:36.056535+03:00 MonTierLocalId-2 [0x80c00002][multistep][info] mpgw(webapi): trans(95134118)[request][172.17.100.130] gtid(29a2d46f5b03337405aba1a6): rule (webapi-policy-step-fw-invoke-xform): #5 Calling rule var://context/policy/fw/call-rule with input NULL and output NULL. completed OK.
<15>2018-05-22T00:00:36.056631+03:00 MonTierLocalId-2 [0x80e0068d][memory-report][debug] mpgw(webapi): trans(95134118)[request][172.17.100.130] gtid(29a2d46f5b03337405aba1a6): Processing [Rule (webapi-mpgw-request-fw), Action ('webapi-policy-call-action', call(var://context/policy/fw/call-rule)), Input(NULL), Output(NULL)] finished: memory used 3172040
<14>2018-05-22T00:00:36.056739+03:00 MonTierLocalId-2 [0x80c00002][multistep][info] mpgw(webapi): trans(95134118)[request][172.17.100.130] gtid(29a2d46f5b03337405aba1a6): rule (webapi-mpgw-request-fw): #8 Calling rule var://context/policy/fw/call-rule with input NULL and output NULL. completed OK.
<15>2018-05-22T00:00:36.057243+03:00 MonTierLocalId-2 [0x80e0068d][memory-report][debug] mpgw(webapi): trans(95134118)[request][172.17.100.130] gtid(29a2d46f5b03337405aba1a6): Processing [Rule (webapi-mpgw-request-fw), Action ('webapi-unified-request-finalize-policy', xform(local:///isp/unified-request-finalize-policy.xsl)), Input(NULL), Output(NULL)] finished: memory used 3264824
<14>2018-05-22T00:00:36.057329+03:00 MonTierLocalId-2 [0x80c00002][multistep][info] mpgw(webapi): trans(95134118)[request][172.17.100.130] gtid(29a2d46f5b03337405aba1a6): rule (webapi-mpgw-request-fw): #9 xform: Transforming the content of NULL. The transformation local:///isp/unified-request-finalize-policy.xsl is applied. The results are stored in NULL. completed OK.
<15>2018-05-22T00:00:36.057543+03:00 MonTierLocalId-2 [0x80e0068d][memory-report][debug] mpgw(webapi): trans(95134118)[request][172.17.100.130] gtid(29a2d46f5b03337405aba1a6): Processing [Rule (webapi-mpgw-request-fw), Action ('webapi-dpext-cond2', conditional()), Input(webapi-dpext), Output(NULL)] finished: memory used 3280376
<14>2018-05-22T00:00:36.057613+03:00 MonTierLocalId-2 [0x80c00002][multistep][info] mpgw(webapi): trans(95134118)[request][172.17.100.130] gtid(29a2d46f5b03337405aba1a6): rule (webapi-mpgw-request-fw): #10 Conditional on webapi-dpext completed OK.
<15>2018-05-22T00:00:36.057753+03:00 MonTierLocalId-2 [0x80e0068e][memory-report][debug] mpgw(webapi): trans(95134118)[172.17.100.130] gtid(29a2d46f5b03337405aba1a6): Request Finished: memory used 2846048
<15>2018-05-22T00:00:36.057865+03:00 MonTierLocalId-2 [0x80e003ca][network][debug] xmlmgr(webapi): trans(95134118)[172.17.100.130] gtid(29a2d46f5b03337405aba1a6): Attempting TCP connect to 127.54.53.243
<14>2018-05-22T00:00:36.060147+03:00 MonTierLocalId-2 [0x80e0015b][mpgw][info] mpgw(webapi): trans(95134118)[172.17.100.130] gtid(29a2d46f5b03337405aba1a6): HTTP response code 200 for 'http://127.54.53.243:2444/echo/'
<14>2018-05-22T00:00:36.060405+03:00 MonTierLocalId-2 [0x80e0012d][mpgw][info] mpgw(webapi): trans(95134118)[172.17.100.130] gtid(29a2d46f5b03337405aba1a6): Using Backside Server: http://127.54.53.243:2444/echo/
<14>2018-05-22T00:00:36.060620+03:00 MonTierLocalId-2 [0x80e000b4][mpgw][info] mpgw(webapi): trans(95134118)[response][172.17.100.130] gtid(29a2d46f5b03337405aba1a6): rule (webapi-mpgw-response-fw): selected via match 'all' from processing policy 'webapi'
<15>2018-05-22T00:00:36.060709+03:00 MonTierLocalId-2 [0x80e0068f][memory-report][debug] mpgw(webapi): trans(95134118)[172.17.100.130] gtid(29a2d46f5b03337405aba1a6): Response Started: memory used 2940296
<15>2018-05-22T00:00:36.061019+03:00 MonTierLocalId-2 [0x80e0068d][memory-report][debug] mpgw(webapi): trans(95134118)[response][172.17.100.130] gtid(29a2d46f5b03337405aba1a6): Processing [Rule (webapi-mpgw-response-fw), Action ('webapi-init-context', setvar(var://context/_apimgmt/no-op)), Input(INPUT), Output(NULL)] finished: memory used 3058584
<14>2018-05-22T00:00:36.061114+03:00 MonTierLocalId-2 [0x80c00002][multistep][info] mpgw(webapi): trans(95134118)[response][172.17.100.130] gtid(29a2d46f5b03337405aba1a6): rule (webapi-mpgw-response-fw): #1 setvar: Setting var://context/_apimgmt/no-op in context INPUT to be 1. completed OK.
<15>2018-05-22T00:00:36.062428+03:00 MonTierLocalId-2 [0x80e0068d][memory-report][debug] mpgw(webapi): trans(95134118)[response][172.17.100.130] gtid(29a2d46f5b03337405aba1a6): Processing [Rule (webapi-mpgw-response-fw), Action ('webapi-unified-response-check-response-code-and-actions', xform(local:///isp/unified-response-check-response-code-and-actions.xsl)), Input(NULL), Output(NULL)] finished: memory used 3276896
<14>2018-05-22T00:00:36.062529+03:00 MonTierLocalId-2 [0x80c00002][multistep][info] mpgw(webapi): trans(95134118)[response][172.17.100.130] gtid(29a2d46f5b03337405aba1a6): rule (webapi-mpgw-response-fw): #2 xform: Transforming the content of NULL. The transformation local:///isp/unified-response-check-response-code-and-actions.xsl is applied. The results are stored in NULL. completed OK.
<15>2018-05-22T00:00:36.062595+03:00 MonTierLocalId-2 [0x80e0068d][memory-report][debug] mpgw(webapi): trans(95134118)[response][172.17.100.130] gtid(29a2d46f5b03337405aba1a6): Processing [Rule (webapi-mpgw-response-fw), Action ('webapi-on-error-continue', on-error()), Input(NULL), Output(NULL)] finished: memory used 3278456
<14>2018-05-22T00:00:36.062670+03:00 MonTierLocalId-2 [0x80c00002][multistep][info] mpgw(webapi): trans(95134118)[response][172.17.100.130] gtid(29a2d46f5b03337405aba1a6): rule (webapi-mpgw-response-fw): #3 on-error continue completed OK.
<15>2018-05-22T00:00:36.063031+03:00 MonTierLocalId-2 [0x80e0068d][memory-report][debug] mpgw(webapi): trans(95134118)[response][172.17.100.130] gtid(29a2d46f5b03337405aba1a6): Processing [Rule (webapi-mpgw-response-fw), Action ('webapi-payload-cond', conditional()), Input(CONTEXT_WEBAPI_TR), Output(NULL)] finished: memory used 3292264
<14>2018-05-22T00:00:36.063114+03:00 MonTierLocalId-2 [0x80c00002][multistep][info] mpgw(webapi): trans(95134118)[response][172.17.100.130] gtid(29a2d46f5b03337405aba1a6): rule (webapi-mpgw-response-fw): #4 Conditional on CONTEXT_WEBAPI_TR completed OK.
<15>2018-05-22T00:00:36.063174+03:00 MonTierLocalId-2 [0x80e0068d][memory-report][debug] mpgw(webapi): trans(95134118)[response][172.17.100.130] gtid(29a2d46f5b03337405aba1a6): Processing [Rule (webapi-mpgw-response-fw), Action ('webapi-on-error-abort', on-error()), Input(NULL), Output(NULL)] finished: memory used 3293176
<14>2018-05-22T00:00:36.063231+03:00 MonTierLocalId-2 [0x80c00002][multistep][info] mpgw(webapi): trans(95134118)[response][172.17.100.130] gtid(29a2d46f5b03337405aba1a6): rule (webapi-mpgw-response-fw): #5 on-error abort completed OK.
<15>2018-05-22T00:00:36.064421+03:00 MonTierLocalId-2 [0x80e003ca][network][debug] xmlmgr(webapi): trans(95134118)[172.17.100.130] gtid(29a2d46f5b03337405aba1a6): Attempting TCP connect to 127.54.53.243
<14>2018-05-22T00:00:36.067689+03:00 MonTierLocalId-2 [0x80e0015b][network][info] trans(95134118)[172.17.100.130] gtid(29a2d46f5b03337405aba1a6): HTTP response code 200 for 'http://127.54.53.243:2444/cached/policies/v1/catalogs/596d0f67e4b0f0bab66e459a/apis/5ae997e9e4b03d99e0d663db:GET:/balance:'
<15>2018-05-22T00:00:36.067957+03:00 MonTierLocalId-2 [0x80e0039e][network][debug] mpgw(webapi): trans(95134118)[response][172.17.100.130] gtid(29a2d46f5b03337405aba1a6): url-open: response code 200
<15>2018-05-22T00:00:36.068460+03:00 MonTierLocalId-2 [0x80e003ab][xmlparse][debug] mpgw(webapi): trans(95134118)[response][172.17.100.130] gtid(29a2d46f5b03337405aba1a6): Finished parsing: http://127.54.53.243:2444/cached/policies/v1/catalogs/596d0f67e4b0f0bab66e459a/apis/5ae997e9e4b03d99e0d663db:GET:/balance:
<15>2018-05-22T00:00:36.068656+03:00 MonTierLocalId-2 [0x80e0068d][memory-report][debug] mpgw(webapi): trans(95134118)[response][172.17.100.130] gtid(29a2d46f5b03337405aba1a6): Processing [Rule (webapi-mpgw-response-fw-do-actions), Action ('webapi-policy-init-xform-action', xform(local:///isp/policy/apim.policy.init.xsl)), Input(NULL), Output(NULL)] finished: memory used 3529600
<14>2018-05-22T00:00:36.068771+03:00 MonTierLocalId-2 [0x80c00002][multistep][info] mpgw(webapi): trans(95134118)[response][172.17.100.130] gtid(29a2d46f5b03337405aba1a6): rule (webapi-mpgw-response-fw-do-actions): #1 xform: Transforming the content of NULL. The transformation local:///isp/policy/apim.policy.init.xsl is applied. The results are stored in NULL. completed OK.
<15>2018-05-22T00:00:36.069364+03:00 MonTierLocalId-2 [0x80e0068d][memory-report][debug] mpgw(webapi): trans(95134118)[response][172.17.100.130] gtid(29a2d46f5b03337405aba1a6): Processing [Rule (webapi-mpgw-response-fw-do-actions), Action ('webapi-policy-traverse-xform-action', xform(local:///isp/policy/apim.policy.traverse.xsl)), Input(NULL), Output(NULL)] finished: memory used 3599168
<14>2018-05-22T00:00:36.069458+03:00 MonTierLocalId-2 [0x80c00002][multistep][info] mpgw(webapi): trans(95134118)[response][172.17.100.130] gtid(29a2d46f5b03337405aba1a6): rule (webapi-mpgw-response-fw-do-actions): #2 xform: Transforming the content of NULL. The transformation local:///isp/policy/apim.policy.traverse.xsl is applied. The results are stored in NULL. completed OK.
<14>2018-05-22T00:00:36.069926+03:00 MonTierLocalId-2 [0x80c00037][xmlfilter][info] mpgw(webapi): trans(95134118)[response][172.17.100.130] gtid(29a2d46f5b03337405aba1a6): Reject set: Client id missing.
<11>2018-05-22T00:00:36.070018+03:00 MonTierLocalId-2 [0x80c00010][xslt][error] mpgw(webapi): trans(95134118)[response][172.17.100.130] gtid(29a2d46f5b03337405aba1a6): Processing of 'local:///isp/policy/apim.policy.end.xsl' stopped: Client id missing.
<11>2018-05-22T00:00:36.070149+03:00 MonTierLocalId-2 [0x80c00009][multistep][error] mpgw(webapi): trans(95134118)[response][172.17.100.130] gtid(29a2d46f5b03337405aba1a6): response webapi-policy-end #1 xform: Transforming the content of NULL. The transformation local:///isp/policy/apim.policy.end.xsl is applied. The results are stored in NULL. failed: Client id missing.
<11>2018-05-22T00:00:36.070315+03:00 MonTierLocalId-2 [0x80c00009][multistep][error] mpgw(webapi): trans(95134118)[response][172.17.100.130] gtid(29a2d46f5b03337405aba1a6): response webapi-mpgw-response-fw-do-actions #3 Calling rule var://context/policy/fw/call-rule with input NULL and output NULL. failed: Client id missing.
<11>2018-05-22T00:00:36.070453+03:00 MonTierLocalId-2 [0x80c00009][multistep][error] mpgw(webapi): trans(95134118)[response][172.17.100.130] gtid(29a2d46f5b03337405aba1a6): response webapi-mpgw-response-fw #6 Calling rule webapi-mpgw-response-fw-do-actions with input INPUT and output OUTPUT. failed: Client id missing.
<11>2018-05-22T00:00:36.070654+03:00 MonTierLocalId-2 [0x00d30003][mpgw][error] mpgw(webapi): trans(95134118)[error][172.17.100.130] gtid(29a2d46f5b03337405aba1a6): Rejected by filter; SOAP fault sent
<14>2018-05-22T00:00:36.070850+03:00 MonTierLocalId-2 [0x80e000b7][mpgw][info] mpgw(webapi): trans(95134118)[error][172.17.100.130] gtid(29a2d46f5b03337405aba1a6): rule (webapi-mpgw-error): selected via match 'all' from processing policy 'webapi' for code '0x00d30003'
<14>2018-05-22T00:00:36.071218+03:00 MonTierLocalId-2 [0x8580009e][gatewayscript][info] mpgw(webapi): trans(95134118)[error][172.17.100.130] gtid(29a2d46f5b03337405aba1a6): Running the script file 'local:///isp/policy/apim.error.response.js'
<15>2018-05-22T00:00:36.071607+03:00 MonTierLocalId-2 [0x80e0068d][memory-report][debug] mpgw(webapi): trans(95134118)[error][172.17.100.130] gtid(29a2d46f5b03337405aba1a6): Processing [Rule (webapi-mpgw-error), Action ('webapi-gws-api-error-response-js', gatewayscript()), Input(NULL), Output(NULL)] finished: memory used 3460120
<14>2018-05-22T00:00:36.071715+03:00 MonTierLocalId-2 [0x80c00002][multistep][info] mpgw(webapi): trans(95134118)[error][172.17.100.130] gtid(29a2d46f5b03337405aba1a6): rule (webapi-mpgw-error): #1 gatewayscript: Transforming the content of NULL. The transformation local:///isp/policy/apim.error.response.js is applied. The results are stored in NULL. completed OK.
<11>2018-05-22T00:00:36.072262+03:00 MonTierLocalId-2 [0x80000001][xsltmsg][error] mpgw(webapi): trans(95134118)[error][172.17.100.130] gtid(29a2d46f5b03337405aba1a6): api-error-response multistep error
<15>2018-05-22T00:00:36.072399+03:00 MonTierLocalId-2 [0x80e0068d][memory-report][debug] mpgw(webapi): trans(95134118)[error][172.17.100.130] gtid(29a2d46f5b03337405aba1a6): Processing [Rule (webapi-mpgw-error), Action ('webapi-xform-api-error-response', xform(local:///isp/api-error-response.xsl)), Input(NULL), Output(NULL)] finished: memory used 3599944
<14>2018-05-22T00:00:36.072485+03:00 MonTierLocalId-2 [0x80c00002][multistep][info] mpgw(webapi): trans(95134118)[error][172.17.100.130] gtid(29a2d46f5b03337405aba1a6): rule (webapi-mpgw-error): #2 xform: Transforming the content of NULL. The transformation local:///isp/api-error-response.xsl is applied. The results are stored in NULL. completed OK.
<15>2018-05-22T00:00:36.073412+03:00 MonTierLocalId-2 [0x80e003ab][xmlparse][debug] mpgw(webapi): trans(95134118)[error][172.17.100.130] gtid(29a2d46f5b03337405aba1a6): Finished parsing: local:///isp/error/error.json
<15>2018-05-22T00:00:36.073895+03:00 MonTierLocalId-2 [0x80e0068d][memory-report][debug] mpgw(webapi): trans(95134118)[error][172.17.100.130] gtid(29a2d46f5b03337405aba1a6): Processing [Rule (webapi-mpgw-error), Action ('webapi-xform-error-message', xform(local:///isp/error/error_message.xsl)), Input(NULL), Output(ErrorPayload)] finished: memory used 3714408
<14>2018-05-22T00:00:36.073988+03:00 MonTierLocalId-2 [0x80c00002][multistep][info] mpgw(webapi): trans(95134118)[error][172.17.100.130] gtid(29a2d46f5b03337405aba1a6): rule (webapi-mpgw-error): #3 xform: Transforming the content of NULL. The transformation local:///isp/error/error_message.xsl is applied. The results are stored in ErrorPayload. completed OK.
<15>2018-05-22T00:00:36.075257+03:00 MonTierLocalId-2 [0x80e0068d][memory-report][debug] mpgw(webapi): trans(95134118)[error][172.17.100.130] gtid(29a2d46f5b03337405aba1a6): Processing [Rule (webapi-mpgw-error), Action ('webapi-xform-analytics', xform(local:///isp/api-analytics.xsl)), Input(NULL), Output(NULL)] finished: memory used 3908040
<14>2018-05-22T00:00:36.075349+03:00 MonTierLocalId-2 [0x80c00002][multistep][info] mpgw(webapi): trans(95134118)[error][172.17.100.130] gtid(29a2d46f5b03337405aba1a6): rule (webapi-mpgw-error): #4 xform: Transforming the content of NULL. The transformation local:///isp/api-analytics.xsl is applied. The results are stored in NULL. completed OK.
<15>2018-05-22T00:00:36.076011+03:00 MonTierLocalId-2 [0x80000001][api-mon][debug] mpgw(webapi): trans(95134118)[error][172.17.100.130] gtid(29a2d46f5b03337405aba1a6): #^R4^A1:montierorg^A2:montiercatalog^A3:new-space^A4:^A5:^A6:^A7:accounts^A8:1.0.1^A9:https://172.17.100.200:443/montierorg/montiercatalog/accounts/balance^AA:GET^AB:accounts:1.0.1:get:/balance^AC:^AE:^AF:customer_id=7777778^AG:0^AH:1^AI:200^AJ:0^AK:"Unauthorized"^AL:"Client id missing."^AM:401^AN:^AO:172.17.100.130^AW:^AX:^AY:^AZ:^B2:39^B3:15^B4:3^B5:57^B7:montierproduct^B8:monconsumerorg^B9:1^BA:1^BC:montierapp#^
<14>2018-05-22T00:00:36.076172+03:00 MonTierLocalId-2 [0x80000001][latency][info] mpgw(webapi): trans(95134118)[error][172.17.100.130] gtid(29a2d46f5b03337405aba1a6): API Gateway Latency: 0 23 26 57 [https://172.17.100.200:443/montierorg/montiercatalog/accounts/balance?customer_id=7777778]
<15>2018-05-22T00:00:36.076263+03:00 MonTierLocalId-2 [0x80e0068d][memory-report][debug] mpgw(webapi): trans(95134118)[error][172.17.100.130] gtid(29a2d46f5b03337405aba1a6): Processing [Rule (webapi-mpgw-error), Action ('webapi-xform-final', xform(local:///isp/api-final.xsl)), Input(NULL), Output(NULL)] finished: memory used 4037928
<14>2018-05-22T00:00:36.076337+03:00 MonTierLocalId-2 [0x80c00002][multistep][info] mpgw(webapi): trans(95134118)[error][172.17.100.130] gtid(29a2d46f5b03337405aba1a6): rule (webapi-mpgw-error): #5 xform: Transforming the content of NULL. The transformation local:///isp/api-final.xsl is applied. The results are stored in NULL. completed OK.
<15>2018-05-22T00:00:36.076667+03:00 MonTierLocalId-2 [0x80e0068d][memory-report][debug] mpgw(webapi): trans(95134118)[error][172.17.100.130] gtid(29a2d46f5b03337405aba1a6): Processing [Rule (webapi-mpgw-error), Action ('webapi-error-results', results()), Input(ErrorPayload), Output(NULL)] finished: memory used 4130800
<14>2018-05-22T00:00:36.076758+03:00 MonTierLocalId-2 [0x80c00002][multistep][info] mpgw(webapi): trans(95134118)[error][172.17.100.130] gtid(29a2d46f5b03337405aba1a6): rule (webapi-mpgw-error): #6 results: Generated from ErrorPayload. completed OK.
<15>2018-05-22T00:00:36.076817+03:00 MonTierLocalId-2 [0x80e0068d][memory-report][debug] mpgw(webapi): trans(95134118)[error][172.17.100.130] gtid(29a2d46f5b03337405aba1a6): Processing [Rule (webapi-mpgw-error), Action ('webapi-dpext-cond4', conditional()), Input(webapi-dpext), Output(NULL)] finished: memory used 4131624
<14>2018-05-22T00:00:36.076873+03:00 MonTierLocalId-2 [0x80c00002][multistep][info] mpgw(webapi): trans(95134118)[error][172.17.100.130] gtid(29a2d46f5b03337405aba1a6): rule (webapi-mpgw-error): #7 Conditional on webapi-dpext completed OK.
<15>2018-05-22T00:00:36.077160+03:00 MonTierLocalId-2 [0x80e0068d][memory-report][debug] mpgw(webapi): trans(95134118)[error][172.17.100.130] gtid(29a2d46f5b03337405aba1a6): Processing [Rule (webapi-mpgw-error), Action ('webapi-xform-set-ctype', xform(local:///isp/api-set-ctype.xsl)), Input(webapi-dpext), Output(NULL)] finished: memory used 4183800
<14>2018-05-22T00:00:36.077245+03:00 MonTierLocalId-2 [0x80c00002][multistep][info] mpgw(webapi): trans(95134118)[error][172.17.100.130] gtid(29a2d46f5b03337405aba1a6): rule (webapi-mpgw-error): #8 xform: Transforming the content of webapi-dpext. The transformation local:///isp/api-set-ctype.xsl is applied. The results are stored in NULL. completed OK.
<15>2018-05-22T00:00:36.077681+03:00 MonTierLocalId-2 [0x80e00690][memory-report][debug] mpgw(webapi): trans(95134118)[172.17.100.130] gtid(29a2d46f5b03337405aba1a6): Response Finished: memory used 3423736
