<11>2018-05-21T07:51:03.259125-04:00 MonTierLocalId-1 [0x80800002][auth][error] rbm(RBM-Settings): trans(12221842)[request] gtid(aa2f17bf5b02b2a700ba7d92): RBM: Authentication failed - Access Denied
<11>2018-05-21T07:51:03.243679-04:00 MonTierLocalId-1 [0x81000034][auth][error] user(user1): trans(12221842)[192.168.0.54]: User 'user1' failed to log in.
<11>2018-05-21T07:50:52.657585-04:00 MonTierLocalId-1 [0x80800002][auth][error] rbm(RBM-Settings): trans(11682851)[request] gtid(aa2f17bf5b02b29c00b24423): RBM: Authentication failed - Access Denied
<11>2018-05-21T07:50:52.541668-04:00 MonTierLocalId-1 [0x81000034][auth][error] user(admin): trans(11682851)[192.168.0.54]: User 'admin' failed to log in.