<14>May 06 19:22:20 MonTierLocalId-7 [0x02220001][system][critic] Power supply failure.
<14>May 06 19:22:20 MonTierLocalId-7 [0x80400022][system][critic] System power supply #1 has failed
<14>May 06 19:22:20 MonTierLocalId-7 [0x02220003][system][critic] Internal cooling fan has stopped.
<14>May 06 19:22:20 MonTierLocalId-7 [0x02220005][system][critic] System battery failed.