<14>2018-05-22T00:08:35.107191+03:00 MonTierLocalId-2 [0x80e0013a][mpgw][info] source-https(webapi-https): trans(95140822)[172.17.100.130]: Received HTTP/1.1 POST for /montierorg/montiercatalog/DataPowerPing1 from 172.17.100.130
<15>2018-05-22T00:08:35.107593+03:00 MonTierLocalId-2 [0x80e0013f][mpgw][debug] source-https(webapi-https): trans(95140822)[172.17.100.130]: Found content length 790 HTTP input
<14>2018-05-22T00:08:35.107776+03:00 MonTierLocalId-2 [0x80e000b4][mpgw][info] stylepolicy(webapi): trans(95140822)[request][172.17.100.130]: rule (webapi-mpgw-request-fw): selected via match 'all' from processing policy 'webapi'
<14>2018-05-22T00:08:35.107869+03:00 MonTierLocalId-2 [0x80e0083d][mpgw][info] mpgw(webapi): trans(95140822)[request][172.17.100.130]: Started the processing of the transaction.
<15>2018-05-22T00:08:35.107952+03:00 MonTierLocalId-2 [0x80e0068c][memory-report][debug] mpgw(webapi): trans(95140822)[172.17.100.130] gtid(29a2d46f5b03355305abbbd6): Request Started: memory used 173432
<15>2018-05-22T00:08:35.108139+03:00 MonTierLocalId-2 [0x80e0068d][memory-report][debug] mpgw(webapi): trans(95140822)[request][172.17.100.130] gtid(29a2d46f5b03355305abbbd6): Processing [Rule (webapi-mpgw-request-fw), Action ('webapi-init-context', setvar(var://context/_apimgmt/no-op)), Input(INPUT), Output(NULL)] finished: memory used 240232
<14>2018-05-22T00:08:35.108198+03:00 MonTierLocalId-2 [0x80c00002][multistep][info] mpgw(webapi): trans(95140822)[request][172.17.100.130] gtid(29a2d46f5b03355305abbbd6): rule (webapi-mpgw-request-fw): #1 setvar: Setting var://context/_apimgmt/no-op in context INPUT to be 1. completed OK.
<15>2018-05-22T00:08:35.109077+03:00 MonTierLocalId-2 [0x80e0068d][memory-report][debug] mpgw(webapi): trans(95140822)[request][172.17.100.130] gtid(29a2d46f5b03355305abbbd6): Processing [Rule (webapi-mpgw-request-fw), Action ('webapi-unified-request-init', xform(local:///isp/unified-request-init.xsl)), Input(NULL), Output(CONTEXT_WEBAPI_TR)] finished: memory used 449920
<14>2018-05-22T00:08:35.109148+03:00 MonTierLocalId-2 [0x80c00002][multistep][info] mpgw(webapi): trans(95140822)[request][172.17.100.130] gtid(29a2d46f5b03355305abbbd6): rule (webapi-mpgw-request-fw): #2 xform: Transforming the content of NULL. The transformation local:///isp/unified-request-init.xsl is applied. The results are stored in CONTEXT_WEBAPI_TR. completed OK.
<15>2018-05-22T00:08:35.109331+03:00 MonTierLocalId-2 [0x80e0068d][memory-report][debug] mpgw(webapi): trans(95140822)[request][172.17.100.130] gtid(29a2d46f5b03355305abbbd6): Processing [Rule (webapi-mpgw-request-fw), Action ('webapi-dpext-pre-request-cond', conditional()), Input(webapi-dpext), Output(NULL)] finished: memory used 464848
<14>2018-05-22T00:08:35.109381+03:00 MonTierLocalId-2 [0x80c00002][multistep][info] mpgw(webapi): trans(95140822)[request][172.17.100.130] gtid(29a2d46f5b03355305abbbd6): rule (webapi-mpgw-request-fw): #3 Conditional on webapi-dpext completed OK.
<15>2018-05-22T00:08:35.109530+03:00 MonTierLocalId-2 [0x80e0068d][memory-report][debug] mpgw(webapi): trans(95140822)[request][172.17.100.130] gtid(29a2d46f5b03355305abbbd6): Processing [Rule (webapi-mpgw-request-fw), Action ('webapi-form-parse-input', conditional()), Input(CONTEXT_WEBAPI_TR), Output(NULL)] finished: memory used 478488
<14>2018-05-22T00:08:35.109591+03:00 MonTierLocalId-2 [0x80c00002][multistep][info] mpgw(webapi): trans(95140822)[request][172.17.100.130] gtid(29a2d46f5b03355305abbbd6): rule (webapi-mpgw-request-fw): #4 Conditional on CONTEXT_WEBAPI_TR completed OK.
<14>2018-05-22T00:08:35.110404+03:00 MonTierLocalId-2 [0x80e0015b][network][info] trans(95140822)[172.17.100.130] gtid(29a2d46f5b03355305abbbd6): HTTP response code 200 for 'http://127.54.53.243:2444/services/v1/catalogs/596d0f67e4b0f0bab66e459a'
<15>2018-05-22T00:08:35.110502+03:00 MonTierLocalId-2 [0x80e0039e][network][debug] mpgw(webapi): trans(95140822)[request][172.17.100.130] gtid(29a2d46f5b03355305abbbd6): url-open: response code 200
<15>2018-05-22T00:08:35.112161+03:00 MonTierLocalId-2 [0x80e003ab][xmlparse][debug] mpgw(webapi): trans(95140822)[request][172.17.100.130] gtid(29a2d46f5b03355305abbbd6): Finished parsing: http://127.54.53.243:2444/services/v1/catalogs/596d0f67e4b0f0bab66e459a
<15>2018-05-22T00:08:35.113662+03:00 MonTierLocalId-2 [0x80000001][api-mon][debug] mpgw(webapi): trans(95140822)[request][172.17.100.130] gtid(29a2d46f5b03355305abbbd6): #^R3^A1:montierorg^A2:montiercatalog^A3:new-space^A4:default^A5:1.0.0^A6:montierproduct:1.0.0:default^A7:datapowerping-1^A8:1.0.0^A9:https://172.17.100.200:443/montierorg/montiercatalog/DataPowerPing1^AA:POST^AB:datapowerping-1:1.0.0:post:/Ping^AC:9612cb56-da1a-4757-a301-018ac4359306^AE:montierproduct^AF:^AG:790^AN:596d0eb7e4b0f0bab66e457b^AO:172.17.100.130^AW:^AX:^B7:montierproduct^B8:monconsumerorg^B9:1^BC:montierapp#^
<14>2018-05-22T00:08:35.113812+03:00 MonTierLocalId-2 [0x80e00114][mpgw][info] mpgw(webapi): trans(95140822)[172.17.100.130] gtid(29a2d46f5b03355305abbbd6): Dynamic routing SSL profile set to client:api-sslcli-all
<14>2018-05-22T00:08:35.113892+03:00 MonTierLocalId-2 [0x80e00117][mpgw][info] mpgw(webapi): trans(95140822)[172.17.100.130] gtid(29a2d46f5b03355305abbbd6): Destination URL is now http://127.54.53.243:2444/echo/
<15>2018-05-22T00:08:35.113979+03:00 MonTierLocalId-2 [0x80e0068d][memory-report][debug] mpgw(webapi): trans(95140822)[request][172.17.100.130] gtid(29a2d46f5b03355305abbbd6): Processing [Rule (webapi-mpgw-request-fw), Action ('webapi-unified-request-select-and-set-tenant', xform(local:///isp/unified-request-select-and-set-tenant.xsl)), Input(NULL), Output(NULL)] finished: memory used 1677384
<14>2018-05-22T00:08:35.114032+03:00 MonTierLocalId-2 [0x80c00002][multistep][info] mpgw(webapi): trans(95140822)[request][172.17.100.130] gtid(29a2d46f5b03355305abbbd6): rule (webapi-mpgw-request-fw): #5 xform: Transforming the content of NULL. The transformation local:///isp/unified-request-select-and-set-tenant.xsl is applied. The results are stored in NULL. completed OK.
<15>2018-05-22T00:08:35.114426+03:00 MonTierLocalId-2 [0x80e0068d][memory-report][debug] mpgw(webapi): trans(95140822)[request][172.17.100.130] gtid(29a2d46f5b03355305abbbd6): Processing [Rule (webapi-mpgw-request-fw), Action ('webapi-json-convert-http', convert-http(json)), Input(INPUT), Output(__JSONASJSONX)] finished: memory used 2022288
<14>2018-05-22T00:08:35.114547+03:00 MonTierLocalId-2 [0x80c00002][multistep][info] mpgw(webapi): trans(95140822)[request][172.17.100.130] gtid(29a2d46f5b03355305abbbd6): rule (webapi-mpgw-request-fw): #6 convert-http: Converting INPUT with map json. Results stored in __JSONASJSONX. completed OK.
<15>2018-05-22T00:08:35.114630+03:00 MonTierLocalId-2 [0x80e0068d][memory-report][debug] mpgw(webapi): trans(95140822)[request][172.17.100.130] gtid(29a2d46f5b03355305abbbd6): Processing [Rule (webapi-mpgw-request-fw), Action ('webapi-request-response-conditional-1', conditional()), Input(CONTEXT_WEBAPI_TR), Output(NULL)] finished: memory used 2023368
<14>2018-05-22T00:08:35.114720+03:00 MonTierLocalId-2 [0x80c00002][multistep][info] mpgw(webapi): trans(95140822)[request][172.17.100.130] gtid(29a2d46f5b03355305abbbd6): rule (webapi-mpgw-request-fw): #7 Conditional on CONTEXT_WEBAPI_TR completed OK.
<15>2018-05-22T00:08:35.115253+03:00 MonTierLocalId-2 [0x80e003ca][network][debug] xmlmgr(webapi): trans(95140822)[172.17.100.130] gtid(29a2d46f5b03355305abbbd6): Attempting TCP connect to 127.54.53.243
<14>2018-05-22T00:08:35.118413+03:00 MonTierLocalId-2 [0x80e0015b][network][info] trans(95140822)[172.17.100.130] gtid(29a2d46f5b03355305abbbd6): HTTP response code 202 for 'http://127.54.53.243:2444/cached/input-map-digest/v1/catalogs/596d0f67e4b0f0bab66e459a/apis/5ae997e9e4b03d99e0d663da'
<15>2018-05-22T00:08:35.118629+03:00 MonTierLocalId-2 [0x80e0039e][network][debug] mpgw(webapi): trans(95140822)[request][172.17.100.130] gtid(29a2d46f5b03355305abbbd6): url-open: response code 202
<15>2018-05-22T00:08:35.118743+03:00 MonTierLocalId-2 [0x80e003ab][xmlparse][debug] mpgw(webapi): trans(95140822)[request][172.17.100.130] gtid(29a2d46f5b03355305abbbd6): Finished parsing: http://127.54.53.243:2444/cached/input-map-digest/v1/catalogs/596d0f67e4b0f0bab66e459a/apis/5ae997e9e4b03d99e0d663da
<15>2018-05-22T00:08:35.118917+03:00 MonTierLocalId-2 [0x80e003ca][network][debug] xmlmgr(webapi): trans(95140822)[172.17.100.130] gtid(29a2d46f5b03355305abbbd6): Attempting TCP connect to 127.54.53.243
<14>2018-05-22T00:08:35.121686+03:00 MonTierLocalId-2 [0x80e0015b][network][info] trans(95140822)[172.17.100.130] gtid(29a2d46f5b03355305abbbd6): HTTP response code 202 for 'http://127.54.53.243:2444/cached/policies/v1/catalogs/596d0f67e4b0f0bab66e459a/apis/5ae997e9e4b03d99e0d663da:POST:/Ping:montierproduct:1.0.0:default'
<15>2018-05-22T00:08:35.121890+03:00 MonTierLocalId-2 [0x80e0039e][network][debug] mpgw(webapi): trans(95140822)[request][172.17.100.130] gtid(29a2d46f5b03355305abbbd6): url-open: response code 202
<15>2018-05-22T00:08:35.122043+03:00 MonTierLocalId-2 [0x80e003ab][xmlparse][debug] mpgw(webapi): trans(95140822)[request][172.17.100.130] gtid(29a2d46f5b03355305abbbd6): Finished parsing: http://127.54.53.243:2444/cached/policies/v1/catalogs/596d0f67e4b0f0bab66e459a/apis/5ae997e9e4b03d99e0d663da:POST:/Ping:montierproduct:1.0.0:default
<14>2018-05-22T00:08:35.123343+03:00 MonTierLocalId-2 [0x8580009e][gatewayscript][info] mpgw(webapi): trans(95140822)[request][172.17.100.130] gtid(29a2d46f5b03355305abbbd6): Running the script file 'local:///isp/policy/apim.custom.xsl.js'
<15>2018-05-22T00:08:35.127685+03:00 MonTierLocalId-2 [0x80000001][api-mon][debug] mpgw(webapi): trans(95140822)[request][172.17.100.130] gtid(29a2d46f5b03355305abbbd6): #^R7^B1:4^AP:apim.appidentity^AQ:security-appID^AR:^AT:1^AU:request#^
<15>2018-05-22T00:08:35.127917+03:00 MonTierLocalId-2 [0x80000001][api-mon][debug] mpgw(webapi): trans(95140822)[request][172.17.100.130] gtid(29a2d46f5b03355305abbbd6): #^R7^B1:4^AP:map^AQ:Ping: output^AR:^AT:4^AU:request#^
<15>2018-05-22T00:08:35.127856+03:00 MonTierLocalId-2 [0x80000001][api-mon][debug] mpgw(webapi): trans(95140822)[request][172.17.100.130] gtid(29a2d46f5b03355305abbbd6): #^R7^B1:4^AP:invoke^AQ:Ping: invoke^AR:^AT:3^AU:request#^
<15>2018-05-22T00:08:35.127792+03:00 MonTierLocalId-2 [0x80000001][api-mon][debug] mpgw(webapi): trans(95140822)[request][172.17.100.130] gtid(29a2d46f5b03355305abbbd6): #^R7^B1:4^AP:map^AQ:Ping: input^AR:^AT:2^AU:request#^
<15>2018-05-22T00:08:35.128879+03:00 MonTierLocalId-2 [0x80000001][api-mon][debug] mpgw(webapi): trans(95140822)[request][172.17.100.130] gtid(29a2d46f5b03355305abbbd6): #^R5^A1:montierorg^A2:montiercatalog^A3:new-space^A4:default^A5:1.0.0^A6:montierproduct:1.0.0:default^A7:datapowerping-1^A8:1.0.0^A9:https://172.17.100.200:443/montierorg/montiercatalog/DataPowerPing1^AA:POST^AB:datapowerping-1:1.0.0:post:/Ping^AC:9612cb56-da1a-4757-a301-018ac4359306^AE:montierproduct^AF:^AG:790^AN:596d0eb7e4b0f0bab66e457b^AO:172.17.100.130^AP:apim.appidentity^AQ:security-appID^AR:^AS:security-appID^AT:1^AU:request^AV:^AW:^AX:^B6:21^B7:montierproduct^B8:monconsumerorg^BC:montierapp#^
<15>2018-05-22T00:08:35.128978+03:00 MonTierLocalId-2 [0x80e0068d][memory-report][debug] mpgw(webapi): trans(95140822)[request][172.17.100.130] gtid(29a2d46f5b03355305abbbd6): Processing [Rule (webapi-mpgw-request-fw), Action ('webapi-unified-request-select-and-set-policies', xform(local:///isp/unified-request-select-and-set-policies.xsl)), Input(NULL), Output(NULL)] finished: memory used 2784024
<14>2018-05-22T00:08:35.129072+03:00 MonTierLocalId-2 [0x80c00002][multistep][info] mpgw(webapi): trans(95140822)[request][172.17.100.130] gtid(29a2d46f5b03355305abbbd6): rule (webapi-mpgw-request-fw): #8 xform: Transforming the content of NULL. The transformation local:///isp/unified-request-select-and-set-policies.xsl is applied. The results are stored in NULL. completed OK.
<14>2018-05-22T00:08:35.129246+03:00 MonTierLocalId-2 [0x80c00002][multistep][info] mpgw(webapi): trans(95140822)[request][172.17.100.130] gtid(29a2d46f5b03355305abbbd6): rule (webapi-policy-step-fw-invoke-xform): #1 on-error continue completed OK.
<14>2018-05-22T00:08:35.129971+03:00 MonTierLocalId-2 [0x80c00002][multistep][info] mpgw(webapi): trans(95140822)[request][172.17.100.130] gtid(29a2d46f5b03355305abbbd6): rule (webapi-policy-step-fw-invoke-xform): #2 xform: Transforming the content of NULL. The transformation var://context/policy/exec is applied. The results are stored in policy-output-temp. completed OK.
<15>2018-05-22T00:08:35.130746+03:00 MonTierLocalId-2 [0x80000001][api-mon][debug] mpgw(webapi): trans(95140822)[request][172.17.100.130] gtid(29a2d46f5b03355305abbbd6): #^R6^A1:montierorg^A2:montiercatalog^A3:new-space^A4:default^A5:1.0.0^A6:montierproduct:1.0.0:default^A7:datapowerping-1^A8:1.0.0^A9:https://172.17.100.200:443/montierorg/montiercatalog/DataPowerPing1^AA:POST^AB:datapowerping-1:1.0.0:post:/Ping^AC:9612cb56-da1a-4757-a301-018ac4359306^AE:montierproduct^AF:^AG:790^AN:596d0eb7e4b0f0bab66e457b^AO:172.17.100.130^AP:apim.appidentity^AQ:security-appID^AR:^AS:security-appID^AT:1^AU:request^AV:^AW:^AX:^B6:23^B7:montierproduct^B8:monconsumerorg^BB:2^BC:montierapp#^
<14>2018-05-22T00:08:35.130073+03:00 MonTierLocalId-2 [0x80c00002][multistep][info] mpgw(webapi): trans(95140822)[request][172.17.100.130] gtid(29a2d46f5b03355305abbbd6): rule (webapi-policy-step-fw-invoke-xform): #3 on-error abort completed OK.
<15>2018-05-22T00:08:35.131262+03:00 MonTierLocalId-2 [0x80000001][api-mon][debug] mpgw(webapi): trans(95140822)[request][172.17.100.130] gtid(29a2d46f5b03355305abbbd6): #^R5^A1:montierorg^A2:montiercatalog^A3:new-space^A4:default^A5:1.0.0^A6:montierproduct:1.0.0:default^A7:datapowerping-1^A8:1.0.0^A9:https://172.17.100.200:443/montierorg/montiercatalog/DataPowerPing1^AA:POST^AB:datapowerping-1:1.0.0:post:/Ping^AC:9612cb56-da1a-4757-a301-018ac4359306^AE:montierproduct^AF:^AG:790^AN:596d0eb7e4b0f0bab66e457b^AO:172.17.100.130^AP:map^AQ:Ping: input^AR:^AS:Ping: input^AT:2^AU:request^AV:local:///isp/policy/apim.map.js^AW:^AX:^B6:23^B7:montierproduct^B8:monconsumerorg^BC:montierapp#^
<14>2018-05-22T00:08:35.131359+03:00 MonTierLocalId-2 [0x80c00002][multistep][info] mpgw(webapi): trans(95140822)[request][172.17.100.130] gtid(29a2d46f5b03355305abbbd6): rule (webapi-policy-step-fw-invoke-xform): #4 xform: Transforming the content of NULL. The transformation local:///isp/unified-traverse.xsl is applied. The results are stored in NULL. completed OK.
<14>2018-05-22T00:08:35.131488+03:00 MonTierLocalId-2 [0x80c00002][multistep][info] mpgw(webapi): trans(95140822)[request][172.17.100.130] gtid(29a2d46f5b03355305abbbd6): rule (webapi-policy-invoke-gscript): #1 on-error continue completed OK.
<14>2018-05-22T00:08:35.131831+03:00 MonTierLocalId-2 [0x8580009e][gatewayscript][info] mpgw(webapi): trans(95140822)[request][172.17.100.130] gtid(29a2d46f5b03355305abbbd6): Running the script file 'local:///isp/policy/apim.policy.wrap.js'
<14>2018-05-22T00:08:35.144536+03:00 MonTierLocalId-2 [0x80c00002][multistep][info] mpgw(webapi): trans(95140822)[request][172.17.100.130] gtid(29a2d46f5b03355305abbbd6): rule (webapi-policy-invoke-gscript): #2 gatewayscript: Transforming the content of NULL. The transformation local:///isp/policy/apim.policy.wrap.js is applied. The results are stored in policy-output-temp. completed OK.
<14>2018-05-22T00:08:35.144735+03:00 MonTierLocalId-2 [0x80c00002][multistep][info] mpgw(webapi): trans(95140822)[request][172.17.100.130] gtid(29a2d46f5b03355305abbbd6): rule (webapi-policy-invoke-gscript): #3 on-error abort completed OK.
<15>2018-05-22T00:08:35.145648+03:00 MonTierLocalId-2 [0x80000001][api-mon][debug] mpgw(webapi): trans(95140822)[request][172.17.100.130] gtid(29a2d46f5b03355305abbbd6): #^R6^A1:montierorg^A2:montiercatalog^A3:new-space^A4:default^A5:1.0.0^A6:montierproduct:1.0.0:default^A7:datapowerping-1^A8:1.0.0^A9:https://172.17.100.200:443/montierorg/montiercatalog/DataPowerPing1^AA:POST^AB:datapowerping-1:1.0.0:post:/Ping^AC:9612cb56-da1a-4757-a301-018ac4359306^AE:montierproduct^AF:^AG:790^AN:596d0eb7e4b0f0bab66e457b^AO:172.17.100.130^AP:map^AQ:Ping: input^AR:^AS:Ping: input^AT:2^AU:request^AV:local:///isp/policy/apim.map.js^AW:^AX:^B6:38^B7:montierproduct^B8:monconsumerorg^BB:15^BC:montierapp#^
<15>2018-05-22T00:08:35.146242+03:00 MonTierLocalId-2 [0x80000001][api-mon][debug] mpgw(webapi): trans(95140822)[request][172.17.100.130] gtid(29a2d46f5b03355305abbbd6): #^R5^A1:montierorg^A2:montiercatalog^A3:new-space^A4:default^A5:1.0.0^A6:montierproduct:1.0.0:default^A7:datapowerping-1^A8:1.0.0^A9:https://172.17.100.200:443/montierorg/montiercatalog/DataPowerPing1^AA:POST^AB:datapowerping-1:1.0.0:post:/Ping^AC:9612cb56-da1a-4757-a301-018ac4359306^AE:montierproduct^AF:^AG:790^AN:596d0eb7e4b0f0bab66e457b^AO:172.17.100.130^AP:invoke^AQ:Ping: invoke^AR:^AS:Ping: invoke^AT:3^AU:request^AV:local:///isp/policy/apim.policy.restinvoke.js^AW:^AX:^B6:38^B7:montierproduct^B8:monconsumerorg^BC:montierapp#^
<14>2018-05-22T00:08:35.146346+03:00 MonTierLocalId-2 [0x80c00002][multistep][info] mpgw(webapi): trans(95140822)[request][172.17.100.130] gtid(29a2d46f5b03355305abbbd6): rule (webapi-policy-invoke-gscript): #4 xform: Transforming the content of NULL. The transformation local:///isp/unified-traverse-check-error.xsl is applied. The results are stored in NULL. completed OK.
<14>2018-05-22T00:08:35.146508+03:00 MonTierLocalId-2 [0x80c00002][multistep][info] mpgw(webapi): trans(95140822)[request][172.17.100.130] gtid(29a2d46f5b03355305abbbd6): rule (webapi-policy-invoke-gscript): #1 on-error continue completed OK.
<14>2018-05-22T00:08:35.146863+03:00 MonTierLocalId-2 [0x8580009e][gatewayscript][info] mpgw(webapi): trans(95140822)[request][172.17.100.130] gtid(29a2d46f5b03355305abbbd6): Running the script file 'local:///isp/policy/apim.policy.wrap.js'
<15>2018-05-22T00:08:35.151907+03:00 MonTierLocalId-2 [0x80e003ca][network][debug] xmlmgr(webapi): trans(95140822)[172.17.100.130] gtid(29a2d46f5b03355305abbbd6): Attempting TCP connect to 172.17.100.200
<14>2018-05-22T00:08:35.319935+03:00 MonTierLocalId-2 [0x80e0015b][network][info] trans(95140822)[172.17.100.130] gtid(29a2d46f5b03355305abbbd6): HTTP response code 200 for 'http://172.17.100.200:2055/tutit/DataPowerPing/DataPowerPing.asmx'
<14>2018-05-22T00:08:35.322461+03:00 MonTierLocalId-2 [0x80c00002][multistep][info] mpgw(webapi): trans(95140822)[request][172.17.100.130] gtid(29a2d46f5b03355305abbbd6): rule (webapi-policy-invoke-gscript): #2 gatewayscript: Transforming the content of NULL. The transformation local:///isp/policy/apim.policy.wrap.js is applied. The results are stored in policy-output-temp. completed OK.
<14>2018-05-22T00:08:35.322558+03:00 MonTierLocalId-2 [0x80c00002][multistep][info] mpgw(webapi): trans(95140822)[request][172.17.100.130] gtid(29a2d46f5b03355305abbbd6): rule (webapi-policy-invoke-gscript): #3 on-error abort completed OK.
<15>2018-05-22T00:08:35.323448+03:00 MonTierLocalId-2 [0x80000001][api-mon][debug] mpgw(webapi): trans(95140822)[request][172.17.100.130] gtid(29a2d46f5b03355305abbbd6): #^R6^A1:montierorg^A2:montiercatalog^A3:new-space^A4:default^A5:1.0.0^A6:montierproduct:1.0.0:default^A7:datapowerping-1^A8:1.0.0^A9:https://172.17.100.200:443/montierorg/montiercatalog/DataPowerPing1^AA:POST^AB:datapowerping-1:1.0.0:post:/Ping^AC:9612cb56-da1a-4757-a301-018ac4359306^AE:montierproduct^AF:^AG:790^AN:596d0eb7e4b0f0bab66e457b^AO:172.17.100.130^AP:invoke^AQ:Ping: invoke^AR:^AS:Ping: invoke^AT:3^AU:request^AV:local:///isp/policy/apim.policy.restinvoke.js^AW:^AX:^B6:216^B7:montierproduct^B8:monconsumerorg^BB:178^BC:montierapp#^
<15>2018-05-22T00:08:35.324053+03:00 MonTierLocalId-2 [0x80000001][api-mon][debug] mpgw(webapi): trans(95140822)[request][172.17.100.130] gtid(29a2d46f5b03355305abbbd6): #^R5^A1:montierorg^A2:montiercatalog^A3:new-space^A4:default^A5:1.0.0^A6:montierproduct:1.0.0:default^A7:datapowerping-1^A8:1.0.0^A9:https://172.17.100.200:443/montierorg/montiercatalog/DataPowerPing1^AA:POST^AB:datapowerping-1:1.0.0:post:/Ping^AC:9612cb56-da1a-4757-a301-018ac4359306^AE:montierproduct^AF:^AG:790^AN:596d0eb7e4b0f0bab66e457b^AO:172.17.100.130^AP:map^AQ:Ping: output^AR:^AS:Ping: output^AT:4^AU:request^AV:local:///isp/policy/apim.map.js^AW:^AX:^B6:216^B7:montierproduct^B8:monconsumerorg^BC:montierapp#^
<14>2018-05-22T00:08:35.324161+03:00 MonTierLocalId-2 [0x80c00002][multistep][info] mpgw(webapi): trans(95140822)[request][172.17.100.130] gtid(29a2d46f5b03355305abbbd6): rule (webapi-policy-invoke-gscript): #4 xform: Transforming the content of NULL. The transformation local:///isp/unified-traverse-check-error.xsl is applied. The results are stored in NULL. completed OK.
<14>2018-05-22T00:08:35.324312+03:00 MonTierLocalId-2 [0x80c00002][multistep][info] mpgw(webapi): trans(95140822)[request][172.17.100.130] gtid(29a2d46f5b03355305abbbd6): rule (webapi-policy-invoke-gscript): #1 on-error continue completed OK.
<14>2018-05-22T00:08:35.324680+03:00 MonTierLocalId-2 [0x8580009e][gatewayscript][info] mpgw(webapi): trans(95140822)[request][172.17.100.130] gtid(29a2d46f5b03355305abbbd6): Running the script file 'local:///isp/policy/apim.policy.wrap.js'
<14>2018-05-22T00:08:35.334891+03:00 MonTierLocalId-2 [0x80c00002][multistep][info] mpgw(webapi): trans(95140822)[request][172.17.100.130] gtid(29a2d46f5b03355305abbbd6): rule (webapi-policy-invoke-gscript): #2 gatewayscript: Transforming the content of NULL. The transformation local:///isp/policy/apim.policy.wrap.js is applied. The results are stored in policy-output-temp. completed OK.
<15>2018-05-22T00:08:35.335769+03:00 MonTierLocalId-2 [0x80000001][api-mon][debug] mpgw(webapi): trans(95140822)[request][172.17.100.130] gtid(29a2d46f5b03355305abbbd6): #^R6^A1:montierorg^A2:montiercatalog^A3:new-space^A4:default^A5:1.0.0^A6:montierproduct:1.0.0:default^A7:datapowerping-1^A8:1.0.0^A9:https://172.17.100.200:443/montierorg/montiercatalog/DataPowerPing1^AA:POST^AB:datapowerping-1:1.0.0:post:/Ping^AC:9612cb56-da1a-4757-a301-018ac4359306^AE:montierproduct^AF:^AG:790^AN:596d0eb7e4b0f0bab66e457b^AO:172.17.100.130^AP:map^AQ:Ping: output^AR:^AS:Ping: output^AT:4^AU:request^AV:local:///isp/policy/apim.map.js^AW:^AX:^B6:228^B7:montierproduct^B8:monconsumerorg^BB:12^BC:montierapp#^
<14>2018-05-22T00:08:35.335017+03:00 MonTierLocalId-2 [0x80c00002][multistep][info] mpgw(webapi): trans(95140822)[request][172.17.100.130] gtid(29a2d46f5b03355305abbbd6): rule (webapi-policy-invoke-gscript): #3 on-error abort completed OK.
<14>2018-05-22T00:08:35.335930+03:00 MonTierLocalId-2 [0x80c00002][multistep][info] mpgw(webapi): trans(95140822)[request][172.17.100.130] gtid(29a2d46f5b03355305abbbd6): rule (webapi-policy-invoke-gscript): #4 xform: Transforming the content of NULL. The transformation local:///isp/unified-traverse-check-error.xsl is applied. The results are stored in NULL. completed OK.
<14>2018-05-22T00:08:35.336512+03:00 MonTierLocalId-2 [0x80c00002][multistep][info] mpgw(webapi): trans(95140822)[request][172.17.100.130] gtid(29a2d46f5b03355305abbbd6): rule (webapi-policy-end): #1 xform: Transforming the content of NULL. The transformation local:///isp/policy/apim.policy.end.xsl is applied. The results are stored in NULL. completed OK.
<14>2018-05-22T00:08:35.336628+03:00 MonTierLocalId-2 [0x80c00002][multistep][info] mpgw(webapi): trans(95140822)[request][172.17.100.130] gtid(29a2d46f5b03355305abbbd6): rule (webapi-policy-invoke-gscript): #5 Calling rule var://context/policy/fw/call-rule with input NULL and output NULL. completed OK.
<14>2018-05-22T00:08:35.336731+03:00 MonTierLocalId-2 [0x80c00002][multistep][info] mpgw(webapi): trans(95140822)[request][172.17.100.130] gtid(29a2d46f5b03355305abbbd6): rule (webapi-policy-invoke-gscript): #5 Calling rule var://context/policy/fw/call-rule with input NULL and output NULL. completed OK.
<14>2018-05-22T00:08:35.336819+03:00 MonTierLocalId-2 [0x80c00002][multistep][info] mpgw(webapi): trans(95140822)[request][172.17.100.130] gtid(29a2d46f5b03355305abbbd6): rule (webapi-policy-invoke-gscript): #5 Calling rule var://context/policy/fw/call-rule with input NULL and output NULL. completed OK.
<14>2018-05-22T00:08:35.336906+03:00 MonTierLocalId-2 [0x80c00002][multistep][info] mpgw(webapi): trans(95140822)[request][172.17.100.130] gtid(29a2d46f5b03355305abbbd6): rule (webapi-policy-step-fw-invoke-xform): #5 Calling rule var://context/policy/fw/call-rule with input NULL and output NULL. completed OK.
<15>2018-05-22T00:08:35.337001+03:00 MonTierLocalId-2 [0x80e0068d][memory-report][debug] mpgw(webapi): trans(95140822)[request][172.17.100.130] gtid(29a2d46f5b03355305abbbd6): Processing [Rule (webapi-mpgw-request-fw), Action ('webapi-policy-call-action', call(var://context/policy/fw/call-rule)), Input(NULL), Output(NULL)] finished: memory used 4337008
<14>2018-05-22T00:08:35.337089+03:00 MonTierLocalId-2 [0x80c00002][multistep][info] mpgw(webapi): trans(95140822)[request][172.17.100.130] gtid(29a2d46f5b03355305abbbd6): rule (webapi-mpgw-request-fw): #9 Calling rule var://context/policy/fw/call-rule with input NULL and output NULL. completed OK.
<15>2018-05-22T00:08:35.337653+03:00 MonTierLocalId-2 [0x80e0068d][memory-report][debug] mpgw(webapi): trans(95140822)[request][172.17.100.130] gtid(29a2d46f5b03355305abbbd6): Processing [Rule (webapi-mpgw-request-fw), Action ('webapi-unified-request-finalize-policy', xform(local:///isp/unified-request-finalize-policy.xsl)), Input(NULL), Output(NULL)] finished: memory used 4430664
<14>2018-05-22T00:08:35.337746+03:00 MonTierLocalId-2 [0x80c00002][multistep][info] mpgw(webapi): trans(95140822)[request][172.17.100.130] gtid(29a2d46f5b03355305abbbd6): rule (webapi-mpgw-request-fw): #10 xform: Transforming the content of NULL. The transformation local:///isp/unified-request-finalize-policy.xsl is applied. The results are stored in NULL. completed OK.
<15>2018-05-22T00:08:35.338083+03:00 MonTierLocalId-2 [0x80e0068d][memory-report][debug] mpgw(webapi): trans(95140822)[request][172.17.100.130] gtid(29a2d46f5b03355305abbbd6): Processing [Rule (webapi-mpgw-request-fw), Action ('webapi-post-results-policy-output', results()), Input(policy-output), Output(NULL)] finished: memory used 4527696
<14>2018-05-22T00:08:35.338182+03:00 MonTierLocalId-2 [0x80c00002][multistep][info] mpgw(webapi): trans(95140822)[request][172.17.100.130] gtid(29a2d46f5b03355305abbbd6): rule (webapi-mpgw-request-fw): #11 results: Generated from policy-output. completed OK.
<15>2018-05-22T00:08:35.338252+03:00 MonTierLocalId-2 [0x80e0068d][memory-report][debug] mpgw(webapi): trans(95140822)[request][172.17.100.130] gtid(29a2d46f5b03355305abbbd6): Processing [Rule (webapi-mpgw-request-fw), Action ('webapi-dpext-cond2', conditional()), Input(webapi-dpext), Output(NULL)] finished: memory used 4528896
<14>2018-05-22T00:08:35.338317+03:00 MonTierLocalId-2 [0x80c00002][multistep][info] mpgw(webapi): trans(95140822)[request][172.17.100.130] gtid(29a2d46f5b03355305abbbd6): rule (webapi-mpgw-request-fw): #12 Conditional on webapi-dpext completed OK.
<15>2018-05-22T00:08:35.338572+03:00 MonTierLocalId-2 [0x80e003ca][network][debug] xmlmgr(webapi): trans(95140822)[172.17.100.130] gtid(29a2d46f5b03355305abbbd6): Attempting TCP connect to 127.54.53.243
<15>2018-05-22T00:08:35.339191+03:00 MonTierLocalId-2 [0x80e0068e][memory-report][debug] mpgw(webapi): trans(95140822)[172.17.100.130] gtid(29a2d46f5b03355305abbbd6): Request Finished: memory used 3928464
<14>2018-05-22T00:08:35.339275+03:00 MonTierLocalId-2 [0x80e0012d][mpgw][info] mpgw(webapi): trans(95140822)[172.17.100.130] gtid(29a2d46f5b03355305abbbd6): Using Backside Server: http://127.54.53.243:2444/echo/
<14>2018-05-22T00:08:35.340829+03:00 MonTierLocalId-2 [0x80e0015b][mpgw][info] mpgw(webapi): trans(95140822)[172.17.100.130] gtid(29a2d46f5b03355305abbbd6): HTTP response code 200 for 'http://127.54.53.243:2444/echo/'
<14>2018-05-22T00:08:35.341125+03:00 MonTierLocalId-2 [0x80e000b4][mpgw][info] mpgw(webapi): trans(95140822)[response][172.17.100.130] gtid(29a2d46f5b03355305abbbd6): rule (webapi-mpgw-response-fw): selected via match 'all' from processing policy 'webapi'
<15>2018-05-22T00:08:35.341228+03:00 MonTierLocalId-2 [0x80e0068f][memory-report][debug] mpgw(webapi): trans(95140822)[172.17.100.130] gtid(29a2d46f5b03355305abbbd6): Response Started: memory used 3959688
<15>2018-05-22T00:08:35.341476+03:00 MonTierLocalId-2 [0x80e0068d][memory-report][debug] mpgw(webapi): trans(95140822)[response][172.17.100.130] gtid(29a2d46f5b03355305abbbd6): Processing [Rule (webapi-mpgw-response-fw), Action ('webapi-init-context', setvar(var://context/_apimgmt/no-op)), Input(INPUT), Output(NULL)] finished: memory used 4040720
<14>2018-05-22T00:08:35.341560+03:00 MonTierLocalId-2 [0x80c00002][multistep][info] mpgw(webapi): trans(95140822)[response][172.17.100.130] gtid(29a2d46f5b03355305abbbd6): rule (webapi-mpgw-response-fw): #1 setvar: Setting var://context/_apimgmt/no-op in context INPUT to be 1. completed OK.
<15>2018-05-22T00:08:35.342784+03:00 MonTierLocalId-2 [0x80e0068d][memory-report][debug] mpgw(webapi): trans(95140822)[response][172.17.100.130] gtid(29a2d46f5b03355305abbbd6): Processing [Rule (webapi-mpgw-response-fw), Action ('webapi-unified-response-check-response-code-and-actions', xform(local:///isp/unified-response-check-response-code-and-actions.xsl)), Input(NULL), Output(NULL)] finished: memory used 4272560
<14>2018-05-22T00:08:35.342927+03:00 MonTierLocalId-2 [0x80c00002][multistep][info] mpgw(webapi): trans(95140822)[response][172.17.100.130] gtid(29a2d46f5b03355305abbbd6): rule (webapi-mpgw-response-fw): #2 xform: Transforming the content of NULL. The transformation local:///isp/unified-response-check-response-code-and-actions.xsl is applied. The results are stored in NULL. completed OK.
<15>2018-05-22T00:08:35.343011+03:00 MonTierLocalId-2 [0x80e0068d][memory-report][debug] mpgw(webapi): trans(95140822)[response][172.17.100.130] gtid(29a2d46f5b03355305abbbd6): Processing [Rule (webapi-mpgw-response-fw), Action ('webapi-on-error-continue', on-error()), Input(NULL), Output(NULL)] finished: memory used 4274128
<14>2018-05-22T00:08:35.343083+03:00 MonTierLocalId-2 [0x80c00002][multistep][info] mpgw(webapi): trans(95140822)[response][172.17.100.130] gtid(29a2d46f5b03355305abbbd6): rule (webapi-mpgw-response-fw): #3 on-error continue completed OK.
<15>2018-05-22T00:08:35.343585+03:00 MonTierLocalId-2 [0x80e003ab][xmlparse][debug] mpgw(webapi): trans(95140822)[response][172.17.100.130] gtid(29a2d46f5b03355305abbbd6): Finished parsing: https://172.17.100.200:443/montierorg/montiercatalog/DataPowerPing1
<15>2018-05-22T00:08:35.343732+03:00 MonTierLocalId-2 [0x80e0068d][memory-report][debug] mpgw(webapi): trans(95140822)[response][172.17.100.130] gtid(29a2d46f5b03355305abbbd6): Processing [Rule (webapi-mpgw-response-fw), Action ('webapi-xform-xml-identity', xform(store:///identity.xsl)), Input(INPUT), Output(NULL)] finished: memory used 4371664
<14>2018-05-22T00:08:35.343812+03:00 MonTierLocalId-2 [0x80c00002][multistep][info] mpgw(webapi): trans(95140822)[response][172.17.100.130] gtid(29a2d46f5b03355305abbbd6): rule (webapi-mpgw-response-fw): #4 xform: Transforming the content of INPUT. The transformation store:///identity.xsl is applied. The results are stored in NULL. completed OK.
<15>2018-05-22T00:08:35.343878+03:00 MonTierLocalId-2 [0x80e0068d][memory-report][debug] mpgw(webapi): trans(95140822)[response][172.17.100.130] gtid(29a2d46f5b03355305abbbd6): Processing [Rule (webapi-mpgw-response-fw), Action ('webapi-payload-cond', conditional()), Input(CONTEXT_WEBAPI_TR), Output(NULL)] finished: memory used 4372520
<14>2018-05-22T00:08:35.343941+03:00 MonTierLocalId-2 [0x80c00002][multistep][info] mpgw(webapi): trans(95140822)[response][172.17.100.130] gtid(29a2d46f5b03355305abbbd6): rule (webapi-mpgw-response-fw): #5 Conditional on CONTEXT_WEBAPI_TR completed OK.
<15>2018-05-22T00:08:35.344003+03:00 MonTierLocalId-2 [0x80e0068d][memory-report][debug] mpgw(webapi): trans(95140822)[response][172.17.100.130] gtid(29a2d46f5b03355305abbbd6): Processing [Rule (webapi-mpgw-response-fw), Action ('webapi-on-error-abort', on-error()), Input(NULL), Output(NULL)] finished: memory used 4372704
<14>2018-05-22T00:08:35.344068+03:00 MonTierLocalId-2 [0x80c00002][multistep][info] mpgw(webapi): trans(95140822)[response][172.17.100.130] gtid(29a2d46f5b03355305abbbd6): rule (webapi-mpgw-response-fw): #6 on-error abort completed OK.
<15>2018-05-22T00:08:35.345341+03:00 MonTierLocalId-2 [0x80e003ca][network][debug] xmlmgr(webapi): trans(95140822)[172.17.100.130] gtid(29a2d46f5b03355305abbbd6): Attempting TCP connect to 127.54.53.243
<14>2018-05-22T00:08:35.349568+03:00 MonTierLocalId-2 [0x80e0015b][network][info] trans(95140822)[172.17.100.130] gtid(29a2d46f5b03355305abbbd6): HTTP response code 200 for 'http://127.54.53.243:2444/cached/input-map-digest/v1/catalogs/596d0f67e4b0f0bab66e459a/apis/5ae997e9e4b03d99e0d663da'
<15>2018-05-22T00:08:35.349778+03:00 MonTierLocalId-2 [0x80e0039e][network][debug] mpgw(webapi): trans(95140822)[response][172.17.100.130] gtid(29a2d46f5b03355305abbbd6): url-open: response code 200
<15>2018-05-22T00:08:35.350512+03:00 MonTierLocalId-2 [0x80e003ab][xmlparse][debug] mpgw(webapi): trans(95140822)[response][172.17.100.130] gtid(29a2d46f5b03355305abbbd6): Finished parsing: http://127.54.53.243:2444/cached/input-map-digest/v1/catalogs/596d0f67e4b0f0bab66e459a/apis/5ae997e9e4b03d99e0d663da
<15>2018-05-22T00:08:35.350989+03:00 MonTierLocalId-2 [0x80e003ca][network][debug] xmlmgr(webapi): trans(95140822)[172.17.100.130] gtid(29a2d46f5b03355305abbbd6): Attempting TCP connect to 127.54.53.243
<14>2018-05-22T00:08:35.354444+03:00 MonTierLocalId-2 [0x80e0015b][network][info] trans(95140822)[172.17.100.130] gtid(29a2d46f5b03355305abbbd6): HTTP response code 200 for 'http://127.54.53.243:2444/cached/policies/v1/catalogs/596d0f67e4b0f0bab66e459a/apis/5ae997e9e4b03d99e0d663da:POST:/Ping:montierproduct:1.0.0:default'
<15>2018-05-22T00:08:35.354715+03:00 MonTierLocalId-2 [0x80e0039e][network][debug] mpgw(webapi): trans(95140822)[response][172.17.100.130] gtid(29a2d46f5b03355305abbbd6): url-open: response code 200
<15>2018-05-22T00:08:35.355090+03:00 MonTierLocalId-2 [0x80e003ab][xmlparse][debug] mpgw(webapi): trans(95140822)[response][172.17.100.130] gtid(29a2d46f5b03355305abbbd6): Finished parsing: http://127.54.53.243:2444/cached/policies/v1/catalogs/596d0f67e4b0f0bab66e459a/apis/5ae997e9e4b03d99e0d663da:POST:/Ping:montierproduct:1.0.0:default
<15>2018-05-22T00:08:35.355325+03:00 MonTierLocalId-2 [0x80e0068d][memory-report][debug] mpgw(webapi): trans(95140822)[response][172.17.100.130] gtid(29a2d46f5b03355305abbbd6): Processing [Rule (webapi-mpgw-response-fw-do-actions), Action ('webapi-policy-init-xform-action', xform(local:///isp/policy/apim.policy.init.xsl)), Input(NULL), Output(NULL)] finished: memory used 4670120
<14>2018-05-22T00:08:35.355428+03:00 MonTierLocalId-2 [0x80c00002][multistep][info] mpgw(webapi): trans(95140822)[response][172.17.100.130] gtid(29a2d46f5b03355305abbbd6): rule (webapi-mpgw-response-fw-do-actions): #1 xform: Transforming the content of NULL. The transformation local:///isp/policy/apim.policy.init.xsl is applied. The results are stored in NULL. completed OK.
<15>2018-05-22T00:08:35.355922+03:00 MonTierLocalId-2 [0x80e0068d][memory-report][debug] mpgw(webapi): trans(95140822)[response][172.17.100.130] gtid(29a2d46f5b03355305abbbd6): Processing [Rule (webapi-mpgw-response-fw-do-actions), Action ('webapi-policy-traverse-xform-action', xform(local:///isp/policy/apim.policy.traverse.xsl)), Input(NULL), Output(NULL)] finished: memory used 4740032
<14>2018-05-22T00:08:35.356022+03:00 MonTierLocalId-2 [0x80c00002][multistep][info] mpgw(webapi): trans(95140822)[response][172.17.100.130] gtid(29a2d46f5b03355305abbbd6): rule (webapi-mpgw-response-fw-do-actions): #2 xform: Transforming the content of NULL. The transformation local:///isp/policy/apim.policy.traverse.xsl is applied. The results are stored in NULL. completed OK.
<14>2018-05-22T00:08:35.356415+03:00 MonTierLocalId-2 [0x80c00002][multistep][info] mpgw(webapi): trans(95140822)[response][172.17.100.130] gtid(29a2d46f5b03355305abbbd6): rule (webapi-policy-end): #1 xform: Transforming the content of NULL. The transformation local:///isp/policy/apim.policy.end.xsl is applied. The results are stored in NULL. completed OK.
<15>2018-05-22T00:08:35.356518+03:00 MonTierLocalId-2 [0x80e0068d][memory-report][debug] mpgw(webapi): trans(95140822)[response][172.17.100.130] gtid(29a2d46f5b03355305abbbd6): Processing [Rule (webapi-mpgw-response-fw-do-actions), Action ('webapi-policy-call-action', call(var://context/policy/fw/call-rule)), Input(NULL), Output(NULL)] finished: memory used 4837552
<14>2018-05-22T00:08:35.356596+03:00 MonTierLocalId-2 [0x80c00002][multistep][info] mpgw(webapi): trans(95140822)[response][172.17.100.130] gtid(29a2d46f5b03355305abbbd6): rule (webapi-mpgw-response-fw-do-actions): #3 Calling rule var://context/policy/fw/call-rule with input NULL and output NULL. completed OK.
<15>2018-05-22T00:08:35.356714+03:00 MonTierLocalId-2 [0x80e0068d][memory-report][debug] mpgw(webapi): trans(95140822)[response][172.17.100.130] gtid(29a2d46f5b03355305abbbd6): Processing [Rule (webapi-mpgw-response-fw), Action ('webapi-mpgw-response-do-actions', call(webapi-mpgw-response-fw-do-actions)), Input(INPUT), Output(OUTPUT)] finished: memory used 4580744
<14>2018-05-22T00:08:35.356793+03:00 MonTierLocalId-2 [0x80c00002][multistep][info] mpgw(webapi): trans(95140822)[response][172.17.100.130] gtid(29a2d46f5b03355305abbbd6): rule (webapi-mpgw-response-fw): #7 Calling rule webapi-mpgw-response-fw-do-actions with input INPUT and output OUTPUT. completed OK.
<15>2018-05-22T00:08:35.356858+03:00 MonTierLocalId-2 [0x80e0068d][memory-report][debug] mpgw(webapi): trans(95140822)[response][172.17.100.130] gtid(29a2d46f5b03355305abbbd6): Processing [Rule (webapi-mpgw-response-fw), Action ('webapi-policy-maybe-response-actions', conditional()), Input(response-actions), Output(NULL)] finished: memory used 4581088
<14>2018-05-22T00:08:35.356922+03:00 MonTierLocalId-2 [0x80c00002][multistep][info] mpgw(webapi): trans(95140822)[response][172.17.100.130] gtid(29a2d46f5b03355305abbbd6): rule (webapi-mpgw-response-fw): #8 Conditional on response-actions completed OK.
<15>2018-05-22T00:08:35.358133+03:00 MonTierLocalId-2 [0x80000001][api-mon][debug] mpgw(webapi): trans(95140822)[response][172.17.100.130] gtid(29a2d46f5b03355305abbbd6): #^R4^A1:montierorg^A2:montiercatalog^A3:new-space^A4:default^A5:1.0.0^A6:montierproduct:1.0.0:default^A7:datapowerping-1^A8:1.0.0^A9:https://172.17.100.200:443/montierorg/montiercatalog/DataPowerPing1^AA:POST^AB:datapowerping-1:1.0.0:post:/Ping^AC:9612cb56-da1a-4757-a301-018ac4359306^AE:montierproduct^AF:^AG:790^AH:0^AI:200^AJ:87^AK:^AL:^AM:200^AN:596d0eb7e4b0f0bab66e457b^AO:172.17.100.130^AW:^AX:^AY:^AZ:^B2:231^B3:14^B4:5^B5:250^B7:montierproduct^B8:monconsumerorg^B9:1^BA:1^BC:montierapp#^
<14>2018-05-22T00:08:35.358346+03:00 MonTierLocalId-2 [0x80000001][latency][info] mpgw(webapi): trans(95140822)[response][172.17.100.130] gtid(29a2d46f5b03355305abbbd6): API Gateway Latency: 0 21 23 38 216 251 [https://172.17.100.200:443/montierorg/montiercatalog/DataPowerPing1]
<15>2018-05-22T00:08:35.358493+03:00 MonTierLocalId-2 [0x80e0068d][memory-report][debug] mpgw(webapi): trans(95140822)[response][172.17.100.130] gtid(29a2d46f5b03355305abbbd6): Processing [Rule (webapi-mpgw-response-fw), Action ('webapi-unified-response-analytics-and-finalize', xform(local:///isp/unified-response-analytics-and-finalize.xsl)), Input(NULL), Output(NULL)] finished: memory used 4847488
<14>2018-05-22T00:08:35.358579+03:00 MonTierLocalId-2 [0x80c00002][multistep][info] mpgw(webapi): trans(95140822)[response][172.17.100.130] gtid(29a2d46f5b03355305abbbd6): rule (webapi-mpgw-response-fw): #9 xform: Transforming the content of NULL. The transformation local:///isp/unified-response-analytics-and-finalize.xsl is applied. The results are stored in NULL. completed OK.
<15>2018-05-22T00:08:35.359040+03:00 MonTierLocalId-2 [0x80e0068d][memory-report][debug] mpgw(webapi): trans(95140822)[response][172.17.100.130] gtid(29a2d46f5b03355305abbbd6): Processing [Rule (webapi-mpgw-response-fw), Action ('webapi-xform-output-xml', xform(local:///isp/identity.xsl)), Input(INPUT), Output(OUTPUT)] finished: memory used 4974328
<14>2018-05-22T00:08:35.359153+03:00 MonTierLocalId-2 [0x80c00002][multistep][info] mpgw(webapi): trans(95140822)[response][172.17.100.130] gtid(29a2d46f5b03355305abbbd6): rule (webapi-mpgw-response-fw): #10 xform: Transforming the content of INPUT. The transformation local:///isp/identity.xsl is applied. The results are stored in OUTPUT. completed OK.
<15>2018-05-22T00:08:35.359244+03:00 MonTierLocalId-2 [0x80e0068d][memory-report][debug] mpgw(webapi): trans(95140822)[response][172.17.100.130] gtid(29a2d46f5b03355305abbbd6): Processing [Rule (webapi-mpgw-response-fw), Action ('webapi-dpext-cond3', conditional()), Input(webapi-dpext), Output(NULL)] finished: memory used 4975232
<14>2018-05-22T00:08:35.359321+03:00 MonTierLocalId-2 [0x80c00002][multistep][info] mpgw(webapi): trans(95140822)[response][172.17.100.130] gtid(29a2d46f5b03355305abbbd6): rule (webapi-mpgw-response-fw): #11 Conditional on webapi-dpext completed OK.
<14>2018-05-22T00:08:35.359673+03:00 MonTierLocalId-2 [0x80e00073][latency][info] mpgw(webapi): trans(95140822)[172.17.100.130] gtid(29a2d46f5b03355305abbbd6): Latency: 0 231 0 231 231 230 0 233 252 233 252 252 251 236 231 231 [https://172.17.100.200:443/montierorg/montiercatalog/DataPowerPing1]
<15>2018-05-22T00:08:35.359790+03:00 MonTierLocalId-2 [0x80e007ad][mpgw][debug] mpgw(webapi): trans(95140822)[172.17.100.130] gtid(29a2d46f5b03355305abbbd6): ExtLatency: TS=0,HR=0,BR=0,PS=0,ASV=0,AXF=1,ACO=2,ACO=2,AXF=6,ACV=7,ACO=7,AXF=21,ACL=229,AXF=230,ARE=230,ACO=231,PC=231,CS=231,HS=231,BS=231, == HR=233,BR=233,PS=234,ASV=234,AXF=235,AOE=235,AXF=236,ACO=236,AOE=236,PS=237,AXF=248,AXF=248,ACL=249,PC=249,ACL=249,ACO=249,AXF=251,AXF=251,ACO=252,PC=252,HS=252,BS=252,TC=252, [https://172.17.100.200:443/montierorg/montiercatalog/DataPowerPing1]
<14>2018-05-22T00:08:35.359894+03:00 MonTierLocalId-2 [0x80e007ad][extlatency][info] mpgw(webapi): trans(95140822)[172.17.100.130] gtid(29a2d46f5b03355305abbbd6): ExtLatency: TS=0,HR=0,BR=0,PS=0,ASV=0,AXF=1,ACO=2,ACO=2,AXF=6,ACV=7,ACO=7,AXF=21,ACL=229,AXF=230,ARE=230,ACO=231,PC=231,CS=231,HS=231,BS=231, == HR=233,BR=233,PS=234,ASV=234,AXF=235,AOE=235,AXF=236,ACO=236,AOE=236,PS=237,AXF=248,AXF=248,ACL=249,PC=249,ACL=249,ACO=249,AXF=251,AXF=251,ACO=252,PC=252,HS=252,BS=252,TC=252, [https://172.17.100.200:443/montierorg/montiercatalog/DataPowerPing1]
<15>2018-05-22T00:08:35.360140+03:00 MonTierLocalId-2 [0x80e00690][memory-report][debug] mpgw(webapi): trans(95140822)[172.17.100.130] gtid(29a2d46f5b03355305abbbd6): Response Finished: memory used 4448232
