<14>2018-05-21T23:53:07.016088+03:00 MonTierLocalId-2 [0x80e0013a][mpgw][info] source-https(webapi-https): trans(95117382)[172.17.100.130]: Received HTTP/1.1 GET for /montierorg/montiercatalog/accounts/balance?customer_id=7777778 from 172.17.100.130
<15>2018-05-21T23:53:07.016507+03:00 MonTierLocalId-2 [0x80e0013f][mpgw][debug] source-https(webapi-https): trans(95117382)[172.17.100.130]: Found content length 0 HTTP input
<14>2018-05-21T23:53:07.016937+03:00 MonTierLocalId-2 [0x80e000b4][mpgw][info] stylepolicy(webapi): trans(95117382)[request][172.17.100.130]: rule (webapi-mpgw-request-fw): selected via match 'all' from processing policy 'webapi'
<14>2018-05-21T23:53:07.017080+03:00 MonTierLocalId-2 [0x80e0083d][mpgw][info] mpgw(webapi): trans(95117382)[request][172.17.100.130]: Started the processing of the transaction.
<15>2018-05-21T23:53:07.017217+03:00 MonTierLocalId-2 [0x80e0068c][memory-report][debug] mpgw(webapi): trans(95117382)[172.17.100.130] gtid(29a2d46f5b0331b305ab6046): Request Started: memory used 179080
<15>2018-05-21T23:53:07.017442+03:00 MonTierLocalId-2 [0x80e0068d][memory-report][debug] mpgw(webapi): trans(95117382)[request][172.17.100.130] gtid(29a2d46f5b0331b305ab6046): Processing [Rule (webapi-mpgw-request-fw), Action ('webapi-init-context', setvar(var://context/_apimgmt/no-op)), Input(INPUT), Output(NULL)] finished: memory used 231520
<14>2018-05-21T23:53:07.017562+03:00 MonTierLocalId-2 [0x80c00002][multistep][info] mpgw(webapi): trans(95117382)[request][172.17.100.130] gtid(29a2d46f5b0331b305ab6046): rule (webapi-mpgw-request-fw): #1 setvar: Setting var://context/_apimgmt/no-op in context INPUT to be 1. completed OK.
<15>2018-05-21T23:53:07.018973+03:00 MonTierLocalId-2 [0x80e0068d][memory-report][debug] mpgw(webapi): trans(95117382)[request][172.17.100.130] gtid(29a2d46f5b0331b305ab6046): Processing [Rule (webapi-mpgw-request-fw), Action ('webapi-unified-request-init', xform(local:///isp/unified-request-init.xsl)), Input(NULL), Output(CONTEXT_WEBAPI_TR)] finished: memory used 440856
<14>2018-05-21T23:53:07.019105+03:00 MonTierLocalId-2 [0x80c00002][multistep][info] mpgw(webapi): trans(95117382)[request][172.17.100.130] gtid(29a2d46f5b0331b305ab6046): rule (webapi-mpgw-request-fw): #2 xform: Transforming the content of NULL. The transformation local:///isp/unified-request-init.xsl is applied. The results are stored in CONTEXT_WEBAPI_TR. completed OK.
<15>2018-05-21T23:53:07.019514+03:00 MonTierLocalId-2 [0x80e0068d][memory-report][debug] mpgw(webapi): trans(95117382)[request][172.17.100.130] gtid(29a2d46f5b0331b305ab6046): Processing [Rule (webapi-mpgw-request-fw), Action ('webapi-dpext-pre-request-cond', conditional()), Input(webapi-dpext), Output(NULL)] finished: memory used 455960
<14>2018-05-21T23:53:07.019612+03:00 MonTierLocalId-2 [0x80c00002][multistep][info] mpgw(webapi): trans(95117382)[request][172.17.100.130] gtid(29a2d46f5b0331b305ab6046): rule (webapi-mpgw-request-fw): #3 Conditional on webapi-dpext completed OK.
<15>2018-05-21T23:53:07.019906+03:00 MonTierLocalId-2 [0x80e0068d][memory-report][debug] mpgw(webapi): trans(95117382)[request][172.17.100.130] gtid(29a2d46f5b0331b305ab6046): Processing [Rule (webapi-mpgw-request-fw), Action ('webapi-form-parse-input', conditional()), Input(CONTEXT_WEBAPI_TR), Output(NULL)] finished: memory used 470896
<14>2018-05-21T23:53:07.019995+03:00 MonTierLocalId-2 [0x80c00002][multistep][info] mpgw(webapi): trans(95117382)[request][172.17.100.130] gtid(29a2d46f5b0331b305ab6046): rule (webapi-mpgw-request-fw): #4 Conditional on CONTEXT_WEBAPI_TR completed OK.
<14>2018-05-21T23:53:07.021458+03:00 MonTierLocalId-2 [0x80e0015b][network][info] trans(95117382)[172.17.100.130] gtid(29a2d46f5b0331b305ab6046): HTTP response code 200 for 'http://127.54.53.243:2444/services/v1/catalogs/596d0f67e4b0f0bab66e459a'
<15>2018-05-21T23:53:07.021594+03:00 MonTierLocalId-2 [0x80e0039e][network][debug] mpgw(webapi): trans(95117382)[request][172.17.100.130] gtid(29a2d46f5b0331b305ab6046): url-open: response code 200
<15>2018-05-21T23:53:07.024143+03:00 MonTierLocalId-2 [0x80e003ab][xmlparse][debug] mpgw(webapi): trans(95117382)[request][172.17.100.130] gtid(29a2d46f5b0331b305ab6046): Finished parsing: http://127.54.53.243:2444/services/v1/catalogs/596d0f67e4b0f0bab66e459a
<15>2018-05-21T23:53:07.026979+03:00 MonTierLocalId-2 [0x80000001][api-mon][debug] mpgw(webapi): trans(95117382)[request][172.17.100.130] gtid(29a2d46f5b0331b305ab6046): #^R3^A1:montierorg^A2:montiercatalog^A3:new-space^A4:default^A5:1.0.0^A6:montierproduct:1.0.0:default^A7:accounts^A8:1.0.1^A9:https://172.17.100.200:443/montierorg/montiercatalog/accounts/balance^AA:GET^AB:accounts:1.0.1:get:/balance^AC:9612cb56-da1a-4757-a301-018ac4359306^AE:montierproduct^AF:customer_id=7777778^AG:0^AN:596d0eb7e4b0f0bab66e457b^AO:172.17.100.130^AW:^AX:^B7:montierproduct^B8:monconsumerorg^B9:1^BC:montierapp#^
<14>2018-05-21T23:53:07.027382+03:00 MonTierLocalId-2 [0x80e00114][mpgw][info] mpgw(webapi): trans(95117382)[172.17.100.130] gtid(29a2d46f5b0331b305ab6046): Dynamic routing SSL profile set to client:api-sslcli-all
<14>2018-05-21T23:53:07.027523+03:00 MonTierLocalId-2 [0x80e00117][mpgw][info] mpgw(webapi): trans(95117382)[172.17.100.130] gtid(29a2d46f5b0331b305ab6046): Destination URL is now http://127.54.53.243:2444/echo/
<15>2018-05-21T23:53:07.027663+03:00 MonTierLocalId-2 [0x80e0068d][memory-report][debug] mpgw(webapi): trans(95117382)[request][172.17.100.130] gtid(29a2d46f5b0331b305ab6046): Processing [Rule (webapi-mpgw-request-fw), Action ('webapi-unified-request-select-and-set-tenant', xform(local:///isp/unified-request-select-and-set-tenant.xsl)), Input(NULL), Output(NULL)] finished: memory used 1606312
<14>2018-05-21T23:53:07.027808+03:00 MonTierLocalId-2 [0x80c00002][multistep][info] mpgw(webapi): trans(95117382)[request][172.17.100.130] gtid(29a2d46f5b0331b305ab6046): rule (webapi-mpgw-request-fw): #5 xform: Transforming the content of NULL. The transformation local:///isp/unified-request-select-and-set-tenant.xsl is applied. The results are stored in NULL. completed OK.
<15>2018-05-21T23:53:07.028108+03:00 MonTierLocalId-2 [0x80e0068d][memory-report][debug] mpgw(webapi): trans(95117382)[request][172.17.100.130] gtid(29a2d46f5b0331b305ab6046): Processing [Rule (webapi-mpgw-request-fw), Action ('webapi-request-response-conditional-1', conditional()), Input(CONTEXT_WEBAPI_TR), Output(NULL)] finished: memory used 1621840
<14>2018-05-21T23:53:07.028204+03:00 MonTierLocalId-2 [0x80c00002][multistep][info] mpgw(webapi): trans(95117382)[request][172.17.100.130] gtid(29a2d46f5b0331b305ab6046): rule (webapi-mpgw-request-fw): #6 Conditional on CONTEXT_WEBAPI_TR completed OK.
<15>2018-05-21T23:53:07.028859+03:00 MonTierLocalId-2 [0x80e003ca][network][debug] xmlmgr(webapi): trans(95117382)[172.17.100.130] gtid(29a2d46f5b0331b305ab6046): Attempting TCP connect to 127.54.53.243
<14>2018-05-21T23:53:07.033094+03:00 MonTierLocalId-2 [0x80e0015b][network][info] trans(95117382)[172.17.100.130] gtid(29a2d46f5b0331b305ab6046): HTTP response code 202 for 'http://127.54.53.243:2444/cached/input-map-digest/v1/catalogs/596d0f67e4b0f0bab66e459a/apis/5ae997e9e4b03d99e0d663db'
<15>2018-05-21T23:53:07.033288+03:00 MonTierLocalId-2 [0x80e0039e][network][debug] mpgw(webapi): trans(95117382)[request][172.17.100.130] gtid(29a2d46f5b0331b305ab6046): url-open: response code 202
<15>2018-05-21T23:53:07.033431+03:00 MonTierLocalId-2 [0x80e003ab][xmlparse][debug] mpgw(webapi): trans(95117382)[request][172.17.100.130] gtid(29a2d46f5b0331b305ab6046): Finished parsing: http://127.54.53.243:2444/cached/input-map-digest/v1/catalogs/596d0f67e4b0f0bab66e459a/apis/5ae997e9e4b03d99e0d663db
<15>2018-05-21T23:53:07.033806+03:00 MonTierLocalId-2 [0x80e003ca][network][debug] xmlmgr(webapi): trans(95117382)[172.17.100.130] gtid(29a2d46f5b0331b305ab6046): Attempting TCP connect to 127.54.53.243
<14>2018-05-21T23:53:07.037684+03:00 MonTierLocalId-2 [0x80e0015b][network][info] trans(95117382)[172.17.100.130] gtid(29a2d46f5b0331b305ab6046): HTTP response code 202 for 'http://127.54.53.243:2444/cached/policies/v1/catalogs/596d0f67e4b0f0bab66e459a/apis/5ae997e9e4b03d99e0d663db:GET:/balance:montierproduct:1.0.0:default'
<15>2018-05-21T23:53:07.037917+03:00 MonTierLocalId-2 [0x80e0039e][network][debug] mpgw(webapi): trans(95117382)[request][172.17.100.130] gtid(29a2d46f5b0331b305ab6046): url-open: response code 202
<15>2018-05-21T23:53:07.038081+03:00 MonTierLocalId-2 [0x80e003ab][xmlparse][debug] mpgw(webapi): trans(95117382)[request][172.17.100.130] gtid(29a2d46f5b0331b305ab6046): Finished parsing: http://127.54.53.243:2444/cached/policies/v1/catalogs/596d0f67e4b0f0bab66e459a/apis/5ae997e9e4b03d99e0d663db:GET:/balance:montierproduct:1.0.0:default
<15>2018-05-21T23:53:07.041437+03:00 MonTierLocalId-2 [0x80000001][api-mon][debug] mpgw(webapi): trans(95117382)[request][172.17.100.130] gtid(29a2d46f5b0331b305ab6046): #^R7^B1:8^AP:map^AQ:getBalance: output^AR:^AT:5^AU:request#^
<15>2018-05-21T23:53:07.041552+03:00 MonTierLocalId-2 [0x80000001][api-mon][debug] mpgw(webapi): trans(95117382)[request][172.17.100.130] gtid(29a2d46f5b0331b305ab6046): #^R7^B1:8^AP:json-to-xml^AQ:json-to-xml^AR:1.0.0^AT:7^AU:request#^
<15>2018-05-21T23:53:07.041493+03:00 MonTierLocalId-2 [0x80000001][api-mon][debug] mpgw(webapi): trans(95117382)[request][172.17.100.130] gtid(29a2d46f5b0331b305ab6046): #^R7^B1:8^AP:if^AQ:if^AR:1.0.0^AT:6^AU:request#^
<15>2018-05-21T23:53:07.041322+03:00 MonTierLocalId-2 [0x80000001][api-mon][debug] mpgw(webapi): trans(95117382)[request][172.17.100.130] gtid(29a2d46f5b0331b305ab6046): #^R7^B1:8^AP:map^AQ:getBalance: input^AR:^AT:3^AU:request#^
<15>2018-05-21T23:53:07.041150+03:00 MonTierLocalId-2 [0x80000001][api-mon][debug] mpgw(webapi): trans(95117382)[request][172.17.100.130] gtid(29a2d46f5b0331b305ab6046): #^R7^B1:8^AP:activitylog^AQ:activity-log^AR:1.0.0^AT:1^AU:request#^
<15>2018-05-21T23:53:07.041256+03:00 MonTierLocalId-2 [0x80000001][api-mon][debug] mpgw(webapi): trans(95117382)[request][172.17.100.130] gtid(29a2d46f5b0331b305ab6046): #^R7^B1:8^AP:apim.security^AQ:apim.security^AR:^AT:2^AU:request#^
<15>2018-05-21T23:53:07.041380+03:00 MonTierLocalId-2 [0x80000001][api-mon][debug] mpgw(webapi): trans(95117382)[request][172.17.100.130] gtid(29a2d46f5b0331b305ab6046): #^R7^B1:8^AP:invoke^AQ:getBalance: invoke^AR:^AT:4^AU:request#^
<15>2018-05-21T23:53:07.041608+03:00 MonTierLocalId-2 [0x80000001][api-mon][debug] mpgw(webapi): trans(95117382)[request][172.17.100.130] gtid(29a2d46f5b0331b305ab6046): #^R7^B1:8^AP:$$end-block$$^AQ:$$end-block$$^AR:^AT:8^AU:request#^
<15>2018-05-21T23:53:07.042352+03:00 MonTierLocalId-2 [0x80000001][api-mon][debug] mpgw(webapi): trans(95117382)[request][172.17.100.130] gtid(29a2d46f5b0331b305ab6046): #^R5^A1:montierorg^A2:montiercatalog^A3:new-space^A4:default^A5:1.0.0^A6:montierproduct:1.0.0:default^A7:accounts^A8:1.0.1^A9:https://172.17.100.200:443/montierorg/montiercatalog/accounts/balance^AA:GET^AB:accounts:1.0.1:get:/balance^AC:9612cb56-da1a-4757-a301-018ac4359306^AE:montierproduct^AF:customer_id=7777778^AG:0^AN:596d0eb7e4b0f0bab66e457b^AO:172.17.100.130^AP:activitylog^AQ:activity-log^AR:1.0.0^AS:activity-log^AT:1^AU:request^AV:^AW:^AX:^B6:26^B7:montierproduct^B8:monconsumerorg^BC:montierapp#^
<15>2018-05-21T23:53:07.042451+03:00 MonTierLocalId-2 [0x80e0068d][memory-report][debug] mpgw(webapi): trans(95117382)[request][172.17.100.130] gtid(29a2d46f5b0331b305ab6046): Processing [Rule (webapi-mpgw-request-fw), Action ('webapi-unified-request-select-and-set-policies', xform(local:///isp/unified-request-select-and-set-policies.xsl)), Input(NULL), Output(NULL)] finished: memory used 2439376
<14>2018-05-21T23:53:07.042532+03:00 MonTierLocalId-2 [0x80c00002][multistep][info] mpgw(webapi): trans(95117382)[request][172.17.100.130] gtid(29a2d46f5b0331b305ab6046): rule (webapi-mpgw-request-fw): #7 xform: Transforming the content of NULL. The transformation local:///isp/unified-request-select-and-set-policies.xsl is applied. The results are stored in NULL. completed OK.
<14>2018-05-21T23:53:07.042735+03:00 MonTierLocalId-2 [0x80c00002][multistep][info] mpgw(webapi): trans(95117382)[request][172.17.100.130] gtid(29a2d46f5b0331b305ab6046): rule (webapi-policy-step-fw-invoke-xform): #1 on-error continue completed OK.
<14>2018-05-21T23:53:07.200493+03:00 MonTierLocalId-2 [0x80a002a4][xslt][info] xmlmgr(webapi): trans(95117382)[172.17.100.130] gtid(29a2d46f5b0331b305ab6046): xslt Compilation Request: Compilation complete of URL 'local:///isp/policy/apim.logging.xsl'. Memory used 844560 bytes.
<14>2018-05-21T23:53:07.205195+03:00 MonTierLocalId-2 [0x80c00002][multistep][info] mpgw(webapi): trans(95117382)[request][172.17.100.130] gtid(29a2d46f5b0331b305ab6046): rule (webapi-policy-step-fw-invoke-xform): #2 xform: Transforming the content of NULL. The transformation var://context/policy/exec is applied. The results are stored in policy-output-temp. completed OK.
<14>2018-05-21T23:53:07.205308+03:00 MonTierLocalId-2 [0x80c00002][multistep][info] mpgw(webapi): trans(95117382)[request][172.17.100.130] gtid(29a2d46f5b0331b305ab6046): rule (webapi-policy-step-fw-invoke-xform): #3 on-error abort completed OK.
<15>2018-05-21T23:53:07.206726+03:00 MonTierLocalId-2 [0x80000001][api-mon][debug] mpgw(webapi): trans(95117382)[request][172.17.100.130] gtid(29a2d46f5b0331b305ab6046): #^R5^A1:montierorg^A2:montiercatalog^A3:new-space^A4:default^A5:1.0.0^A6:montierproduct:1.0.0:default^A7:accounts^A8:1.0.1^A9:https://172.17.100.200:443/montierorg/montiercatalog/accounts/balance^AA:GET^AB:accounts:1.0.1:get:/balance^AC:9612cb56-da1a-4757-a301-018ac4359306^AE:montierproduct^AF:customer_id=7777778^AG:0^AN:596d0eb7e4b0f0bab66e457b^AO:172.17.100.130^AP:apim.security^AQ:apim.security^AR:^AS:^AT:2^AU:request^AV:local:///isp/policy/apim.policy.security.js^AW:^AX:^B6:190^B7:montierproduct^B8:monconsumerorg^BC:montierapp#^
<15>2018-05-21T23:53:07.206155+03:00 MonTierLocalId-2 [0x80000001][api-mon][debug] mpgw(webapi): trans(95117382)[request][172.17.100.130] gtid(29a2d46f5b0331b305ab6046): #^R6^A1:montierorg^A2:montiercatalog^A3:new-space^A4:default^A5:1.0.0^A6:montierproduct:1.0.0:default^A7:accounts^A8:1.0.1^A9:https://172.17.100.200:443/montierorg/montiercatalog/accounts/balance^AA:GET^AB:accounts:1.0.1:get:/balance^AC:9612cb56-da1a-4757-a301-018ac4359306^AE:montierproduct^AF:customer_id=7777778^AG:0^AN:596d0eb7e4b0f0bab66e457b^AO:172.17.100.130^AP:activitylog^AQ:activity-log^AR:1.0.0^AS:activity-log^AT:1^AU:request^AV:^AW:^AX:^B6:189^B7:montierproduct^B8:monconsumerorg^BB:163^BC:montierapp#^
<14>2018-05-21T23:53:07.206822+03:00 MonTierLocalId-2 [0x80c00002][multistep][info] mpgw(webapi): trans(95117382)[request][172.17.100.130] gtid(29a2d46f5b0331b305ab6046): rule (webapi-policy-step-fw-invoke-xform): #4 xform: Transforming the content of NULL. The transformation local:///isp/unified-traverse.xsl is applied. The results are stored in NULL. completed OK.
<14>2018-05-21T23:53:07.206981+03:00 MonTierLocalId-2 [0x80c00002][multistep][info] mpgw(webapi): trans(95117382)[request][172.17.100.130] gtid(29a2d46f5b0331b305ab6046): rule (webapi-policy-invoke-gscript): #1 on-error continue completed OK.
<14>2018-05-21T23:53:07.207405+03:00 MonTierLocalId-2 [0x8580009e][gatewayscript][info] mpgw(webapi): trans(95117382)[request][172.17.100.130] gtid(29a2d46f5b0331b305ab6046): Running the script file 'local:///isp/policy/apim.policy.wrap.js'
<14>2018-05-21T23:53:07.422970+03:00 MonTierLocalId-2 [0x80a002a4][xslt][info] xmlmgr(webapi): trans(95117382)[172.17.100.130] gtid(29a2d46f5b0331b305ab6046): xslt Compilation Request: Compilation complete of URL 'local:///isp/policy/apim.oauth-1.xsl'. Memory used 761184 bytes.
<14>2018-05-21T23:53:07.427244+03:00 MonTierLocalId-2 [0x80c00002][multistep][info] mpgw(webapi): trans(95117382)[request][172.17.100.130] gtid(29a2d46f5b0331b305ab6046): rule (webapi-policy-oauth-1): #1 xform: Transforming the content of NULL. The transformation local:///isp/policy/apim.oauth-1.xsl is applied. The results are stored in PIPE. completed OK.
<14>2018-05-21T23:53:07.429059+03:00 MonTierLocalId-2 [0x80a002a4][xslt][info] xmlmgr(webapi): trans(95117382)[172.17.100.130] gtid(29a2d46f5b0331b305ab6046): xpath Compilation Request: Compilation complete of URL 'expr:////introspection/url[normalize-space(.) != '']%0Atrue()%0A'. Memory used 314712 bytes.
<14>2018-05-21T23:53:07.524147+03:00 MonTierLocalId-2 [0x80a002a4][xslt][info] xmlmgr(webapi): trans(95117382)[172.17.100.130] gtid(29a2d46f5b0331b305ab6046): xslt Compilation Request: Compilation complete of URL 'local:///isp/sts-oauth-client-template.xsl'. Memory used 628128 bytes.
<12>2018-05-21T23:53:07.527645+03:00 MonTierLocalId-2 [0x84e00009][crypto][warn] mpgw(webapi): trans(95117382)[request][172.17.100.130] gtid(29a2d46f5b0331b305ab6046): *[unknown] access_token expired*
<14>2018-05-21T23:53:07.528274+03:00 MonTierLocalId-2 [0x84e0004b][oauth][info] mpgw(webapi): trans(95117382)[request][172.17.100.130] gtid(29a2d46f5b0331b305ab6046): [cannot-verify-access-token] Verifying access_token AAIkOTYxMmNiNTYtZGExYS00NzU3LWEzMDEtMDE4YWM0MzU5MzA2VyoKgXDBmhYYfG6xjoYUJ-Cn8asoiqb8QIRgOHmAVhtlbYbKipmi2Y44D4_hEfwPg3zKwpEPn_1MZYqo2XQ55mauXHrZjJRp-HftlutoQgHOJR1g4dJPtlif2mj6Ul33
<12>2018-05-21T23:53:07.528457+03:00 MonTierLocalId-2 [0x84e00009][crypto][warn] mpgw(webapi): trans(95117382)[request][172.17.100.130] gtid(29a2d46f5b0331b305ab6046): *[cannot-verify-access-token] access_token expired*
<11>2018-05-21T23:53:07.528672+03:00 MonTierLocalId-2 [0x84e00024][oauth][error] mpgw(webapi): trans(95117382)[request][172.17.100.130] gtid(29a2d46f5b0331b305ab6046): *[cannot-verify-access-token] An error occurred while verifying the access_token for *[cannot-verify-access-token] access_token expired**
<11>2018-05-21T23:53:07.528806+03:00 MonTierLocalId-2 [0x84e00033][oauth][error] mpgw(webapi): trans(95117382)[request][172.17.100.130] gtid(29a2d46f5b0331b305ab6046): *[cannot-verify-access-token] Request validation failed on access_token*
<14>2018-05-21T23:53:07.529497+03:00 MonTierLocalId-2 [0x80c00037][xmlfilter][info] mpgw(webapi): trans(95117382)[request][172.17.100.130] gtid(29a2d46f5b0331b305ab6046): Reject set: Failed to verify OAuth information.
<12>2018-05-21T23:53:07.529631+03:00 MonTierLocalId-2 [0x83800015][aaa][warn] mpgw(webapi): trans(95117382)[request][172.17.100.130] gtid(29a2d46f5b0331b305ab6046): verified-oauth authentication failed with
<11>2018-05-21T23:53:07.529805+03:00 MonTierLocalId-2 [0x01d30001][multistep][error] mpgw(webapi): trans(95117382)[request][172.17.100.130] gtid(29a2d46f5b0331b305ab6046): AAA Authentication Failure
<12>2018-05-21T23:53:07.530441+03:00 MonTierLocalId-2 [0x838000f2][aaa][warn] mpgw(webapi): trans(95117382)[request][172.17.100.130] gtid(29a2d46f5b0331b305ab6046): anyauthenticated authorization failed with credential 'SPECIAL-FORMAT-NOT-PRINTED' for resource ''
<14>2018-05-21T23:53:07.530654+03:00 MonTierLocalId-2 [0x80e00115][mpgw][info] mpgw(webapi): trans(95117382)[172.17.100.130] gtid(29a2d46f5b0331b305ab6046): Will not process backside due to var://service/mpgw/skip-backside
<12>2018-05-21T23:53:07.531078+03:00 MonTierLocalId-2 [0x8380000e][aaa][warn] mpgw(webapi): trans(95117382)[request][172.17.100.130] gtid(29a2d46f5b0331b305ab6046): Message rejected
<11>2018-05-21T23:53:07.531253+03:00 MonTierLocalId-2 [0x80c00010][xslt][error] mpgw(webapi): trans(95117382)[request][172.17.100.130] gtid(29a2d46f5b0331b305ab6046): Processing of 'store:///dp/aaapolicy.xsl' stopped: Failed to verify OAuth information.
<11>2018-05-21T23:53:07.531362+03:00 MonTierLocalId-2 [0x80c00009][multistep][error] mpgw(webapi): trans(95117382)[request][172.17.100.130] gtid(29a2d46f5b0331b305ab6046): request webapi-policy-oauth-1 #2 aaa: 'NULL webapi-policy-oauth-1-aaa' failed: Failed to verify OAuth information.
<14>2018-05-21T23:53:07.533734+03:00 MonTierLocalId-2 [0x80c00002][multistep][info] mpgw(webapi): trans(95117382)[request][172.17.100.130] gtid(29a2d46f5b0331b305ab6046): rule (webapi-policy-invoke-gscript): #2 gatewayscript: Transforming the content of NULL. The transformation local:///isp/policy/apim.policy.wrap.js is applied. The results are stored in policy-output-temp. completed OK.
<14>2018-05-21T23:53:07.533861+03:00 MonTierLocalId-2 [0x80c00002][multistep][info] mpgw(webapi): trans(95117382)[request][172.17.100.130] gtid(29a2d46f5b0331b305ab6046): rule (webapi-policy-invoke-gscript): #3 on-error abort completed OK.
<14>2018-05-21T23:53:07.781078+03:00 MonTierLocalId-2 [0x80a002a4][xslt][info] xmlmgr(webapi): trans(95117382)[172.17.100.130] gtid(29a2d46f5b0331b305ab6046): xslt Compilation Request: Compilation complete of URL 'local:///isp/unified-traverse-check-error.xsl'. Memory used 1219680 bytes.
<15>2018-05-21T23:53:07.788893+03:00 MonTierLocalId-2 [0x80000001][api-mon][debug] mpgw(webapi): trans(95117382)[request][172.17.100.130] gtid(29a2d46f5b0331b305ab6046): #^R6^A1:montierorg^A2:montiercatalog^A3:new-space^A4:default^A5:1.0.0^A6:montierproduct:1.0.0:default^A7:accounts^A8:1.0.1^A9:https://172.17.100.200:443/montierorg/montiercatalog/accounts/balance^AA:GET^AB:accounts:1.0.1:get:/balance^AC:9612cb56-da1a-4757-a301-018ac4359306^AE:montierproduct^AF:customer_id=7777778^AG:0^AN:596d0eb7e4b0f0bab66e457b^AO:172.17.100.130^AP:apim.security^AQ:apim.security^AR:^AS:^AT:2^AU:request^AV:local:///isp/policy/apim.policy.security.js^AW:^AX:^B6:772^B7:montierproduct^B8:monconsumerorg^BB:582^BC:montierapp#^
<14>2018-05-21T23:53:07.789177+03:00 MonTierLocalId-2 [0x80c00002][multistep][info] mpgw(webapi): trans(95117382)[request][172.17.100.130] gtid(29a2d46f5b0331b305ab6046): rule (webapi-policy-invoke-gscript): #4 xform: Transforming the content of NULL. The transformation local:///isp/unified-traverse-check-error.xsl is applied. The results are stored in NULL. completed OK.
<15>2018-05-21T23:53:07.790001+03:00 MonTierLocalId-2 [0x80000001][api-mon][debug] mpgw(webapi): trans(95117382)[request][172.17.100.130] gtid(29a2d46f5b0331b305ab6046): #^R4^A1:montierorg^A2:montiercatalog^A3:new-space^A4:default^A5:1.0.0^A6:montierproduct:1.0.0:default^A7:accounts^A8:1.0.1^A9:https://172.17.100.200:443/montierorg/montiercatalog/accounts/balance^AA:GET^AB:accounts:1.0.1:get:/balance^AC:9612cb56-da1a-4757-a301-018ac4359306^AE:montierproduct^AF:customer_id=7777778^AG:0^AH:1^AI:401^AJ:0^AK:"Unauthorized"^AL:"This server could not verify that you are authorized to access the URL"^AM:401^AN:596d0eb7e4b0f0bab66e457b^AO:172.17.100.130^AW:^AX:^AY:^AZ:^B2:773^B3:5^B4:0^B5:780^B7:montierproduct^B8:monconsumerorg^B9:1^BA:1^BC:montierapp#^
<14>2018-05-21T23:53:07.790283+03:00 MonTierLocalId-2 [0x80c00037][xmlfilter][info] mpgw(webapi): trans(95117382)[request][172.17.100.130] gtid(29a2d46f5b0331b305ab6046): Reject set: This server could not verify that you are authorized to access the URL
<11>2018-05-21T23:53:07.790397+03:00 MonTierLocalId-2 [0x80c00010][xslt][error] mpgw(webapi): trans(95117382)[request][172.17.100.130] gtid(29a2d46f5b0331b305ab6046): Processing of 'local:///isp/policy/apim.policy.end.xsl' stopped: This server could not verify that you are authorized to access the URL
<11>2018-05-21T23:53:07.790519+03:00 MonTierLocalId-2 [0x80c00009][multistep][error] mpgw(webapi): trans(95117382)[request][172.17.100.130] gtid(29a2d46f5b0331b305ab6046): request webapi-policy-end #1 xform: Transforming the content of NULL. The transformation local:///isp/policy/apim.policy.end.xsl is applied. The results are stored in NULL. failed: This server could not verify that you are authorized to access the URL
<11>2018-05-21T23:53:07.790639+03:00 MonTierLocalId-2 [0x80c00009][multistep][error] mpgw(webapi): trans(95117382)[request][172.17.100.130] gtid(29a2d46f5b0331b305ab6046): request webapi-policy-invoke-gscript #5 Calling rule var://context/policy/fw/call-rule with input NULL and output NULL. failed: This server could not verify that you are authorized to access the URL
<11>2018-05-21T23:53:07.790808+03:00 MonTierLocalId-2 [0x80c00009][multistep][error] mpgw(webapi): trans(95117382)[request][172.17.100.130] gtid(29a2d46f5b0331b305ab6046): request webapi-policy-step-fw-invoke-xform #5 Calling rule var://context/policy/fw/call-rule with input NULL and output NULL. failed: This server could not verify that you are authorized to access the URL
<11>2018-05-21T23:53:07.790953+03:00 MonTierLocalId-2 [0x80c00009][multistep][error] mpgw(webapi): trans(95117382)[request][172.17.100.130] gtid(29a2d46f5b0331b305ab6046): request webapi-mpgw-request-fw #8 Calling rule var://context/policy/fw/call-rule with input NULL and output NULL. failed: This server could not verify that you are authorized to access the URL
<11>2018-05-21T23:53:07.791135+03:00 MonTierLocalId-2 [0x00d30003][mpgw][error] mpgw(webapi): trans(95117382)[error][172.17.100.130] gtid(29a2d46f5b0331b305ab6046): Rejected by filter; SOAP fault sent
<14>2018-05-21T23:53:07.791359+03:00 MonTierLocalId-2 [0x80e000b7][mpgw][info] mpgw(webapi): trans(95117382)[error][172.17.100.130] gtid(29a2d46f5b0331b305ab6046): rule (webapi-mpgw-error): selected via match 'all' from processing policy 'webapi' for code '0x00d30003'
<15>2018-05-21T23:53:07.791441+03:00 MonTierLocalId-2 [0x80e0068e][memory-report][debug] mpgw(webapi): trans(95117382)[172.17.100.130] gtid(29a2d46f5b0331b305ab6046): Request Finished: memory used 5993008
<14>2018-05-21T23:53:07.791904+03:00 MonTierLocalId-2 [0x8580009e][gatewayscript][info] mpgw(webapi): trans(95117382)[error][172.17.100.130] gtid(29a2d46f5b0331b305ab6046): Running the script file 'local:///isp/policy/apim.error.response.js'
<15>2018-05-21T23:53:07.792298+03:00 MonTierLocalId-2 [0x80e0068d][memory-report][debug] mpgw(webapi): trans(95117382)[error][172.17.100.130] gtid(29a2d46f5b0331b305ab6046): Processing [Rule (webapi-mpgw-error), Action ('webapi-gws-api-error-response-js', gatewayscript()), Input(NULL), Output(NULL)] finished: memory used 6062720
<14>2018-05-21T23:53:07.792409+03:00 MonTierLocalId-2 [0x80c00002][multistep][info] mpgw(webapi): trans(95117382)[error][172.17.100.130] gtid(29a2d46f5b0331b305ab6046): rule (webapi-mpgw-error): #1 gatewayscript: Transforming the content of NULL. The transformation local:///isp/policy/apim.error.response.js is applied. The results are stored in NULL. completed OK.
<11>2018-05-21T23:53:07.792892+03:00 MonTierLocalId-2 [0x80000001][xsltmsg][error] mpgw(webapi): trans(95117382)[error][172.17.100.130] gtid(29a2d46f5b0331b305ab6046): api-error-response multistep error
<15>2018-05-21T23:53:07.793036+03:00 MonTierLocalId-2 [0x80e0068d][memory-report][debug] mpgw(webapi): trans(95117382)[error][172.17.100.130] gtid(29a2d46f5b0331b305ab6046): Processing [Rule (webapi-mpgw-error), Action ('webapi-xform-api-error-response', xform(local:///isp/api-error-response.xsl)), Input(NULL), Output(NULL)] finished: memory used 6203040
<14>2018-05-21T23:53:07.793118+03:00 MonTierLocalId-2 [0x80c00002][multistep][info] mpgw(webapi): trans(95117382)[error][172.17.100.130] gtid(29a2d46f5b0331b305ab6046): rule (webapi-mpgw-error): #2 xform: Transforming the content of NULL. The transformation local:///isp/api-error-response.xsl is applied. The results are stored in NULL. completed OK.
<15>2018-05-21T23:53:07.793894+03:00 MonTierLocalId-2 [0x80e003ab][xmlparse][debug] mpgw(webapi): trans(95117382)[error][172.17.100.130] gtid(29a2d46f5b0331b305ab6046): Finished parsing: local:///isp/error/error.json
<15>2018-05-21T23:53:07.794824+03:00 MonTierLocalId-2 [0x80e0068d][memory-report][debug] mpgw(webapi): trans(95117382)[error][172.17.100.130] gtid(29a2d46f5b0331b305ab6046): Processing [Rule (webapi-mpgw-error), Action ('webapi-xform-error-message', xform(local:///isp/error/error_message.xsl)), Input(NULL), Output(ErrorPayload)] finished: memory used 6327592
<14>2018-05-21T23:53:07.794931+03:00 MonTierLocalId-2 [0x80c00002][multistep][info] mpgw(webapi): trans(95117382)[error][172.17.100.130] gtid(29a2d46f5b0331b305ab6046): rule (webapi-mpgw-error): #3 xform: Transforming the content of NULL. The transformation local:///isp/error/error_message.xsl is applied. The results are stored in ErrorPayload. completed OK.
<15>2018-05-21T23:53:07.796366+03:00 MonTierLocalId-2 [0x80e0068d][memory-report][debug] mpgw(webapi): trans(95117382)[error][172.17.100.130] gtid(29a2d46f5b0331b305ab6046): Processing [Rule (webapi-mpgw-error), Action ('webapi-xform-analytics', xform(local:///isp/api-analytics.xsl)), Input(NULL), Output(NULL)] finished: memory used 6533688
<14>2018-05-21T23:53:07.796457+03:00 MonTierLocalId-2 [0x80c00002][multistep][info] mpgw(webapi): trans(95117382)[error][172.17.100.130] gtid(29a2d46f5b0331b305ab6046): rule (webapi-mpgw-error): #4 xform: Transforming the content of NULL. The transformation local:///isp/api-analytics.xsl is applied. The results are stored in NULL. completed OK.
<15>2018-05-21T23:53:07.797126+03:00 MonTierLocalId-2 [0x80000001][api-mon][debug] mpgw(webapi): trans(95117382)[error][172.17.100.130] gtid(29a2d46f5b0331b305ab6046): #^R4^A1:montierorg^A2:montiercatalog^A3:new-space^A4:default^A5:1.0.0^A6:montierproduct:1.0.0:default^A7:accounts^A8:1.0.1^A9:https://172.17.100.200:443/montierorg/montiercatalog/accounts/balance^AA:GET^AB:accounts:1.0.1:get:/balance^AC:9612cb56-da1a-4757-a301-018ac4359306^AE:montierproduct^AF:customer_id=7777778^AG:0^AH:1^AI:401^AJ:0^AK:"Unauthorized"^AL:"This server could not verify that you are authorized to access the URL"^AM:401^AN:596d0eb7e4b0f0bab66e457b^AO:172.17.100.130^AW:^AX:^AY:^AZ:^B2:775^B3:5^B4:0^B5:780^B7:montierproduct^B8:monconsumerorg^B9:2^BA:1^BC:montierapp#^
<14>2018-05-21T23:53:07.797277+03:00 MonTierLocalId-2 [0x80000001][latency][info] mpgw(webapi): trans(95117382)[error][172.17.100.130] gtid(29a2d46f5b0331b305ab6046): API Gateway Latency: 0 25 190 780 [https://172.17.100.200:443/montierorg/montiercatalog/accounts/balance?customer_id=7777778]
<15>2018-05-21T23:53:07.797424+03:00 MonTierLocalId-2 [0x80e0068d][memory-report][debug] mpgw(webapi): trans(95117382)[error][172.17.100.130] gtid(29a2d46f5b0331b305ab6046): Processing [Rule (webapi-mpgw-error), Action ('webapi-xform-final', xform(local:///isp/api-final.xsl)), Input(NULL), Output(NULL)] finished: memory used 6663712
<14>2018-05-21T23:53:07.797538+03:00 MonTierLocalId-2 [0x80c00002][multistep][info] mpgw(webapi): trans(95117382)[error][172.17.100.130] gtid(29a2d46f5b0331b305ab6046): rule (webapi-mpgw-error): #5 xform: Transforming the content of NULL. The transformation local:///isp/api-final.xsl is applied. The results are stored in NULL. completed OK.
<15>2018-05-21T23:53:07.797951+03:00 MonTierLocalId-2 [0x80e0068d][memory-report][debug] mpgw(webapi): trans(95117382)[error][172.17.100.130] gtid(29a2d46f5b0331b305ab6046): Processing [Rule (webapi-mpgw-error), Action ('webapi-error-results', results()), Input(ErrorPayload), Output(NULL)] finished: memory used 6757192
<14>2018-05-21T23:53:07.798040+03:00 MonTierLocalId-2 [0x80c00002][multistep][info] mpgw(webapi): trans(95117382)[error][172.17.100.130] gtid(29a2d46f5b0331b305ab6046): rule (webapi-mpgw-error): #6 results: Generated from ErrorPayload. completed OK.
<15>2018-05-21T23:53:07.798104+03:00 MonTierLocalId-2 [0x80e0068d][memory-report][debug] mpgw(webapi): trans(95117382)[error][172.17.100.130] gtid(29a2d46f5b0331b305ab6046): Processing [Rule (webapi-mpgw-error), Action ('webapi-dpext-cond4', conditional()), Input(webapi-dpext), Output(NULL)] finished: memory used 6758552
<14>2018-05-21T23:53:07.798163+03:00 MonTierLocalId-2 [0x80c00002][multistep][info] mpgw(webapi): trans(95117382)[error][172.17.100.130] gtid(29a2d46f5b0331b305ab6046): rule (webapi-mpgw-error): #7 Conditional on webapi-dpext completed OK.
<15>2018-05-21T23:53:07.798586+03:00 MonTierLocalId-2 [0x80e0068d][memory-report][debug] mpgw(webapi): trans(95117382)[error][172.17.100.130] gtid(29a2d46f5b0331b305ab6046): Processing [Rule (webapi-mpgw-error), Action ('webapi-xform-set-ctype', xform(local:///isp/api-set-ctype.xsl)), Input(webapi-dpext), Output(NULL)] finished: memory used 6810976
<14>2018-05-21T23:53:07.798694+03:00 MonTierLocalId-2 [0x80c00002][multistep][info] mpgw(webapi): trans(95117382)[error][172.17.100.130] gtid(29a2d46f5b0331b305ab6046): rule (webapi-mpgw-error): #8 xform: Transforming the content of webapi-dpext. The transformation local:///isp/api-set-ctype.xsl is applied. The results are stored in NULL. completed OK.
<15>2018-05-21T23:53:07.799224+03:00 MonTierLocalId-2 [0x80e00690][memory-report][debug] mpgw(webapi): trans(95117382)[172.17.100.130] gtid(29a2d46f5b0331b305ab6046): Response Finished: memory used 6155960
