<14>2018-05-22T00:06:36.963333+03:00 MonTierLocalId-2 [0x80e0013a][mpgw][info] source-https(webapi-https): trans(95140694)[172.17.100.130]: Received HTTP/1.1 POST for /montierorg/montiercatalog/AccountService from 172.17.100.130
<15>2018-05-22T00:06:36.963822+03:00 MonTierLocalId-2 [0x80e0013f][mpgw][debug] source-https(webapi-https): trans(95140694)[172.17.100.130]: Found content length 867 HTTP input
<14>2018-05-22T00:06:36.964136+03:00 MonTierLocalId-2 [0x80e000b4][mpgw][info] stylepolicy(webapi): trans(95140694)[request][172.17.100.130]: rule (webapi-mpgw-request-fw): selected via match 'all' from processing policy 'webapi'
<14>2018-05-22T00:06:36.964279+03:00 MonTierLocalId-2 [0x80e0083d][mpgw][info] mpgw(webapi): trans(95140694)[request][172.17.100.130]: Started the processing of the transaction.
<15>2018-05-22T00:06:36.964418+03:00 MonTierLocalId-2 [0x80e0068c][memory-report][debug] mpgw(webapi): trans(95140694)[172.17.100.130] gtid(29a2d46f5b0334dc05abbb56): Request Started: memory used 173512
<15>2018-05-22T00:06:36.964740+03:00 MonTierLocalId-2 [0x80e0068d][memory-report][debug] mpgw(webapi): trans(95140694)[request][172.17.100.130] gtid(29a2d46f5b0334dc05abbb56): Processing [Rule (webapi-mpgw-request-fw), Action ('webapi-init-context', setvar(var://context/_apimgmt/no-op)), Input(INPUT), Output(NULL)] finished: memory used 226520
<14>2018-05-22T00:06:36.964837+03:00 MonTierLocalId-2 [0x80c00002][multistep][info] mpgw(webapi): trans(95140694)[request][172.17.100.130] gtid(29a2d46f5b0334dc05abbb56): rule (webapi-mpgw-request-fw): #1 setvar: Setting var://context/_apimgmt/no-op in context INPUT to be 1. completed OK.
<15>2018-05-22T00:06:36.966387+03:00 MonTierLocalId-2 [0x80e0068d][memory-report][debug] mpgw(webapi): trans(95140694)[request][172.17.100.130] gtid(29a2d46f5b0334dc05abbb56): Processing [Rule (webapi-mpgw-request-fw), Action ('webapi-unified-request-init', xform(local:///isp/unified-request-init.xsl)), Input(NULL), Output(CONTEXT_WEBAPI_TR)] finished: memory used 477016
<14>2018-05-22T00:06:36.966493+03:00 MonTierLocalId-2 [0x80c00002][multistep][info] mpgw(webapi): trans(95140694)[request][172.17.100.130] gtid(29a2d46f5b0334dc05abbb56): rule (webapi-mpgw-request-fw): #2 xform: Transforming the content of NULL. The transformation local:///isp/unified-request-init.xsl is applied. The results are stored in CONTEXT_WEBAPI_TR. completed OK.
<15>2018-05-22T00:06:36.966867+03:00 MonTierLocalId-2 [0x80e0068d][memory-report][debug] mpgw(webapi): trans(95140694)[request][172.17.100.130] gtid(29a2d46f5b0334dc05abbb56): Processing [Rule (webapi-mpgw-request-fw), Action ('webapi-dpext-pre-request-cond', conditional()), Input(webapi-dpext), Output(NULL)] finished: memory used 492104
<14>2018-05-22T00:06:36.966961+03:00 MonTierLocalId-2 [0x80c00002][multistep][info] mpgw(webapi): trans(95140694)[request][172.17.100.130] gtid(29a2d46f5b0334dc05abbb56): rule (webapi-mpgw-request-fw): #3 Conditional on webapi-dpext completed OK.
<15>2018-05-22T00:06:36.967248+03:00 MonTierLocalId-2 [0x80e0068d][memory-report][debug] mpgw(webapi): trans(95140694)[request][172.17.100.130] gtid(29a2d46f5b0334dc05abbb56): Processing [Rule (webapi-mpgw-request-fw), Action ('webapi-form-parse-input', conditional()), Input(CONTEXT_WEBAPI_TR), Output(NULL)] finished: memory used 507120
<14>2018-05-22T00:06:36.967336+03:00 MonTierLocalId-2 [0x80c00002][multistep][info] mpgw(webapi): trans(95140694)[request][172.17.100.130] gtid(29a2d46f5b0334dc05abbb56): rule (webapi-mpgw-request-fw): #4 Conditional on CONTEXT_WEBAPI_TR completed OK.
<14>2018-05-22T00:06:36.968688+03:00 MonTierLocalId-2 [0x80e0015b][network][info] trans(95140694)[172.17.100.130] gtid(29a2d46f5b0334dc05abbb56): HTTP response code 200 for 'http://127.54.53.243:2444/services/v1/catalogs/596d0f67e4b0f0bab66e459a'
<15>2018-05-22T00:06:36.968818+03:00 MonTierLocalId-2 [0x80e0039e][network][debug] mpgw(webapi): trans(95140694)[request][172.17.100.130] gtid(29a2d46f5b0334dc05abbb56): url-open: response code 200
<15>2018-05-22T00:06:36.971424+03:00 MonTierLocalId-2 [0x80e003ab][xmlparse][debug] mpgw(webapi): trans(95140694)[request][172.17.100.130] gtid(29a2d46f5b0334dc05abbb56): Finished parsing: http://127.54.53.243:2444/services/v1/catalogs/596d0f67e4b0f0bab66e459a
<15>2018-05-22T00:06:36.973283+03:00 MonTierLocalId-2 [0x80000001][api-mon][debug] mpgw(webapi): trans(95140694)[request][172.17.100.130] gtid(29a2d46f5b0334dc05abbb56): #^R3^A1:montierorg^A2:montiercatalog^A3:new-space^A4:default^A5:1.0.0^A6:montierproduct:1.0.0:default^A7:accountservice^A8:1.0.0^A9:https://172.17.100.200:443/montierorg/montiercatalog/AccountService^AA:POST^AB:accountservice:1.0.0:post:/getBalance^AC:9612cb56-da1a-4757-a301-018ac4359306^AE:montierproduct^AF:^AG:867^AN:596d0eb7e4b0f0bab66e457b^AO:172.17.100.130^AW:^AX:^B7:montierproduct^B8:monconsumerorg^B9:1^BC:montierapp#^
<14>2018-05-22T00:06:36.973544+03:00 MonTierLocalId-2 [0x80e00114][mpgw][info] mpgw(webapi): trans(95140694)[172.17.100.130] gtid(29a2d46f5b0334dc05abbb56): Dynamic routing SSL profile set to client:api-sslcli-all
<14>2018-05-22T00:06:36.973714+03:00 MonTierLocalId-2 [0x80e00117][mpgw][info] mpgw(webapi): trans(95140694)[172.17.100.130] gtid(29a2d46f5b0334dc05abbb56): Destination URL is now http://127.54.53.243:2444/echo/
<15>2018-05-22T00:06:36.973890+03:00 MonTierLocalId-2 [0x80e0068d][memory-report][debug] mpgw(webapi): trans(95140694)[request][172.17.100.130] gtid(29a2d46f5b0334dc05abbb56): Processing [Rule (webapi-mpgw-request-fw), Action ('webapi-unified-request-select-and-set-tenant', xform(local:///isp/unified-request-select-and-set-tenant.xsl)), Input(NULL), Output(NULL)] finished: memory used 1394392
<14>2018-05-22T00:06:36.973991+03:00 MonTierLocalId-2 [0x80c00002][multistep][info] mpgw(webapi): trans(95140694)[request][172.17.100.130] gtid(29a2d46f5b0334dc05abbb56): rule (webapi-mpgw-request-fw): #5 xform: Transforming the content of NULL. The transformation local:///isp/unified-request-select-and-set-tenant.xsl is applied. The results are stored in NULL. completed OK.
<15>2018-05-22T00:06:36.974506+03:00 MonTierLocalId-2 [0x80e0068d][memory-report][debug] mpgw(webapi): trans(95140694)[request][172.17.100.130] gtid(29a2d46f5b0334dc05abbb56): Processing [Rule (webapi-mpgw-request-fw), Action ('webapi-xform-xml-identity', xform(store:///identity.xsl)), Input(INPUT), Output(NULL)] finished: memory used 1471880
<14>2018-05-22T00:06:36.974658+03:00 MonTierLocalId-2 [0x80c00002][multistep][info] mpgw(webapi): trans(95140694)[request][172.17.100.130] gtid(29a2d46f5b0334dc05abbb56): rule (webapi-mpgw-request-fw): #6 xform: Transforming the content of INPUT. The transformation store:///identity.xsl is applied. The results are stored in NULL. completed OK.
<15>2018-05-22T00:06:36.974904+03:00 MonTierLocalId-2 [0x80e0068d][memory-report][debug] mpgw(webapi): trans(95140694)[request][172.17.100.130] gtid(29a2d46f5b0334dc05abbb56): Processing [Rule (webapi-mpgw-request-fw), Action ('webapi-request-response-conditional-1', conditional()), Input(CONTEXT_WEBAPI_TR), Output(NULL)] finished: memory used 1473272
<14>2018-05-22T00:06:36.975071+03:00 MonTierLocalId-2 [0x80c00002][multistep][info] mpgw(webapi): trans(95140694)[request][172.17.100.130] gtid(29a2d46f5b0334dc05abbb56): rule (webapi-mpgw-request-fw): #7 Conditional on CONTEXT_WEBAPI_TR completed OK.
<14>2018-05-22T00:06:36.976628+03:00 MonTierLocalId-2 [0x80e0015b][network][info] trans(95140694)[172.17.100.130] gtid(29a2d46f5b0334dc05abbb56): HTTP response code 200 for 'http://127.54.53.243:2444/cached/input-map-digest/v1/catalogs/596d0f67e4b0f0bab66e459a/apis/5ae997e8e4b03d99e0d663d9'
<15>2018-05-22T00:06:36.976774+03:00 MonTierLocalId-2 [0x80e0039e][network][debug] mpgw(webapi): trans(95140694)[request][172.17.100.130] gtid(29a2d46f5b0334dc05abbb56): url-open: response code 200
<15>2018-05-22T00:06:36.977169+03:00 MonTierLocalId-2 [0x80e003ab][xmlparse][debug] mpgw(webapi): trans(95140694)[request][172.17.100.130] gtid(29a2d46f5b0334dc05abbb56): Finished parsing: http://127.54.53.243:2444/cached/input-map-digest/v1/catalogs/596d0f67e4b0f0bab66e459a/apis/5ae997e8e4b03d99e0d663d9
<14>2018-05-22T00:06:36.978230+03:00 MonTierLocalId-2 [0x80e0015b][network][info] trans(95140694)[172.17.100.130] gtid(29a2d46f5b0334dc05abbb56): HTTP response code 200 for 'http://127.54.53.243:2444/cached/policies/v1/catalogs/596d0f67e4b0f0bab66e459a/apis/5ae997e8e4b03d99e0d663d9:POST:/getBalance:montierproduct:1.0.0:default'
<15>2018-05-22T00:06:36.978356+03:00 MonTierLocalId-2 [0x80e0039e][network][debug] mpgw(webapi): trans(95140694)[request][172.17.100.130] gtid(29a2d46f5b0334dc05abbb56): url-open: response code 200
<15>2018-05-22T00:06:36.978540+03:00 MonTierLocalId-2 [0x80e003ab][xmlparse][debug] mpgw(webapi): trans(95140694)[request][172.17.100.130] gtid(29a2d46f5b0334dc05abbb56): Finished parsing: http://127.54.53.243:2444/cached/policies/v1/catalogs/596d0f67e4b0f0bab66e459a/apis/5ae997e8e4b03d99e0d663d9:POST:/getBalance:montierproduct:1.0.0:default
<15>2018-05-22T00:06:36.980816+03:00 MonTierLocalId-2 [0x80000001][api-mon][debug] mpgw(webapi): trans(95140694)[request][172.17.100.130] gtid(29a2d46f5b0334dc05abbb56): #^R7^B1:2^AP:proxy^AQ:proxy^AR:^AT:2^AU:request#^
<15>2018-05-22T00:06:36.980712+03:00 MonTierLocalId-2 [0x80000001][api-mon][debug] mpgw(webapi): trans(95140694)[request][172.17.100.130] gtid(29a2d46f5b0334dc05abbb56): #^R7^B1:2^AP:apim.appidentity^AQ:security-appID^AR:^AT:1^AU:request#^
<15>2018-05-22T00:06:36.981766+03:00 MonTierLocalId-2 [0x80000001][api-mon][debug] mpgw(webapi): trans(95140694)[request][172.17.100.130] gtid(29a2d46f5b0334dc05abbb56): #^R5^A1:montierorg^A2:montiercatalog^A3:new-space^A4:default^A5:1.0.0^A6:montierproduct:1.0.0:default^A7:accountservice^A8:1.0.0^A9:https://172.17.100.200:443/montierorg/montiercatalog/AccountService^AA:POST^AB:accountservice:1.0.0:post:/getBalance^AC:9612cb56-da1a-4757-a301-018ac4359306^AE:montierproduct^AF:^AG:867^AN:596d0eb7e4b0f0bab66e457b^AO:172.17.100.130^AP:apim.appidentity^AQ:security-appID^AR:^AS:security-appID^AT:1^AU:request^AV:^AW:^AX:^B6:18^B7:montierproduct^B8:monconsumerorg^BC:montierapp#^
<15>2018-05-22T00:06:36.981873+03:00 MonTierLocalId-2 [0x80e0068d][memory-report][debug] mpgw(webapi): trans(95140694)[request][172.17.100.130] gtid(29a2d46f5b0334dc05abbb56): Processing [Rule (webapi-mpgw-request-fw), Action ('webapi-unified-request-select-and-set-policies', xform(local:///isp/unified-request-select-and-set-policies.xsl)), Input(NULL), Output(NULL)] finished: memory used 2050080
<14>2018-05-22T00:06:36.981967+03:00 MonTierLocalId-2 [0x80c00002][multistep][info] mpgw(webapi): trans(95140694)[request][172.17.100.130] gtid(29a2d46f5b0334dc05abbb56): rule (webapi-mpgw-request-fw): #8 xform: Transforming the content of NULL. The transformation local:///isp/unified-request-select-and-set-policies.xsl is applied. The results are stored in NULL. completed OK.
<14>2018-05-22T00:06:36.982141+03:00 MonTierLocalId-2 [0x80c00002][multistep][info] mpgw(webapi): trans(95140694)[request][172.17.100.130] gtid(29a2d46f5b0334dc05abbb56): rule (webapi-policy-step-fw-invoke-xform): #1 on-error continue completed OK.
<14>2018-05-22T00:06:36.982910+03:00 MonTierLocalId-2 [0x80c00002][multistep][info] mpgw(webapi): trans(95140694)[request][172.17.100.130] gtid(29a2d46f5b0334dc05abbb56): rule (webapi-policy-step-fw-invoke-xform): #2 xform: Transforming the content of NULL. The transformation var://context/policy/exec is applied. The results are stored in policy-output-temp. completed OK.
<15>2018-05-22T00:06:36.983729+03:00 MonTierLocalId-2 [0x80000001][api-mon][debug] mpgw(webapi): trans(95140694)[request][172.17.100.130] gtid(29a2d46f5b0334dc05abbb56): #^R6^A1:montierorg^A2:montiercatalog^A3:new-space^A4:default^A5:1.0.0^A6:montierproduct:1.0.0:default^A7:accountservice^A8:1.0.0^A9:https://172.17.100.200:443/montierorg/montiercatalog/AccountService^AA:POST^AB:accountservice:1.0.0:post:/getBalance^AC:9612cb56-da1a-4757-a301-018ac4359306^AE:montierproduct^AF:^AG:867^AN:596d0eb7e4b0f0bab66e457b^AO:172.17.100.130^AP:apim.appidentity^AQ:security-appID^AR:^AS:security-appID^AT:1^AU:request^AV:^AW:^AX:^B6:20^B7:montierproduct^B8:monconsumerorg^BB:2^BC:montierapp#^
<14>2018-05-22T00:06:36.983019+03:00 MonTierLocalId-2 [0x80c00002][multistep][info] mpgw(webapi): trans(95140694)[request][172.17.100.130] gtid(29a2d46f5b0334dc05abbb56): rule (webapi-policy-step-fw-invoke-xform): #3 on-error abort completed OK.
<15>2018-05-22T00:06:36.984234+03:00 MonTierLocalId-2 [0x80000001][api-mon][debug] mpgw(webapi): trans(95140694)[request][172.17.100.130] gtid(29a2d46f5b0334dc05abbb56): #^R5^A1:montierorg^A2:montiercatalog^A3:new-space^A4:default^A5:1.0.0^A6:montierproduct:1.0.0:default^A7:accountservice^A8:1.0.0^A9:https://172.17.100.200:443/montierorg/montiercatalog/AccountService^AA:POST^AB:accountservice:1.0.0:post:/getBalance^AC:9612cb56-da1a-4757-a301-018ac4359306^AE:montierproduct^AF:^AG:867^AN:596d0eb7e4b0f0bab66e457b^AO:172.17.100.130^AP:proxy^AQ:proxy^AR:^AS:proxy^AT:2^AU:request^AV:^AW:^AX:^B6:20^B7:montierproduct^B8:monconsumerorg^BC:montierapp#^
<14>2018-05-22T00:06:36.984336+03:00 MonTierLocalId-2 [0x80c00002][multistep][info] mpgw(webapi): trans(95140694)[request][172.17.100.130] gtid(29a2d46f5b0334dc05abbb56): rule (webapi-policy-step-fw-invoke-xform): #4 xform: Transforming the content of NULL. The transformation local:///isp/unified-traverse.xsl is applied. The results are stored in NULL. completed OK.
<14>2018-05-22T00:06:36.984473+03:00 MonTierLocalId-2 [0x80c00002][multistep][info] mpgw(webapi): trans(95140694)[request][172.17.100.130] gtid(29a2d46f5b0334dc05abbb56): rule (webapi-policy-step-fw-invoke-xform): #1 on-error continue completed OK.
<12>2018-05-22T00:06:36.985131+03:00 MonTierLocalId-2 [0x80e0027f][mpgw][warn] mpgw(webapi): trans(95140694)[172.17.100.130] gtid(29a2d46f5b0334dc05abbb56): MPGW Backend: invalid timeout value NaN, ignored
<14>2018-05-22T00:06:36.985853+03:00 MonTierLocalId-2 [0x8580009e][gatewayscript][info] mpgw(webapi): trans(95140694)[request][172.17.100.130] gtid(29a2d46f5b0334dc05abbb56): Running the script file 'local://isp/policy/xslt-to-js-bridge.js'
<14>2018-05-22T00:06:36.987483+03:00 MonTierLocalId-2 [0x80e00114][mpgw][info] mpgw(webapi): trans(95140694)[172.17.100.130] gtid(29a2d46f5b0334dc05abbb56): Dynamic routing SSL profile set to client:api-sslcli-all
<14>2018-05-22T00:06:36.987897+03:00 MonTierLocalId-2 [0x80e00117][mpgw][info] mpgw(webapi): trans(95140694)[172.17.100.130] gtid(29a2d46f5b0334dc05abbb56): Destination URL is now http://172.17.100.200:2055/services/AccountService
<15>2018-05-22T00:06:36.988738+03:00 MonTierLocalId-2 [0x80000001][api-mon][debug] mpgw(webapi): trans(95140694)[request][172.17.100.130] gtid(29a2d46f5b0334dc05abbb56): #^R6^A1:montierorg^A2:montiercatalog^A3:new-space^A4:default^A5:1.0.0^A6:montierproduct:1.0.0:default^A7:accountservice^A8:1.0.0^A9:https://172.17.100.200:443/montierorg/montiercatalog/AccountService^AA:POST^AB:accountservice:1.0.0:post:/getBalance^AC:9612cb56-da1a-4757-a301-018ac4359306^AE:montierproduct^AF:^AG:867^AN:596d0eb7e4b0f0bab66e457b^AO:172.17.100.130^AP:proxy^AQ:proxy^AR:^AS:proxy^AT:2^AU:request^AV:^AW:^AX:^B6:25^B7:montierproduct^B8:monconsumerorg^BB:5^BC:montierapp#^
<14>2018-05-22T00:06:36.988048+03:00 MonTierLocalId-2 [0x80c00002][multistep][info] mpgw(webapi): trans(95140694)[request][172.17.100.130] gtid(29a2d46f5b0334dc05abbb56): rule (webapi-policy-step-fw-invoke-xform): #2 xform: Transforming the content of NULL. The transformation var://context/policy/exec is applied. The results are stored in policy-output-temp. completed OK.
<14>2018-05-22T00:06:36.988128+03:00 MonTierLocalId-2 [0x80c00002][multistep][info] mpgw(webapi): trans(95140694)[request][172.17.100.130] gtid(29a2d46f5b0334dc05abbb56): rule (webapi-policy-step-fw-invoke-xform): #3 on-error abort completed OK.
<14>2018-05-22T00:06:36.988983+03:00 MonTierLocalId-2 [0x80c00002][multistep][info] mpgw(webapi): trans(95140694)[request][172.17.100.130] gtid(29a2d46f5b0334dc05abbb56): rule (webapi-policy-step-fw-invoke-xform): #4 xform: Transforming the content of NULL. The transformation local:///isp/unified-traverse.xsl is applied. The results are stored in NULL. completed OK.
<14>2018-05-22T00:06:36.989455+03:00 MonTierLocalId-2 [0x80c00002][multistep][info] mpgw(webapi): trans(95140694)[request][172.17.100.130] gtid(29a2d46f5b0334dc05abbb56): rule (webapi-policy-end): #1 xform: Transforming the content of NULL. The transformation local:///isp/policy/apim.policy.end.xsl is applied. The results are stored in NULL. completed OK.
<14>2018-05-22T00:06:36.989560+03:00 MonTierLocalId-2 [0x80c00002][multistep][info] mpgw(webapi): trans(95140694)[request][172.17.100.130] gtid(29a2d46f5b0334dc05abbb56): rule (webapi-policy-step-fw-invoke-xform): #5 Calling rule var://context/policy/fw/call-rule with input NULL and output NULL. completed OK.
<14>2018-05-22T00:06:36.989651+03:00 MonTierLocalId-2 [0x80c00002][multistep][info] mpgw(webapi): trans(95140694)[request][172.17.100.130] gtid(29a2d46f5b0334dc05abbb56): rule (webapi-policy-step-fw-invoke-xform): #5 Calling rule var://context/policy/fw/call-rule with input NULL and output NULL. completed OK.
<15>2018-05-22T00:06:36.989736+03:00 MonTierLocalId-2 [0x80e0068d][memory-report][debug] mpgw(webapi): trans(95140694)[request][172.17.100.130] gtid(29a2d46f5b0334dc05abbb56): Processing [Rule (webapi-mpgw-request-fw), Action ('webapi-policy-call-action', call(var://context/policy/fw/call-rule)), Input(NULL), Output(NULL)] finished: memory used 2449376
<14>2018-05-22T00:06:36.989809+03:00 MonTierLocalId-2 [0x80c00002][multistep][info] mpgw(webapi): trans(95140694)[request][172.17.100.130] gtid(29a2d46f5b0334dc05abbb56): rule (webapi-mpgw-request-fw): #9 Calling rule var://context/policy/fw/call-rule with input NULL and output NULL. completed OK.
<15>2018-05-22T00:06:36.990302+03:00 MonTierLocalId-2 [0x80e0068d][memory-report][debug] mpgw(webapi): trans(95140694)[request][172.17.100.130] gtid(29a2d46f5b0334dc05abbb56): Processing [Rule (webapi-mpgw-request-fw), Action ('webapi-unified-request-finalize-policy', xform(local:///isp/unified-request-finalize-policy.xsl)), Input(NULL), Output(NULL)] finished: memory used 2541952
<14>2018-05-22T00:06:36.990394+03:00 MonTierLocalId-2 [0x80c00002][multistep][info] mpgw(webapi): trans(95140694)[request][172.17.100.130] gtid(29a2d46f5b0334dc05abbb56): rule (webapi-mpgw-request-fw): #10 xform: Transforming the content of NULL. The transformation local:///isp/unified-request-finalize-policy.xsl is applied. The results are stored in NULL. completed OK.
<15>2018-05-22T00:06:36.990795+03:00 MonTierLocalId-2 [0x80e0068d][memory-report][debug] mpgw(webapi): trans(95140694)[request][172.17.100.130] gtid(29a2d46f5b0334dc05abbb56): Processing [Rule (webapi-mpgw-request-fw), Action ('webapi-post-results', results()), Input(INPUT), Output(NULL)] finished: memory used 2652560
<14>2018-05-22T00:06:36.990880+03:00 MonTierLocalId-2 [0x80c00002][multistep][info] mpgw(webapi): trans(95140694)[request][172.17.100.130] gtid(29a2d46f5b0334dc05abbb56): rule (webapi-mpgw-request-fw): #11 results: Generated from INPUT. completed OK.
<15>2018-05-22T00:06:36.990947+03:00 MonTierLocalId-2 [0x80e0068d][memory-report][debug] mpgw(webapi): trans(95140694)[request][172.17.100.130] gtid(29a2d46f5b0334dc05abbb56): Processing [Rule (webapi-mpgw-request-fw), Action ('webapi-dpext-cond2', conditional()), Input(webapi-dpext), Output(NULL)] finished: memory used 2653736
<14>2018-05-22T00:06:36.991005+03:00 MonTierLocalId-2 [0x80c00002][multistep][info] mpgw(webapi): trans(95140694)[request][172.17.100.130] gtid(29a2d46f5b0334dc05abbb56): rule (webapi-mpgw-request-fw): #12 Conditional on webapi-dpext completed OK.
<15>2018-05-22T00:06:36.991174+03:00 MonTierLocalId-2 [0x80e003ca][network][debug] xmlmgr(webapi): trans(95140694)[172.17.100.130] gtid(29a2d46f5b0334dc05abbb56): Attempting TCP connect to 172.17.100.200
<15>2018-05-22T00:06:36.992063+03:00 MonTierLocalId-2 [0x80e0068e][memory-report][debug] mpgw(webapi): trans(95140694)[172.17.100.130] gtid(29a2d46f5b0334dc05abbb56): Request Finished: memory used 2183584
<14>2018-05-22T00:06:36.992144+03:00 MonTierLocalId-2 [0x80e0012d][mpgw][info] mpgw(webapi): trans(95140694)[172.17.100.130] gtid(29a2d46f5b0334dc05abbb56): Using Backside Server: http://172.17.100.200:2055/services/AccountService
<14>2018-05-22T00:06:37.006883+03:00 MonTierLocalId-2 [0x80e0015b][mpgw][info] mpgw(webapi): trans(95140694)[172.17.100.130] gtid(29a2d46f5b0334dc05abbb56): HTTP response code 200 for 'http://172.17.100.200:2055/services/AccountService'
<14>2018-05-22T00:06:37.007236+03:00 MonTierLocalId-2 [0x80e000b4][mpgw][info] mpgw(webapi): trans(95140694)[response][172.17.100.130] gtid(29a2d46f5b0334dc05abbb56): rule (webapi-mpgw-response-fw): selected via match 'all' from processing policy 'webapi'
<15>2018-05-22T00:06:37.007372+03:00 MonTierLocalId-2 [0x80e0068f][memory-report][debug] mpgw(webapi): trans(95140694)[172.17.100.130] gtid(29a2d46f5b0334dc05abbb56): Response Started: memory used 2227384
<15>2018-05-22T00:06:37.007638+03:00 MonTierLocalId-2 [0x80e0068d][memory-report][debug] mpgw(webapi): trans(95140694)[response][172.17.100.130] gtid(29a2d46f5b0334dc05abbb56): Processing [Rule (webapi-mpgw-response-fw), Action ('webapi-init-context', setvar(var://context/_apimgmt/no-op)), Input(INPUT), Output(NULL)] finished: memory used 2289280
<14>2018-05-22T00:06:37.007726+03:00 MonTierLocalId-2 [0x80c00002][multistep][info] mpgw(webapi): trans(95140694)[response][172.17.100.130] gtid(29a2d46f5b0334dc05abbb56): rule (webapi-mpgw-response-fw): #1 setvar: Setting var://context/_apimgmt/no-op in context INPUT to be 1. completed OK.
<14>2018-05-22T00:06:37.008656+03:00 MonTierLocalId-2 [0x80000001][apiconnect][info] mpgw(webapi): trans(95140694)[response][172.17.100.130] gtid(29a2d46f5b0334dc05abbb56): response content-type is application/xml, expected
<15>2018-05-22T00:06:37.009469+03:00 MonTierLocalId-2 [0x80e0068d][memory-report][debug] mpgw(webapi): trans(95140694)[response][172.17.100.130] gtid(29a2d46f5b0334dc05abbb56): Processing [Rule (webapi-mpgw-response-fw), Action ('webapi-unified-response-check-response-code-and-actions', xform(local:///isp/unified-response-check-response-code-and-actions.xsl)), Input(NULL), Output(NULL)] finished: memory used 2587504
<14>2018-05-22T00:06:37.009589+03:00 MonTierLocalId-2 [0x80c00002][multistep][info] mpgw(webapi): trans(95140694)[response][172.17.100.130] gtid(29a2d46f5b0334dc05abbb56): rule (webapi-mpgw-response-fw): #2 xform: Transforming the content of NULL. The transformation local:///isp/unified-response-check-response-code-and-actions.xsl is applied. The results are stored in NULL. completed OK.
<15>2018-05-22T00:06:37.009661+03:00 MonTierLocalId-2 [0x80e0068d][memory-report][debug] mpgw(webapi): trans(95140694)[response][172.17.100.130] gtid(29a2d46f5b0334dc05abbb56): Processing [Rule (webapi-mpgw-response-fw), Action ('webapi-on-error-continue', on-error()), Input(NULL), Output(NULL)] finished: memory used 2589032
<14>2018-05-22T00:06:37.009724+03:00 MonTierLocalId-2 [0x80c00002][multistep][info] mpgw(webapi): trans(95140694)[response][172.17.100.130] gtid(29a2d46f5b0334dc05abbb56): rule (webapi-mpgw-response-fw): #3 on-error continue completed OK.
<15>2018-05-22T00:06:37.010323+03:00 MonTierLocalId-2 [0x80e003ab][xmlparse][debug] mpgw(webapi): trans(95140694)[response][172.17.100.130] gtid(29a2d46f5b0334dc05abbb56): Finished parsing: https://172.17.100.200:443/montierorg/montiercatalog/AccountService
<15>2018-05-22T00:06:37.010595+03:00 MonTierLocalId-2 [0x80e0068d][memory-report][debug] mpgw(webapi): trans(95140694)[response][172.17.100.130] gtid(29a2d46f5b0334dc05abbb56): Processing [Rule (webapi-mpgw-response-fw), Action ('webapi-xform-xml-identity', xform(store:///identity.xsl)), Input(INPUT), Output(NULL)] finished: memory used 2685704
<14>2018-05-22T00:06:37.010723+03:00 MonTierLocalId-2 [0x80c00002][multistep][info] mpgw(webapi): trans(95140694)[response][172.17.100.130] gtid(29a2d46f5b0334dc05abbb56): rule (webapi-mpgw-response-fw): #4 xform: Transforming the content of INPUT. The transformation store:///identity.xsl is applied. The results are stored in NULL. completed OK.
<15>2018-05-22T00:06:37.010793+03:00 MonTierLocalId-2 [0x80e0068d][memory-report][debug] mpgw(webapi): trans(95140694)[response][172.17.100.130] gtid(29a2d46f5b0334dc05abbb56): Processing [Rule (webapi-mpgw-response-fw), Action ('webapi-payload-cond', conditional()), Input(CONTEXT_WEBAPI_TR), Output(NULL)] finished: memory used 2686776
<14>2018-05-22T00:06:37.010852+03:00 MonTierLocalId-2 [0x80c00002][multistep][info] mpgw(webapi): trans(95140694)[response][172.17.100.130] gtid(29a2d46f5b0334dc05abbb56): rule (webapi-mpgw-response-fw): #5 Conditional on CONTEXT_WEBAPI_TR completed OK.
<15>2018-05-22T00:06:37.010910+03:00 MonTierLocalId-2 [0x80e0068d][memory-report][debug] mpgw(webapi): trans(95140694)[response][172.17.100.130] gtid(29a2d46f5b0334dc05abbb56): Processing [Rule (webapi-mpgw-response-fw), Action ('webapi-on-error-abort', on-error()), Input(NULL), Output(NULL)] finished: memory used 2686912
<14>2018-05-22T00:06:37.010974+03:00 MonTierLocalId-2 [0x80c00002][multistep][info] mpgw(webapi): trans(95140694)[response][172.17.100.130] gtid(29a2d46f5b0334dc05abbb56): rule (webapi-mpgw-response-fw): #6 on-error abort completed OK.
<15>2018-05-22T00:06:37.011173+03:00 MonTierLocalId-2 [0x80e0068d][memory-report][debug] mpgw(webapi): trans(95140694)[response][172.17.100.130] gtid(29a2d46f5b0334dc05abbb56): Processing [Rule (webapi-mpgw-response-fw), Action ('webapi-policy-maybe-response-actions', conditional()), Input(response-actions), Output(NULL)] finished: memory used 2700624
<14>2018-05-22T00:06:37.011257+03:00 MonTierLocalId-2 [0x80c00002][multistep][info] mpgw(webapi): trans(95140694)[response][172.17.100.130] gtid(29a2d46f5b0334dc05abbb56): rule (webapi-mpgw-response-fw): #7 Conditional on response-actions completed OK.
<15>2018-05-22T00:06:37.012650+03:00 MonTierLocalId-2 [0x80000001][api-mon][debug] mpgw(webapi): trans(95140694)[response][172.17.100.130] gtid(29a2d46f5b0334dc05abbb56): #^R4^A1:montierorg^A2:montiercatalog^A3:new-space^A4:default^A5:1.0.0^A6:montierproduct:1.0.0:default^A7:accountservice^A8:1.0.0^A9:https://172.17.100.200:443/montierorg/montiercatalog/AccountService^AA:POST^AB:accountservice:1.0.0:post:/getBalance^AC:9612cb56-da1a-4757-a301-018ac4359306^AE:montierproduct^AF:^AG:867^AH:0^AI:200^AJ:291^AK:^AL:^AM:200^AN:596d0eb7e4b0f0bab66e457b^AO:172.17.100.130^AW:^AX:^AY:^AZ:^B2:28^B3:2^B4:19^B5:49^B7:montierproduct^B8:monconsumerorg^B9:1^BA:1^BC:montierapp#^
<14>2018-05-22T00:06:37.012821+03:00 MonTierLocalId-2 [0x80000001][latency][info] mpgw(webapi): trans(95140694)[response][172.17.100.130] gtid(29a2d46f5b0334dc05abbb56): API Gateway Latency: 0 18 20 49 [https://172.17.100.200:443/montierorg/montiercatalog/AccountService]
<15>2018-05-22T00:06:37.012954+03:00 MonTierLocalId-2 [0x80e0068d][memory-report][debug] mpgw(webapi): trans(95140694)[response][172.17.100.130] gtid(29a2d46f5b0334dc05abbb56): Processing [Rule (webapi-mpgw-response-fw), Action ('webapi-unified-response-analytics-and-finalize', xform(local:///isp/unified-response-analytics-and-finalize.xsl)), Input(NULL), Output(NULL)] finished: memory used 2942280
<14>2018-05-22T00:06:37.013035+03:00 MonTierLocalId-2 [0x80c00002][multistep][info] mpgw(webapi): trans(95140694)[response][172.17.100.130] gtid(29a2d46f5b0334dc05abbb56): rule (webapi-mpgw-response-fw): #8 xform: Transforming the content of NULL. The transformation local:///isp/unified-response-analytics-and-finalize.xsl is applied. The results are stored in NULL. completed OK.
<15>2018-05-22T00:06:37.013474+03:00 MonTierLocalId-2 [0x80e0068d][memory-report][debug] mpgw(webapi): trans(95140694)[response][172.17.100.130] gtid(29a2d46f5b0334dc05abbb56): Processing [Rule (webapi-mpgw-response-fw), Action ('webapi-xform-output-xml', xform(local:///isp/identity.xsl)), Input(INPUT), Output(OUTPUT)] finished: memory used 3082016
<14>2018-05-22T00:06:37.013568+03:00 MonTierLocalId-2 [0x80c00002][multistep][info] mpgw(webapi): trans(95140694)[response][172.17.100.130] gtid(29a2d46f5b0334dc05abbb56): rule (webapi-mpgw-response-fw): #9 xform: Transforming the content of INPUT. The transformation local:///isp/identity.xsl is applied. The results are stored in OUTPUT. completed OK.
<15>2018-05-22T00:06:37.013630+03:00 MonTierLocalId-2 [0x80e0068d][memory-report][debug] mpgw(webapi): trans(95140694)[response][172.17.100.130] gtid(29a2d46f5b0334dc05abbb56): Processing [Rule (webapi-mpgw-response-fw), Action ('webapi-dpext-cond3', conditional()), Input(webapi-dpext), Output(NULL)] finished: memory used 3083512
<14>2018-05-22T00:06:37.013746+03:00 MonTierLocalId-2 [0x80c00002][multistep][info] mpgw(webapi): trans(95140694)[response][172.17.100.130] gtid(29a2d46f5b0334dc05abbb56): rule (webapi-mpgw-response-fw): #10 Conditional on webapi-dpext completed OK.
<14>2018-05-22T00:06:37.014075+03:00 MonTierLocalId-2 [0x80e00073][latency][info] mpgw(webapi): trans(95140694)[172.17.100.130] gtid(29a2d46f5b0334dc05abbb56): Latency: 1 28 1 27 28 26 0 43 50 44 50 50 50 47 27 28 [https://172.17.100.200:443/montierorg/montiercatalog/AccountService]
<15>2018-05-22T00:06:37.014171+03:00 MonTierLocalId-2 [0x80e007ad][mpgw][debug] mpgw(webapi): trans(95140694)[172.17.100.130] gtid(29a2d46f5b0334dc05abbb56): ExtLatency: TS=0,HR=0,BR=0,PS=0,ASV=0,AXF=2,ACO=2,ACO=3,AXF=9,AXF=10,ACO=10,AXF=17,ACL=25,AXF=26,ARE=26,ACO=26,PC=26,CS=26,HS=27,BS=27, == HR=42,BR=43,PS=43,ASV=43,AXF=45,AOE=45,AXF=46,ACO=46,AOE=46,ACO=47,AXF=48,AXF=49,ACO=49,PC=49,HS=49,BS=49,TC=49, [https://172.17.100.200:443/montierorg/montiercatalog/AccountService]
<14>2018-05-22T00:06:37.014248+03:00 MonTierLocalId-2 [0x80e007ad][extlatency][info] mpgw(webapi): trans(95140694)[172.17.100.130] gtid(29a2d46f5b0334dc05abbb56): ExtLatency: TS=0,HR=0,BR=0,PS=0,ASV=0,AXF=2,ACO=2,ACO=3,AXF=9,AXF=10,ACO=10,AXF=17,ACL=25,AXF=26,ARE=26,ACO=26,PC=26,CS=26,HS=27,BS=27, == HR=42,BR=43,PS=43,ASV=43,AXF=45,AOE=45,AXF=46,ACO=46,AOE=46,ACO=47,AXF=48,AXF=49,ACO=49,PC=49,HS=49,BS=49,TC=49, [https://172.17.100.200:443/montierorg/montiercatalog/AccountService]
<15>2018-05-22T00:06:37.014468+03:00 MonTierLocalId-2 [0x80e00690][memory-report][debug] mpgw(webapi): trans(95140694)[172.17.100.130] gtid(29a2d46f5b0334dc05abbb56): Response Finished: memory used 2526760
